0
-2459.1612767173383
0
0
0
0
0
6231.129912272681
0
-2456.367308660425
0
0
0
0
0
6220.021095278394
0
-2456.7472883161654
0
0
0
0
0
6215.6848568540645
0
-2458.1554482168494
0
0
0
0
0
6224.267926724902
0
-2460.3906226623803
0
0
0
0
0
6233.767418118408
0
-2459.787125562087
0
0
0
0
0
6230.861691339218
0
-2458.1107447279387
0
0
0
0
0
6219.641115622654
0
-2458.893055783875
0
0
0
0
0
6214.187289975559
0
-2459.1836284617934
0
0
0
0
0
6222.479787168478
0
-2460.658843595844
0
0
0
0
0
6231.5322436728775
0.016
-0.04
1.044
0
-2460.234160451193
0
0
0
0
0
6230.168787261104
0
-2455.8308667934975
0
0
0
0
0
6218.99291503345
0
-2455.584997604489
0
0
0
0
0
6213.762606830908
0
-2458.3789656614026
0
0
0
0
0
6221.988048790461
0
-2459.787125562087
0
0
0
0
0
6231.755761117431
0
-2460.524733129112
0
0
0
0
0
6229.699400627542
0
-2457.596654605467
0
0
0
0
0
6219.082322011272
0
-2456.9931575051737
0
0
0
0
0
6213.6284963641765
0
-2459.1836284617934
0
0
0
0
0
6221.18338599007
0
-2461.530561629601
0
0
0
0
0
6230.749932616942
0.02
-0.052000000000000005
1.04
0
-2461.0611749960394
0
0
0
0
0
6229.788807605363
0
-2457.686061583288
0
0
0
0
0
6219.305839455824
0
-2456.590826104978
0
0
0
0
0
6214.030827764372
0
-2458.177799961305
0
0
0
0
0
6222.23391797947
0
-2460.7258988292097
0
0
0
0
0
6231.621650650698
0
-2461.7987825630644
0
0
0
0
0
6230.23584249447
0
-2458.937759272785
0
0
0
0
0
6219.350542944735
0
-2457.395488905369
0
0
0
0
0
6213.427330664079
0
-2459.0495179950617
0
0
0
0
0
6220.7363511009635
0
-2462.0223000076176
0
0
0
0
0
6230.973450061495
0.018000000000000002
-0.046
1.044
0
-2461.3740994184136
0
0
0
0
0
6230.079380283282
0
-2458.848352294964
0
0
0
0
0
6218.724694099987
0
-2455.6073493489444
0
0
0
0
0
6212.42150216359
0
-2459.4518493952573
0
0
0
0
0
6220.5575371453215
0
-2461.195285462771
0
0
0
0
0
6229.475883182989
0
-2461.195285462771
0
0
0
0
0
6228.268888982402
0
-2459.0495179950617
0
0
0
0
0
6217.696513855042
0
-2457.462544138735
0
0
0
0
0
6212.108577741215
0
-2460.0553464955506
0
0
0
0
0
6219.775226089386
0
-2462.2458174521707
0
0
0
0
0
6229.475883182989
0.022
-0.04
1.046
0
-2462.5810936190005
0
0
0
0
0
6228.782979104874
0
-2461.552913374056
0
0
0
0
0
6218.143548744149
0
-2459.4518493952573
0
0
0
0
0
6212.175632974581
0
-2460.4800296402013
0
0
0
0
0
6221.13868250116
0
-2462.111706985439
0
0
0
0
0
6230.079380283282
0
-2461.7987825630644
0
0
0
0
0
6229.453531438534
0
-2460.6811953402994
0
0
0
0
0
6218.434121422068
0
-2459.1836284617934
0
0
0
0
0
6211.974467274484
0
-2459.6753668398105
0
0
0
0
0
6220.177557489581
0
-2462.6705005968215
0
0
0
0
0
6229.922918072095
0.026000000000000002
-0.044
1.036
0
-2462.782259319098
0
0
0
0
0
6229.5205866719
0
-2459.8094773065422
0
0
0
0
0
6218.6799906110755
0
-2457.596654605467
0
0
0
0
0
6212.510909141411
0
-2458.4460208947685
0
0
0
0
0
6220.222260978492
0
-2461.619968607422
0
0
0
0
0
6230.101732027738
0
-2463.206942463749
0
0
0
0
0
6229.9452698165505
0
-2460.6141401069335
0
0
0
0
0
6220.289316211858
0
-2458.53542787259
0
0
0
0
0
6214.187289975559
0
-2460.524733129112
0
0
0
0
0
6221.339848201257
0
-2462.3575761744473
0
0
0
0
0
6231.755761117431
0.018000000000000002
-0.042
1.044
0
-2462.402279663358
0
0
0
0
0
6231.5322436728775
0
-2460.949416273763
0
0
0
0
0
6221.0269237788825
0
-2460.1000499844613
0
0
0
0
0
6214.030827764372
0
-2461.172933718316
0
0
0
0
0
6221.697476112542
0
-2463.5422186305786
0
0
0
0
0
6231.956926817528
0
-2464.525695386612
0
0
0
0
0
6231.778112861885
0
-2460.7482505736652
0
0
0
0
0
6221.004572034428
0
-2459.943587773274
0
0
0
0
0
6214.679028353576
0
-2461.754079074154
0
0
0
0
0
6222.32332495729
0
-2463.9892535196846
0
0
0
0
0
6232.202796006536
0.02
-0.036000000000000004
1.044
0
-2465.44211690928
0
0
0
0
0
6232.739237873464
0
-2461.0388232515843
0
0
0
0
0
6222.256269723925
0
-2460.3906226623803
0
0
0
0
0
6215.014304520405
0
-2462.91636978583
0
0
0
0
0
6221.585717390266
0
-2466.269131454126
0
0
0
0
0
6232.202796006536
0
-2464.6374541088885
0
0
0
0
0
6231.7110576285195
0
-2463.877494797408
0
0
0
0
0
6221.585717390266
0
-2462.2458174521707
0
0
0
0
0
6214.522566142388
0
-2463.810439564042
0
0
0
0
0
6221.5186621569
0
-2465.9562070317515
0
0
0
0
0
6231.576947161788
0.014
-0.038
1.052
0
-2465.777393076109
0
0
0
0
0
6232.403961706635
0
-2463.497515141668
0
0
0
0
0
6221.809234834819
0
-2462.7152040857322
0
0
0
0
0
6214.634324864665
0
-2463.475163397213
0
0
0
0
0
6220.334019700768
0
-2464.9280267868075
0
0
0
0
0
6231.196967506047
0
-2465.531523887101
0
0
0
0
0
6231.5322436728775
0
-2463.206942463749
0
0
0
0
0
6221.004572034428
0
-2461.0611749960394
0
0
0
0
0
6213.494385897445
0
-2462.759907574643
0
0
0
0
0
6221.205737734525
0
-2465.1962477202715
0
0
0
0
0
6230.727580872486
0.016
-0.034
1.042
0
-2465.375061675914
0
0
0
0
0
6232.09103728426
0
-2463.5422186305786
0
0
0
0
0
6222.300973212836
0
-2463.721032586221
0
0
0
0
0
6214.187289975559
0
-2464.078660497506
0
0
0
0
0
6220.401074934134
0
-2464.302177942059
0
0
0
0
0
6229.878214583185
0
-2465.9115035428413
0
0
0
0
0
6230.794636105852
0
-2463.7657360751314
0
0
0
0
0
6221.004572034428
0
-2463.519866886123
0
0
0
0
0
6212.667371352598
0
-2465.419765164824
0
0
0
0
0
6219.305839455824
0
-2466.2914831985813
0
0
0
0
0
6230.168787261104
0.02
-0.04
1.042
0
-2464.816268064531
0
0
0
0
0
6231.196967506047
0
-2463.229294208204
0
0
0
0
0
6220.982220289972
0
-2462.871666296919
0
0
0
0
0
6212.957944030517
0
-2463.8327913084977
0
0
0
0
0
6219.372894689191
0
-2466.1797244763047
0
0
0
0
0
6228.872386082696
0
-2466.4479454097686
0
0
0
0
0
6229.788807605363
0
-2465.017433764629
0
0
0
0
0
6220.334019700768
0
-2463.6316256083996
0
0
0
0
0
6212.846185308241
0
-2464.369233175425
0
0
0
0
0
6218.210603977514
0
-2466.5373523875896
0
0
0
0
0
6228.85003433824
0.024
-0.038
1.038
0
-2466.8949802988745
0
0
0
0
0
6229.9452698165505
0
-2465.1515442313607
0
0
0
0
0
6220.199909234037
0
-2464.6151023644334
0
0
0
0
0
6212.242688207947
0
-2466.045614009573
0
0
0
0
0
6218.434121422068
0
-2465.017433764629
0
0
0
0
0
6229.297069227347
0
-2465.2633029536373
0
0
0
0
0
6231.308726228324
0
-2464.0339570085953
0
0
0
0
0
6222.457435424022
0
-2462.871666296919
0
0
0
0
0
6214.433159164568
0
-2464.9280267868075
0
0
0
0
0
6219.6187638781985
0
-2467.453773910257
0
0
0
0
0
6229.922918072095
0.022
-0.04
1.038
0
-2464.72686108671
0
0
0
0
0
6231.8228163507965
0
-2462.871666296919
0
0
0
0
0
6222.211566235014
0
-2462.6705005968215
0
0
0
0
0
6213.248516708436
0
-2464.3245296865143
0
0
0
0
0
6219.261135966914
0
-2467.453773910257
0
0
0
0
0
6230.079380283282
0
-2467.1184977434277
0
0
0
0
0
6231.755761117431
0
-2465.1962477202715
0
0
0
0
0
6222.23391797947
0
-2463.206942463749
0
0
0
0
0
6213.382627175168
0
-2463.9892535196846
0
0
0
0
0
6218.903508055629
0
-2466.067965754028
0
0
0
0
0
6228.85003433824
0.026000000000000002
-0.044
1.042
0
-2466.5373523875896
0
0
0
0
0
6230.839339594762
0
-2465.3527099314583
0
0
0
0
0
6222.032752279371
0
-2464.0339570085953
0
0
0
0
0
6214.075531253283
0
-2465.7103378427432
0
0
0
0
0
6218.948211544539
0
-2468.3478436884698
0
0
0
0
0
6229.073551782793
0
-2469.398375677869
0
0
0
0
0
6231.308726228324
0
-2465.9562070317515
0
0
0
0
0
6222.748008101941
0
-2464.816268064531
0
0
0
0
0
6214.477862653478
0
-2464.9280267868075
0
0
0
0
0
6218.769397588897
0
-2466.783221576598
0
0
0
0
0
6229.095903527249
0.024
-0.048
1.044
0
-2469.018396022129
0
0
0
0
0
6231.867519839707
0
-2467.342015187981
0
0
0
0
0
6222.144511001648
0
-2466.1573727318496
0
0
0
0
0
6213.13675798616
0
-2468.4372506662908
0
0
0
0
0
6217.472996410489
0
-2467.5208291436234
0
0
0
0
0
6228.112426771215
0
-2467.6325878658995
0
0
0
0
0
6231.040505294861
0
-2466.20207622076
0
0
0
0
0
6222.502138912933
0
-2464.9056750423524
0
0
0
0
0
6213.650848108631
0
-2466.9396837877853
0
0
0
0
0
6218.009438277417
0
-2469.10780299995
0
0
0
0
0
6228.917089571606
0.026000000000000002
-0.05
1.038
0
-2468.8395820664864
0
0
0
0
0
6231.845168095251
0
-2466.6714628543214
0
0
0
0
0
6222.658601124121
0
-2464.9280267868075
0
0
0
0
0
6213.024999263883
0
-2465.687986098288
0
0
0
0
0
6216.534223143366
0
-2468.1243262439166
0
0
0
0
0
6228.157130260126
0
-2469.9348175447963
0
0
0
0
0
6230.839339594762
0
-2468.459602410746
0
0
0
0
0
6222.032752279371
0
-2466.3138349430365
0
0
0
0
0
6212.220336463492
0
-2467.2079047212487
0
0
0
0
0
6216.042484765349
0
-2471.3429774454808
0
0
0
0
0
6227.665391882109
0.024
-0.048
1.036
0
-2471.9911780346847
0
0
0
0
0
6230.816987850308
0
-2468.2137332217376
0
0
0
0
0
6222.144511001648
0
-2466.336186687492
0
0
0
0
0
6212.913240541607
0
-2466.984387276696
0
0
0
0
0
6217.003609776928
0
-2469.912465800341
0
0
0
0
0
6228.335944215768
0
-2470.4712594117236
0
0
0
0
0
6231.688705884065
0
-2469.398375677869
0
0
0
0
0
6222.27862146838
0
-2467.096145998972
0
0
0
0
0
6213.13675798616
0
-2466.336186687492
0
0
0
0
0
6216.847147565741
0
-2469.5101344001455
0
0
0
0
0
6228.604165149232
0.024
-0.042
1.034
0
-2470.1359832448943
0
0
0
0
0
6231.845168095251
0
-2469.1748582333157
0
0
0
0
0
6223.619726135698
0
-2466.3138349430365
0
0
0
0
0
6213.874365553184
0
-2467.789050077087
0
0
0
0
0
6218.724694099987
0
-2470.3818524339026
0
0
0
0
0
6230.1240837721925
0
-2471.7900123345867
0
0
0
0
0
6233.029810551383
0
-2469.1301547444054
0
0
0
0
0
6224.893775569651
0
-2467.9678640327293
0
0
0
0
0
6215.550746387333
0
-2468.4148989218356
0
0
0
0
0
6220.266964467402
0
-2470.91829430083
0
0
0
0
0
6230.7722843613965
0.016
-0.036000000000000004
1.038
0
-2471.3429774454808
0
0
0
0
0
6233.5215489294
0
-2470.940646045285
0
0
0
0
0
6225.4302174365785
0
-2468.01256752164
0
0
0
0
0
6215.997781276439
0
-2468.7948785775757
0
0
0
0
0
6219.886984811662
0
-2471.924122801319
0
0
0
0
0
6231.040505294861
0
-2473.7346141021985
0
0
0
0
0
6234.885005341173
0
-2470.7394803451875
0
0
0
0
0
6225.474920925489
0
-2467.990215777185
0
0
0
0
0
6215.953077787528
0
-2469.957169289252
0
0
0
0
0
6219.886984811662
0
-2471.4100326788466
0
0
0
0
0
6231.085208783771
0.018000000000000002
-0.04
1.042
0
-2471.3429774454808
0
0
0
0
0
6235.37674371919
0
-2470.784183834098
0
0
0
0
0
6227.419522693101
0
-2468.7054715997547
0
0
0
0
0
6217.718865599498
0
-2470.784183834098
0
0
0
0
0
6220.222260978492
0
-2471.566494890034
0
0
0
0
0
6231.576947161788
0
-2472.3488059459696
0
0
0
0
0
6235.220281508003
0
-2470.2253902227153
0
0
0
0
0
6227.263060481913
0
-2468.2584367106483
0
0
0
0
0
6217.204775477026
0
-2469.979521033707
0
0
0
0
0
6220.445778423045
0
-2472.6393786238887
0
0
0
0
0
6231.241670994958
0.022
-0.048
1.038
0
-2473.8687245689302
0
0
0
0
0
6235.533205930377
0
-2471.924122801319
0
0
0
0
0
6228.358295960224
0
-2470.650073367366
0
0
0
0
0
6218.210603977514
0
-2471.8123640790423
0
0
0
0
0
6220.691647612053
0
-2474.0251867801176
0
0
0
0
0
6232.359258217723
0
-2474.0475385245727
0
0
0
0
0
6236.896662342151
0
-2472.684082112799
0
0
0
0
0
6228.425351193589
0
-2472.527619901612
0
0
0
0
0
6219.484653411467
0
-2474.3604629469473
0
0
0
0
0
6221.295144712347
0
-2476.506230414657
0
0
0
0
0
6231.755761117431
0.026000000000000002
-0.048
1.04
0
-2475.6121606364445
0
0
0
0
0
6236.159054775126
0
-2474.271055969126
0
0
0
0
0
6228.604165149232
0
-2470.8959425563744
0
0
0
0
0
6217.89767955514
0
-2471.8123640790423
0
0
0
0
0
6220.959868545517
0
-2475.6345123808997
0
0
0
0
0
6230.861691339218
0
-2477.8920385708857
0
0
0
0
0
6235.488502441466
0
-2475.209829236249
0
0
0
0
0
6228.224185493492
0
-2473.8687245689302
0
0
0
0
0
6217.607106877221
0
-2474.1145937579386
0
0
0
0
0
6219.283487711369
0
-2475.813326336542
0
0
0
0
0
6230.526415172389
0.028
-0.046
1.046
0
-2477.1544310038607
0
0
0
0
0
6235.6449646526535
0
-2476.4168234368353
0
0
0
0
0
6229.095903527249
0
-2473.935779802296
0
0
0
0
0
6218.657638866621
0
-2474.0475385245727
0
0
0
0
0
6220.266964467402
0
-2477.1544310038607
0
0
0
0
0
6231.129912272681
0
-2477.3779484484135
0
0
0
0
0
6235.264984996914
0
-2475.7686228476314
0
0
0
0
0
6227.687743626564
0
-2474.271055969126
0
0
0
0
0
6216.288353954358
0
-2475.947436803274
0
0
0
0
0
6217.696513855042
0
-2476.886210070397
0
0
0
0
0
6228.894737827151
0.024
-0.042
1.044
0
-2478.2943699710813
0
0
0
0
0
6233.94623207405
0
-2476.506230414657
0
0
0
0
0
6227.419522693101
0
-2474.2487042246707
0
0
0
0
0
6217.696513855042
0
-2475.4780501697123
0
0
0
0
0
6219.395246433645
0
-2478.6967013712765
0
0
0
0
0
6230.459359939023
0
-2479.4119571938463
0
0
0
0
0
6235.443798952556
0
-2477.8920385708857
0
0
0
0
0
6228.246537237947
0
-2475.7686228476314
0
0
0
0
0
6217.785920832864
0
-2477.176782748316
0
0
0
0
0
6219.641115622654
0
-2479.2107914937487
0
0
0
0
0
6230.347601216746
0.024
-0.046
1.046
0
-2480.4401374387908
0
0
0
0
0
6236.248461752947
0
-2479.389605449391
0
0
0
0
0
6229.386476205168
0
-2478.137907759894
0
0
0
0
0
6219.216432478003
0
-2478.1826112488047
0
0
0
0
0
6221.13868250116
0
-2479.2778467271146
0
0
0
0
0
6231.196967506047
0
-2481.758890361654
0
0
0
0
0
6236.337868730769
0
-2478.719053115732
0
0
0
0
0
6230.079380283282
0
-2476.148602503372
0
0
0
0
0
6218.881156311173
0
-2476.9756170482183
0
0
0
0
0
6220.110502256215
0
-2480.01545429414
0
0
0
0
0
6230.749932616942
0.026000000000000002
-0.044
1.052
0
-2480.5071926721566
0
0
0
0
0
6236.673144897598
0
-2479.233143238204
0
0
0
0
0
6229.90056632764
0
-2476.1262507589163
0
0
0
0
0
6219.104673755726
0
-2475.232180980704
0
0
0
0
0
6219.507005155922
0
-2478.0261490376174
0
0
0
0
0
6230.302897727835
0
-2478.115556015439
0
0
0
0
0
6236.159054775126
0
-2476.819154837031
0
0
0
0
0
6229.431179694078
0
-2476.2827129701036
0
0
0
0
0
6218.769397588897
0
-2475.9697885477294
0
0
0
0
0
6219.059970266816
0
-2478.3837769489023
0
0
0
0
0
6229.677048883087
0.024
-0.042
1.046
0
-2480.5742479055225
0
0
0
0
0
6235.33204023028
0
-2479.791936849587
0
0
0
0
0
6228.604165149232
0
-2477.0873757704944
0
0
0
0
0
6217.718865599498
0
-2477.2214862372266
0
0
0
0
0
6218.188252233059
0
-2479.9260473163185
0
0
0
0
0
6229.587641905266
0
-2480.3507304609693
0
0
0
0
0
6235.9355373305725
0
-2479.076681027017
0
0
0
0
0
6229.475883182989
0
-2478.3837769489023
0
0
0
0
0
6218.143548744149
0
-2478.6743496268214
0
0
0
0
0
6219.127025500182
0
-2480.2166199942376
0
0
0
0
0
6230.526415172389
0.02
-0.044
1.04
0
-2480.462489183246
0
0
0
0
0
6237.097828042249
0
-2479.724881616221
0
0
0
0
0
6231.5322436728775
0
-2478.0932042709833
0
0
0
0
0
6220.870461567696
0
-2477.5120589151456
0
0
0
0
0
6221.18338599007
0
-2479.2554949826595
0
0
0
0
0
6232.13574077317
0
-2479.389605449391
0
0
0
0
0
6237.500159442444
0
-2478.406128693358
0
0
0
0
0
6232.13574077317
0
-2476.7744513481202
0
0
0
0
0
6221.5186621569
0
-2477.7355763596984
0
0
0
0
0
6221.56336564581
0
-2479.6131228939444
0
0
0
0
0
6232.202796006536
0.02
-0.042
1.04
0
-2481.4683176837348
0
0
0
0
0
6238.349525731746
0
-2480.976579305718
0
0
0
0
0
6231.509891928422
0
-2479.523715916123
0
0
0
0
0
6220.132854000671
0
-2480.7977653500757
0
0
0
0
0
6219.886984811662
0
-2482.5859049065
0
0
0
0
0
6230.794636105852
0
-2482.5188496731344
0
0
0
0
0
6237.321345486802
0
-2481.9600560617514
0
0
0
0
0
6231.085208783771
0
-2480.9095240723523
0
0
0
0
0
6220.021095278394
0
-2479.456660682757
0
0
0
0
0
6220.4681301675
0
-2481.8706490839304
0
0
0
0
0
6231.308726228324
0.02
-0.046
1.036
0
-2484.329340974014
0
0
0
0
0
6237.835435609274
0
-2483.815250851542
0
0
0
0
0
6231.644002395154
0
-2481.8706490839304
0
0
0
0
0
6220.80340633433
0
-2480.5071926721566
0
0
0
0
0
6220.8481098232405
0
-2483.1894020067934
0
0
0
0
0
6230.99580180595
0
-2485.290465985592
0
0
0
0
0
6237.678973398087
0
-2483.390567706891
0
0
0
0
0
6232.359258217723
0
-2480.976579305718
0
0
0
0
0
6221.049275523338
0
-2480.4848409277015
0
0
0
0
0
6220.356371445224
0
-2482.8988293288744
0
0
0
0
0
6230.727580872486
0.016
-0.042
1.036
0
-2485.625742152422
0
0
0
0
0
6238.841264109763
0
-2484.664617140844
0
0
0
0
0
6233.096865784749
0
-2482.071814784028
0
0
0
0
0
6221.116330756704
0
-2483.077643284517
0
0
0
0
0
6219.7305226004755
0
-2485.938666574796
0
0
0
0
0
6230.28054598338
0
-2486.0951287859834
0
0
0
0
0
6236.762551875419
0
-2484.7093206297545
0
0
0
0
0
6232.180444262081
0
-2483.7705473626315
0
0
0
0
0
6221.18338599007
0
-2484.7763758631204
0
0
0
0
0
6219.216432478003
0
-2485.357521218958
0
0
0
0
0
6229.90056632764
0.02
-0.05
1.034
0
-2484.9328380743073
0
0
0
0
0
6236.6954966420535
0
-2484.7763758631204
0
0
0
0
0
6231.956926817528
0
-2483.658788640355
0
0
0
0
0
6221.004572034428
0
-2484.4410996962906
0
0
0
0
0
6219.976391789483
0
-2484.8434310964863
0
0
0
0
0
6230.951098317039
0
-2486.072777041528
0
0
0
0
0
6238.416580965112
0
-2484.910486329852
0
0
0
0
0
6233.767418118408
0
-2482.9211810733295
0
0
0
0
0
6222.658601124121
0
-2481.758890361654
0
0
0
0
0
6221.295144712347
0
-2485.3128177300478
0
0
0
0
0
6231.778112861885
0.02
-0.048
1.034
0
-2487.9279718313187
0
0
0
0
0
6237.746028631453
0
-2486.8103846085532
0
0
0
0
0
6233.856825096229
0
-2485.357521218958
0
0
0
0
0
6222.837415079763
0
-2486.720977630732
0
0
0
0
0
6221.049275523338
0
-2487.7715096201314
0
0
0
0
0
6231.308726228324
0
-2487.168012519838
0
0
0
0
0
6238.863615854218
0
-2486.944495075285
0
0
0
0
0
6234.415618707611
0
-2485.290465985592
0
0
0
0
0
6222.4350836795675
0
-2484.8657828409414
0
0
0
0
0
6220.42342667859
0
-2486.877439841919
0
0
0
0
0
6230.682877383576
0.022
-0.044
1.036
0
-2488.3526549759695
0
0
0
0
0
6238.550691431844
0
-2487.1233090309274
0
0
0
0
0
6234.5273774298885
0
-2484.5081549296565
0
0
0
0
0
6222.971525546494
0
-2484.999893307673
0
0
0
0
0
6221.697476112542
0
-2488.173841020327
0
0
0
0
0
6232.247499495447
0
-2488.844393353986
0
0
0
0
0
6239.847092610252
0
-2486.4080532083576
0
0
0
0
0
6235.354391974734
0
-2486.2515909971703
0
0
0
0
0
6223.977354046983
0
-2486.139832274894
0
0
0
0
0
6222.144511001648
0
-2486.4527566972683
0
0
0
0
0
6231.7110576285195
0.024
-0.046
1.042
0
-2488.889096842897
0
0
0
0
0
6239.958851332528
0
-2488.0173788091397
0
0
0
0
0
6236.427275708589
0
-2487.1233090309274
0
0
0
0
0
6224.916127314106
0
-2486.273942741626
0
0
0
0
0
6222.9044703131285
0
-2489.2914282430925
0
0
0
0
0
6233.432141951578
0
-2489.2914282430925
0
0
0
0
0
6240.182368777081
0
-2488.687931142799
0
0
0
0
0
6235.510854185922
0
-2487.659750897855
0
0
0
0
0
6223.820891835796
0
-2486.1174805304386
0
0
0
0
0
6221.093979012248
0
-2488.911448587352
0
0
0
0
0
6230.705229128031
0.024
-0.038
1.042
0
-2491.079567799517
0
0
0
0
0
6239.735333887975
0
-2489.8055183655642
0
0
0
0
0
6236.628441408688
0
-2487.615047408944
0
0
0
0
0
6224.692609869553
0
-2487.5032886866675
0
0
0
0
0
6221.876290068185
0
-2489.582000921011
0
0
0
0
0
6231.599298906243
0
-2490.9231055883297
0
0
0
0
0
6239.847092610252
0
-2490.3866637214023
0
0
0
0
0
6236.941365831061
0
-2488.240896253693
0
0
0
0
0
6224.916127314106
0
-2488.911448587352
0
0
0
0
0
6222.390380190656
0
-2491.7277683887205
0
0
0
0
0
6232.314554728813
0.022
-0.04
1.04
0
-2492.823003867031
0
0
0
0
0
6240.562348432822
0
-2491.7277683887205
0
0
0
0
0
6237.008421064427
0
-2489.6714078988325
0
0
0
0
0
6226.3689907037015
0
-2489.202021265271
0
0
0
0
0
6223.776188346886
0
-2490.5431259325896
0
0
0
0
0
6233.700362885042
0
-2499.4167684813465
0
0
0
0
0
6241.970508333506
0
-2528.004649639684
0
0
0
0
0
6238.774208876397
0
-2545.4390103148235
0
0
0
0
0
6230.347601216746
0
-2533.190254353315
0
0
0
0
0
6230.012325049916
0
-2516.851129156486
0
0
0
0
0
6237.23193850898
0.02
-0.046
1.042
0
-2511.35260002048
0
0
0
0
0
6243.088095556271
0
-2533.2573095866815
0
0
0
0
0
6241.322307744302
0
-2557.3971935984127
0
0
0
0
0
6231.5322436728775
0
-2556.1901993978263
0
0
0
0
0
6229.051200038338
0
-2533.592585753511
0
0
0
0
0
6238.416580965112
0
-2504.200041794782
0
0
0
0
0
6243.646889167654
0
-2471.275922212115
0
0
0
0
0
6237.097828042249
0
-2467.9008087993634
0
0
0
0
0
6226.748970359442
0
-2502.858937127464
0
0
0
0
0
6226.23488023697
0
-2535.8948154324075
0
0
0
0
0
6237.768380375908
0.022
-0.04
1.046
0
-2576.5302868521558
0
0
0
0
0
6249.011307836928
0
-2624.5641856866105
0
0
0
0
0
6245.367973490712
0
-2615.847005349041
0
0
0
0
0
6235.175578019092
0
-2558.5371325656333
0
0
0
0
0
6232.225147750992
0
-2498.8356231255084
0
0
0
0
0
6238.103656542738
0
-2489.4031869653686
0
0
0
0
0
6243.579833934287
0
-2544.164960880871
0
0
0
0
0
6243.490426956467
0
-2596.0210080171837
0
0
0
0
0
6235.108522785727
0
-2606.9957145447393
0
0
0
0
0
6229.766455860908
0
-2651.229816821792
0
0
0
0
0
6245.412676979623
0.03
-0.046
1.042
0
-2588.0190835021835
0
0
0
0
0
6252.632290438687
0
-2537.414734055368
0
0
0
0
0
6246.463208969022
0
-2497.9639050917513
0
0
0
0
0
6229.989973305461
0
-2462.2458174521707
0
0
0
0
0
6216.8024440768295
0
-2452.500456869657
0
0
0
0
0
6223.195042991048
0
-2382.494793235635
0
0
0
0
0
6238.237767009469
0
-2391.3237322954815
0
0
0
0
0
6234.259156496425
0
-2429.5452153140563
0
0
0
0
0
6221.473958667989
0
-2461.1282302294053
0
0
0
0
0
6217.405941177123
0
-2479.143736260383
0
0
0
0
0
6224.536147658366
0.026000000000000002
-0.04
1.046
0
-2517.7675506791534
0
0
0
0
0
6239.645926910153
0
-2575.6362170739435
0
0
0
0
0
6245.367973490712
0
-2578.2737229196696
0
0
0
0
0
6243.423371723101
0
-2537.370030566458
0
0
0
0
0
6236.04729605285
0
-2492.1524515333717
0
0
0
0
0
6229.8335110942735
0
-2486.1845357638044
0
0
0
0
0
6198.384606645657
0
-2488.0620822980504
0
0
0
0
0
6153.569359012766
0
-2489.6714078988325
0
0
0
0
0
6118.5441754513
0
-2548.07651616055
0
0
0
0
0
6108.217669512948
0
-2573.6022083285106
0
0
0
0
0
6119.080617318227
0.022
-0.048
1.046
0
-2560.3252721220583
0
0
0
0
0
6135.7326669374315
0
-2513.1854430658154
0
0
0
0
0
6140.940623395518
0
-2470.5159629006343
0
0
0
0
0
6128.535405222822
0
-2486.8103846085532
0
0
0
0
0
6123.729780164931
0
-2547.137742893427
0
0
0
0
0
6138.280765805336
0
-2559.453554088301
0
0
0
0
0
6153.770524712864
0
-2538.1746933668487
0
0
0
0
0
6155.737478224931
0
-2521.723809447743
0
0
0
0
0
6134.279803547836
0
-2548.3447370940135
0
0
0
0
0
6129.921213379052
0
-2578.296074664125
0
0
0
0
0
6144.516902508367
0.026000000000000002
-0.044
1.046
0
-2557.9559872097957
0
0
0
0
0
6150.7083357224865
0
-2497.047483569084
0
0
0
0
0
6143.466370518968
0
-2454.266244681626
0
0
0
0
0
6133.899823892096
0
-2441.972785231207
0
0
0
0
0
6132.178739569037
0
-2521.3214780475473
0
0
0
0
0
6147.556739754288
0
-2601.0948540085383
0
0
0
0
0
6163.471181806467
0
-2587.0803102350606
0
0
0
0
0
6171.920141210573
0
-2540.3428125790138
0
0
0
0
0
6171.383699343646
0
-2498.1650707918493
0
0
0
0
0
6163.627644017654
0
-2516.0464663560947
0
0
0
0
0
6200.262153179902
0.022
-0.044
1.04
0
-2501.0484458265837
0
0
0
0
0
6239.489464698967
0
-2457.596654605467
0
0
0
0
0
6259.270758541913
0
-2480.462489183246
0
0
0
0
0
6268.278511557402
0
-2490.565477677045
0
0
0
0
0
6283.298883831369
0
-2480.820117094531
0
0
0
0
0
6307.394064354189
0
-2479.5684194050336
0
0
0
0
0
6333.7244193225415
0
-2517.16405357886
0
0
0
0
0
6335.803131556885
0
-2549.3729173389574
0
0
0
0
0
6319.106378448771
0
-2554.2232458857593
0
0
0
0
0
6323.956706995572
0
-2536.8559404439857
0
0
0
0
0
6343.738000838519
0.02
-0.042
1.038
0
-2521.768512936653
0
0
0
0
0
6351.49405616451
0
-2548.523551049656
0
0
0
0
0
6345.235567717024
0
-2557.330138365047
0
0
0
0
0
6338.932375780628
0
-2572.886952505941
0
0
0
0
0
6352.410477687178
0
-2559.3864988549353
0
0
0
0
0
6377.399727988211
0
-2555.0949639195164
0
0
0
0
0
6387.972103115571
0
-2536.6100712549774
0
0
0
0
0
6378.360852999789
0
-2531.625632241444
0
0
0
0
0
6350.77880034194
0
-2529.9268996628407
0
0
0
0
0
6311.193860911591
0
-2566.8519815030077
0
0
0
0
0
6287.970398422528
0.022
-0.042
1.038
0
-2542.577987024544
0
0
0
0
0
6257.549674218854
0
-2505.719960417743
0
0
0
0
0
6220.8481098232405
0
-2519.9803733802287
0
0
0
0
0
6174.021205189372
0
-2543.3826498249355
0
0
0
0
0
6130.167082568059
0
-2574.3845193844463
0
0
0
0
0
6116.621925428143
0
-2535.783056710131
0
0
0
0
0
6112.464500959457
0
-2505.854070884475
0
0
0
0
0
6094.806622839764
0
-2542.0191934131617
0
0
0
0
0
6063.760049791343
0
-2577.066728719083
0
0
0
0
0
6044.828122237697
0
-2594.389330671946
0
0
0
0
0
6041.76593324732
0.028
-0.04
1.044
0
-2581.2018014433147
0
0
0
0
0
6042.704706514443
0
-2519.198062324293
0
0
0
0
0
6025.449159794946
0
-2551.2057603842927
0
0
0
0
0
6000.683426938466
0
-2577.8266880305637
0
0
0
0
0
5989.216982032894
0
-2550.356394094991
0
0
0
0
0
5995.967208858396
0
-2539.985184667729
0
0
0
0
0
5995.52017396929
0
-2539.918129434363
0
0
0
0
0
5991.027473333773
0
-2589.2484294472256
0
0
0
0
0
5977.281150493759
0
-2617.3222204830913
0
0
0
0
0
5962.663109619989
0
-2596.1774702283706
0
0
0
0
0
5958.081002006651
0.02
-0.042
1.04
0
-2559.3641471104797
0
0
0
0
0
5943.485312877335
0
-2522.774341437142
0
0
0
0
0
5925.425103357447
0
-2489.626704409922
0
0
0
0
0
5905.621457770045
0
-2497.3827597359136
0
0
0
0
0
5885.527239504724
0
-2574.1162984509824
0
0
0
0
0
5886.667178471945
0
-2628.3863339884683
0
0
0
0
0
5892.098652374584
0
-2608.2250604897813
0
0
0
0
0
5890.6681407294445
0
-2539.8957776899074
0
0
0
0
0
5872.54087597619
0
-2504.200041794782
0
0
0
0
0
5858.705146158355
0
-2473.8687245689302
0
0
0
0
0
5856.738192646289
0.02
-0.044
1.04
0
-2496.5110417021565
0
0
0
0
0
5859.934492103397
0
-2571.322330394069
0
0
0
0
0
5861.275596770715
0
-2589.2484294472256
0
0
0
0
0
5851.820808866121
0
-2566.293187891625
0
0
0
0
0
5841.427247694403
0
-2548.3000336051027
0
0
0
0
0
5842.790704106177
0
-2542.1086003909827
0
0
0
0
0
5844.578843662602
0
-2509.810329653064
0
0
0
0
0
5836.398105191959
0
-2568.4836588482453
0
0
0
0
0
5823.277631196694
0
-2609.9237930683844
0
0
0
0
0
5817.086197982574
0
-2542.7568009801867
0
0
0
0
0
5815.454520637336
0.018000000000000002
-0.042
1.036
0
-2468.39254717738
0
0
0
0
0
5788.453613335325
0
-2521.4108850253683
0
0
0
0
0
5760.580987999558
0
-2506.166995306849
0
0
0
0
0
5738.743333666723
0
-2480.618951394433
0
0
0
0
0
5711.630667642435
0
-2505.474091228735
0
0
0
0
0
5711.049522286597
0
-2482.9211810733295
0
0
0
0
0
5715.519871177658
0
-2515.0853413445166
0
0
0
0
0
5706.154490250885
0
-2577.714929308287
0
0
0
0
0
5693.726920333734
0
-2560.4370308443345
0
0
0
0
0
5684.249780684684
0
-2496.8686696134414
0
0
0
0
0
5683.422766139837
0.016
-0.038
1.036
0
-2491.3254369885253
0
0
0
0
0
5681.344053905494
0
-2500.534355704112
0
0
0
0
0
5674.102088701974
0
-2498.9920853366957
0
0
0
0
0
5662.792106007589
0
-2455.0932592264726
0
0
0
0
0
5649.470466312226
0
-2543.941443436318
0
0
0
0
0
5649.872797712422
0
-2613.656534392421
0
0
0
0
0
5666.524847331625
0
-2526.015344383162
0
0
0
0
0
5663.060326941053
0
-2500.1320243039163
0
0
0
0
0
5641.289727841584
0
-2496.712207402254
0
0
0
0
0
5635.031239394098
0
-2411.0603226495177
0
0
0
0
0
5632.2819748260945
0.018000000000000002
-0.046
1.04
0
-2468.236084966193
0
0
0
0
0
5645.290690099084
0
-2534.777228209642
0
0
0
0
0
5650.833922723999
0
-2493.8958876008855
0
0
0
0
0
5625.308230556039
0
-2486.8327363530084
0
0
0
0
0
5596.072148808497
0
-2449.6841370682882
0
0
0
0
0
5589.947770827744
0
-2451.785201047087
0
0
0
0
0
5591.311227239517
0
-2519.108655346472
0
0
0
0
0
5590.081881294475
0
-2567.6342925589433
0
0
0
0
0
5577.564904399504
0
-2478.20496299326
0
0
0
0
0
5562.589235614448
0
-2396.017598631096
0
0
0
0
0
5557.403630900816
0.022
-0.042
1.046
0
-2463.7657360751314
0
0
0
0
0
5562.879808292367
0
-2504.3788557504245
0
0
0
0
0
5560.912854780299
0
-2497.1592422913604
0
0
0
0
0
5550.675755819769
0
-2467.3196634435253
0
0
0
0
0
5537.488226591137
0
-2468.4372506662908
0
0
0
0
0
5539.790456270034
0
-2514.9288791333292
0
0
0
0
0
5547.1665319402855
0
-2476.2827129701036
0
0
0
0
0
5536.929432979755
0
-2451.807552791542
0
0
0
0
0
5521.350267094406
0
-2488.4420619537905
0
0
0
0
0
5517.8186914704675
0
-2458.557779617045
0
0
0
0
0
5524.658325273791
0.026000000000000002
-0.042
1.046
0
-2483.815250851542
0
0
0
0
0
5566.411383916305
0
-2514.1912715663043
0
0
0
0
0
5645.849483710466
0
-2441.659860808833
0
0
0
0
0
5719.431426457337
0
-2386.3839967708586
0
0
0
0
0
5777.367148085493
0
-2424.2031483892383
0
0
0
0
0
5855.128867045506
0
-2505.6082016954665
0
0
0
0
0
5918.473710831847
0
-2511.4643587427568
0
0
0
0
0
5954.839999060631
0
-2461.6870238407882
0
0
0
0
0
5965.434725932447
0
-2448.9912329901736
0
0
0
0
0
5977.303502238215
0
-2428.7852560025763
0
0
0
0
0
5996.6824646809655
0.024
-0.044
1.044
0
-2448.9912329901736
0
0
0
0
0
6028.466645296413
0
-2476.0368437810953
0
0
0
0
0
6076.165267964037
0
-2488.240896253693
0
0
0
0
0
6112.084521303716
0
-2515.554727978078
0
0
0
0
0
6136.537329737822
0
-2429.232290891682
0
0
0
0
0
6153.725821223953
0
-2391.7484154401322
0
0
0
0
0
6169.997891187417
0
-2483.524678173623
0
0
0
0
0
6187.789879773842
0
-2435.5801863169895
0
0
0
0
0
6187.879286751662
0
-2377.242133288638
0
0
0
0
0
6177.9998157024165
0
-2455.428535393302
0
0
0
0
0
6193.601333332221
0.02
-0.042
1.042
0
-2490.364311976947
0
0
0
0
0
6216.891851054651
0
-2400.8008719445315
0
0
0
0
0
6212.108577741215
0
-2357.974929568163
0
0
0
0
0
6197.3117229118025
0
-2451.6734423248104
0
0
0
0
0
6200.440967135545
0
-2460.0329947510954
0
0
0
0
0
6206.766510816397
0
-2432.2497763931487
0
0
0
0
0
6204.620743348688
0
-2462.6481488523664
0
0
0
0
0
6181.620798304177
0
-2468.8619338109415
0
0
0
0
0
6153.770524712864
0
-2421.140959398861
0
0
0
0
0
6133.296326791803
0
-2382.6065519579115
0
0
0
0
0
6114.87848936063
0.028
-0.038
1.04
0
-2422.593822788456
0
0
0
0
0
6119.125320807138
0
-2386.249886304127
0
0
0
0
0
6117.739512650909
0
-2337.1878072247277
0
0
0
0
0
6099.746358364387
0
-2417.922308197297
0
0
0
0
0
6087.788175080797
0
-2427.041819935062
0
0
0
0
0
6090.604494882166
0
-2400.3761887998808
0
0
0
0
0
6102.205050254471
0
-2418.011715175118
0
0
0
0
0
6110.028160813828
0
-2403.3713225568918
0
0
0
0
0
6098.293494974791
0
-2348.520141663568
0
0
0
0
0
6072.499581873368
0
-2397.403406787325
0
0
0
0
0
6077.595779609177
0.02
-0.038
1.044
0
-2398.923325410286
0
0
0
0
0
6089.844535570685
0
-2407.2605260921155
0
0
0
0
0
6091.364454193646
0
-2469.912465800341
0
0
0
0
0
6089.553962892766
0
-2412.7814069725764
0
0
0
0
0
6074.2206661964265
0
-2330.012897254574
0
0
0
0
0
6063.96121549144
0
-2343.334536949937
0
0
0
0
0
6076.098212730672
0
-2403.95246791273
0
0
0
0
0
6086.469422157935
0
-2435.2449101501597
0
0
0
0
0
6080.859134299652
0
-2425.9689362012073
0
0
0
0
0
6065.727003303409
0
-2378.5832379559565
0
0
0
0
0
6061.301357901259
0.018000000000000002
-0.04
1.042
0
-2335.6678886017667
0
0
0
0
0
6071.538456861789
0
-2351.2247027426606
0
0
0
0
0
6075.002977252362
0
-2368.2567320176045
0
0
0
0
0
6064.452953869457
0
-2438.6423753073664
0
0
0
0
0
6054.349965375658
0
-2389.2226683166828
0
0
0
0
0
6039.016668679317
0
-2356.700880134211
0
0
0
0
0
6001.264572294303
0
-2356.946749323219
0
0
0
0
0
5967.647548633522
0
-2319.6863913162224
0
0
0
0
0
5914.450396829891
0
-2333.8126938119763
0
0
0
0
0
5866.975291606819
0
-2387.9933223716407
0
0
0
0
0
5841.740172116777
0.022
-0.036000000000000004
1.036
0
-2416.938831441263
0
0
0
0
0
5821.087160240074
0
-2410.9932674161514
0
0
0
0
0
5791.426395347881
0
-2364.076955804462
0
0
0
0
0
5750.679165205856
0
-2345.860284073387
0
0
0
0
0
5727.723923650256
0
-2331.1081327328843
0
0
0
0
0
5719.073798546052
0
-2342.1051910048955
0
0
0
0
0
5718.492653190214
0
-2358.533723179546
0
0
0
0
0
5717.352714222993
0
-2353.459877188191
0
0
0
0
0
5697.839641313511
0
-2394.810604430509
0
0
0
0
0
5684.808574296067
0
-2415.1283401403834
0
0
0
0
0
5685.3450161629935
0.024
-0.04
1.034
0
-2345.1897317397274
0
0
0
0
0
5681.254646927673
0
-2359.2266272576603
0
0
0
0
0
5682.975731250731
0
-2410.747398227143
0
0
0
0
0
5676.337263147505
0
-2375.1634210542943
0
0
0
0
0
5658.902902472366
0
-2300.7768155070326
0
0
0
0
0
5652.0632686690415
0
-2344.4297724282474
0
0
0
0
0
5666.591902564991
0
-2340.8981968043086
0
0
0
0
0
5659.171123405829
0
-2338.5959671254122
0
0
0
0
0
5646.2518151106615
0
-2352.2305312431495
0
0
0
0
0
5636.148826616863
0
-2353.5716359104676
0
0
0
0
0
5635.187701605285
0.026000000000000002
-0.046
1.038
0
-2358.958406324197
0
0
0
0
0
5638.808684207044
0
-2326.302507674993
0
0
0
0
0
5637.02054465062
0
-2324.737885563122
0
0
0
0
0
5626.314059056528
0
-2335.6678886017667
0
0
0
0
0
5602.420044233804
0
-2358.980758068652
0
0
0
0
0
5595.267486008106
0
-2366.3121302499926
0
0
0
0
0
5600.810718633023
0
-2359.8077726134984
0
0
0
0
0
5601.816547133511
0
-2339.5123886480797
0
0
0
0
0
5593.032311562576
0
-2306.9906004656077
0
0
0
0
0
5578.257808477618
0
-2323.374429151348
0
0
0
0
0
5584.113965524908
0.026000000000000002
-0.044
1.042
0
-2381.2207438016826
0
0
0
0
0
5604.722273912701
0
-2386.5404589820455
0
0
0
0
0
5601.660084922324
0
-2337.210158969183
0
0
0
0
0
5589.590142916459
0
-2313.629068568834
0
0
0
0
0
5580.850610834434
0
-2339.5794438814455
0
0
0
0
0
5585.633884147869
0
-2349.9953567976186
0
0
0
0
0
5600.989532588665
0
-2326.727190819644
0
0
0
0
0
5603.0458930785535
0
-2342.8651503163755
0
0
0
0
0
5597.457956964727
0
-2379.0973280784283
0
0
0
0
0
5600.25192502164
0
-2382.025406602074
0
0
0
0
0
5604.386997745872
0.022
-0.044
1.048
0
-2293.154870647773
0
0
0
0
0
5602.531802956081
0
-2308.2870016440156
0
0
0
0
0
5610.891355382366
0
-2375.56575245449
0
0
0
0
0
5613.171233316807
0
-2322.6591733287783
0
0
0
0
0
5598.240268020662
0
-2306.2306411541276
0
0
0
0
0
5600.430738977282
0
-2401.1584998558164
0
0
0
0
0
5623.073056110508
0
-2350.487095175635
0
0
0
0
0
5625.3529340449495
0
-2266.6233499793234
0
0
0
0
0
5611.91953562731
0
-2307.0353039545184
0
0
0
0
0
5608.231497792184
0
-2326.5707286084566
0
0
0
0
0
5616.233422307185
0.022
-0.042
1.04
0
-2315.238394169616
0
0
0
0
0
5622.1789863322965
0
-2312.4220743682476
0
0
0
0
0
5629.309192813539
0
-2328.98471700963
0
0
0
0
0
5626.40346603435
0
-2330.370525165859
0
0
0
0
0
5614.333524028483
0
-2354.108077777395
0
0
0
0
0
5622.290745054573
0
-2355.8068103559986
0
0
0
0
0
5637.9146144288325
0
-2316.1101122033733
0
0
0
0
0
5648.2411203671845
0
-2297.826385238932
0
0
0
0
0
5656.444210582282
0
-2301.402664351781
0
0
0
0
0
5660.825152495522
0
-2321.3180686614596
0
0
0
0
0
5673.967978235242
0.026000000000000002
-0.044
1.04
0
-2346.508484662591
0
0
0
0
0
5698.51019364717
0
-2326.950708264197
0
0
0
0
0
5716.190423511318
0
-2284.147117632284
0
0
0
0
0
5703.114653004963
0
-2259.5154952425355
0
0
0
0
0
5689.949475520787
0
-2300.307428873471
0
0
0
0
0
5698.577248880536
0
-2328.60473735389
0
0
0
0
0
5711.720074620256
0
-2321.4521791281913
0
0
0
0
0
5721.957173580787
0
-2303.0566934414737
0
0
0
0
0
5717.151548522896
0
-2333.6115281118787
0
0
0
0
0
5717.308010734083
0
-2282.1578123757618
0
0
0
0
0
5723.812368370577
0.026000000000000002
-0.042
1.042
0
-2273.4182802937366
0
0
0
0
0
5733.155397552896
0
-2285.331760088415
0
0
0
0
0
5738.341002266527
0
-2321.8992140172977
0
0
0
0
0
5743.213682557784
0
-2341.0323072710407
0
0
0
0
0
5738.341002266527
0
-2268.702062213667
0
0
0
0
0
5731.121388807463
0
-2296.9099637162644
0
0
0
0
0
5753.651947218412
0
-2299.368655606348
0
0
0
0
0
5755.440086774836
0
-2272.9712454046307
0
0
0
0
0
5741.447894745815
0
-2286.5164025445465
0
0
0
0
0
5729.199138784306
0
-2276.3687105618374
0
0
0
0
0
5717.419769456359
0.028
-0.042
1.042
0
-2293.6242572813344
0
0
0
0
0
5739.145665066918
0
-2298.02755093903
0
0
0
0
0
5752.6684704623785
0
-2300.4862428291135
0
0
0
0
0
5735.099999320508
0
-2265.170486589728
0
0
0
0
0
5708.859051329977
0
-2250.954777116153
0
0
0
0
0
5706.825042584544
0
-2293.5572020479685
0
0
0
0
0
5724.415865470871
0
-2329.7446763211105
0
0
0
0
0
5732.976583597253
0
-2285.890553699798
0
0
0
0
0
5715.206946755284
0
-2267.137440101795
0
0
0
0
0
5705.908621061876
0
-2306.3871033653145
0
0
0
0
0
5715.005781055186
0.026000000000000002
-0.036000000000000004
1.044
0
-2285.599981021879
0
0
0
0
0
5715.810443855577
0
-2251.021832349519
0
0
0
0
0
5717.0397898006195
0
-2307.3482283768926
0
0
0
0
0
5713.977600810243
0
-2337.5454351360127
0
0
0
0
0
5696.006798268175
0
-2313.2043854241833
0
0
0
0
0
5687.311969675061
0
-2337.6795456027444
0
0
0
0
0
5699.851298314488
0
-2317.4512168706915
0
0
0
0
0
5696.096205245996
0
-2337.9701182806634
0
0
0
0
0
5691.759966821667
0
-2345.234435228638
0
0
0
0
0
5676.493725358692
0
-2305.0012952090856
0
0
0
0
0
5670.145829933385
0.026000000000000002
-0.038
1.04
0
-2248.116105570329
0
0
0
0
0
5670.905789244865
0
-2280.1908588636948
0
0
0
0
0
5679.846487026988
0
-2296.529984060524
0
0
0
0
0
5676.203152680773
0
-2230.1229512838067
0
0
0
0
0
5633.064285882031
0
-2246.283262524994
0
0
0
0
0
5603.828204134489
0
-2280.1908588636948
0
0
0
0
0
5610.4443204932595
0
-2252.3182335279266
0
0
0
0
0
5604.521108212603
0
-2258.219094064128
0
0
0
0
0
5592.473517951193
0
-2240.9411956001754
0
0
0
0
0
5572.803982830523
0
-2217.4942156665584
0
0
0
0
0
5559.728212324168
0.022
-0.04
1.04
0
-2248.3843265037926
0
0
0
0
0
5568.557151384014
0
-2250.7759631605104
0
0
0
0
0
5562.43277340326
0
-2231.307593739938
0
0
0
0
0
5553.492075621138
0
-2203.1443957262513
0
0
0
0
0
5542.651479560313
0
-2195.187174700162
0
0
0
0
0
5537.2423574021295
0
-2208.218241717606
0
0
0
0
0
5542.137389437841
0
-2211.1016167523408
0
0
0
0
0
5539.410476614294
0
-2201.602125358835
0
0
0
0
0
5528.860453231389
0
-2225.9655268151196
0
0
0
0
0
5521.372618838861
0
-2226.1666925152176
0
0
0
0
0
5517.505767048093
0.024
-0.048
1.042
0
-2193.6225525882905
0
0
0
0
0
5516.768159481068
0
-2213.359142942327
0
0
0
0
0
5523.697200262213
0
-2201.289200936461
0
0
0
0
0
5499.691426717213
0
-2149.0531741444083
0
0
0
0
0
5487.330912033429
0
-2179.0715669478855
0
0
0
0
0
5497.053920871487
0
-2194.6507328332345
0
0
0
0
0
5506.642819242814
0
-2214.4543784206367
0
0
0
0
0
5511.694313489713
0
-2292.6407805253007
0
0
0
0
0
5518.913926948778
0
-2156.8092294703997
0
0
0
0
0
5483.732281176124
0
-2087.7199873590457
0
0
0
0
0
5474.769231649546
0.022
-0.05
1.044
0
-2136.737362949534
0
0
0
0
0
5492.002426624587
0
-2158.99970042702
0
0
0
0
0
5503.982961652632
0
-2183.9665989835976
0
0
0
0
0
5501.054883128987
0
-2170.4884970770477
0
0
0
0
0
5492.94119989171
0
-2144.404011297704
0
0
0
0
0
5484.805164909979
0
-2151.444810801126
0
0
0
0
0
5495.712816204169
0
-2184.793613528444
0
0
0
0
0
5509.9508774221995
0
-2163.805325484911
0
0
0
0
0
5501.211345340174
0
-2146.058040387397
0
0
0
0
0
5488.247333556096
0
-2164.7888022409443
0
0
0
0
0
5492.695330702702
0.024
-0.046
1.042
0
-2162.0171859284865
0
0
0
0
0
5506.329894820439
0
-2135.0609821153857
0
0
0
0
0
5506.665170987269
0
-2110.675228914646
0
0
0
0
0
5500.965476151166
0
-2116.307868517383
0
0
0
0
0
5491.175412079741
0
-2134.8151129263774
0
0
0
0
0
5491.600095224392
0
-2150.059002644897
0
0
0
0
0
5505.2570110865845
0
-2139.1066478617963
0
0
0
0
0
5516.119958891864
0
-2164.185305140651
0
0
0
0
0
5518.891575204322
0
-2154.216427113584
0
0
0
0
0
5496.2716098155515
0
-2135.351554793305
0
0
0
0
0
5492.069481857954
0.022
-0.038
1.04
0
-2102.2709729994504
0
0
0
0
0
5500.652551728792
0
-2097.867679341755
0
0
0
0
0
5509.459139044183
0
-2161.9724824395757
0
0
0
0
0
5515.494110047115
0
-2175.987026213053
0
0
0
0
0
5505.771101209057
0
-2085.5518681468807
0
0
0
0
0
5489.119051589853
0
-2095.386635707216
0
0
0
0
0
5503.42416804125
0
-2105.7131416455677
0
0
0
0
0
5513.080121645942
0
-2114.5867841943245
0
0
0
0
0
5510.912002433777
0
-2104.304981744883
0
0
0
0
0
5499.065577872465
0
-2117.671324929157
0
0
0
0
0
5501.524269762549
0.02
-0.042
1.036
0
-2125.8744151442547
0
0
0
0
0
5507.223964598652
0
-2107.1436532907073
0
0
0
0
0
5514.041246657521
0
-2096.459519441071
0
0
0
0
0
5508.56506926597
0
-2084.993074535498
0
0
0
0
0
5494.528173748037
0
-2089.2399059820063
0
0
0
0
0
5492.650627213791
0
-2105.8472521122994
0
0
0
0
0
5507.112205876375
0
-2147.7567729660004
0
0
0
0
0
5525.574746796459
0
-2100.929868332132
0
0
0
0
0
5509.101511132898
0
-2065.636463837202
0
0
0
0
0
5493.052958613987
0
-2080.612132622258
0
0
0
0
0
5492.695330702702
0.024
-0.044
1.044
0
-2117.6936766736126
0
0
0
0
0
5510.1296913778415
0
-2108.0824265578303
0
0
0
0
0
5519.3386100934285
0
-2084.7919088354
0
0
0
0
0
5512.230755356641
0
-2077.482888398515
0
0
0
0
0
5500.049054628498
0
-2104.1708712781515
0
0
0
0
0
5501.9713046516545
0
-2093.777310106434
0
0
0
0
0
5508.900345432799
0
-2067.1116789712523
0
0
0
0
0
5510.979057667143
0
-2095.029007795931
0
0
0
0
0
5513.482453046138
0
-2095.163118262663
0
0
0
0
0
5517.394008325817
0
-2074.867734297244
0
0
0
0
0
5496.1598510932745
0.02
-0.042
1.042
0
-2028.5549197858477
0
0
0
0
0
5493.947028392199
0
-2068.5645423608476
0
0
0
0
0
5514.018894913065
0
-2093.151461261685
0
0
0
0
0
5515.04707515801
0
-2042.390649603683
0
0
0
0
0
5492.3377027914175
0
-2042.3235943703169
0
0
0
0
0
5491.823612668945
0
-2077.9746267765317
0
0
0
0
0
5502.284229074029
0
-2078.9804552770206
0
0
0
0
0
5509.61560125537
0
-2049.632614807202
0
0
0
0
0
5506.687522731724
0
-2072.006711006965
0
0
0
0
0
5501.9489529072
0
-2095.610153151769
0
0
0
0
0
5492.784737680524
0.018000000000000002
-0.038
1.04
0
-2017.6696202361131
0
0
0
0
0
5493.388234780817
0
-2015.0544661348424
0
0
0
0
0
5504.541755264015
0
-2031.840626220778
0
0
0
0
0
5502.328932562939
0
-2042.7259257705125
0
0
0
0
0
5504.161775608275
0
-2014.7638934569234
0
0
0
0
0
5491.80126092449
0
-2012.931050411588
0
0
0
0
0
5506.396950053805
0
-2015.7473702129569
0
0
0
0
0
5495.243429570607
0
-2050.1467049296743
0
0
0
0
0
5526.602927041403
0
-2038.0767629238087
0
0
0
0
0
5506.1957843537075
0
-2018.2284138474959
0
0
0
0
0
5472.802278137479
0.02
-0.042
1.036
0
-1987.2488960324404
0
0
0
0
0
5485.7662899215575
0
-2027.3255738408059
0
0
0
0
0
5511.224926856152
0
-2059.869713767733
0
0
0
0
0
5508.5427175215145
0
-2012.5957742447586
0
0
0
0
0
5478.524324718038
0
-1974.3742912261835
0
0
0
0
0
5469.248350769085
0
-1972.7873173698567
0
0
0
0
0
5487.0626910999645
0
-1989.998160600443
0
0
0
0
0
5494.304656303484
0
-2001.866936906211
0
0
0
0
0
5493.634103969825
0
-1970.194515013041
0
0
0
0
0
5479.060766584965
0
-1991.1380995676639
0
0
0
0
0
5481.9441416197
0.02
-0.042
1.044
0
-1990.7134164230129
0
0
0
0
0
5489.141403334308
0
-2004.258573562929
0
0
0
0
0
5491.443633013205
0
-1966.3500149667282
0
0
0
0
0
5487.621484711348
0
-1961.6561486311136
0
0
0
0
0
5471.617635681348
0
-1924.0605144572874
0
0
0
0
0
5462.565179176949
0
-1918.8302062547455
0
0
0
0
0
5474.858638627367
0
-1956.1576194951083
0
0
0
0
0
5477.98788285111
0
-1949.0944682472311
0
0
0
0
0
5476.17739155023
0
-1916.9303079760443
0
0
0
0
0
5459.324176230929
0
-1935.8845872741447
0
0
0
0
0
5440.615766121837
0.024
-0.042
1.042
0
-1965.1430207661417
0
0
0
0
0
5458.497161686082
0
-1961.7679073533902
0
0
0
0
0
5458.9441965751885
0
-1893.9527146759885
0
0
0
0
0
5452.46219068315
0
-1905.486214814927
0
0
0
0
0
5443.767362090035
0
-1915.2539271418964
0
0
0
0
0
5443.320327200929
0
-1964.874799832678
0
0
0
0
0
5458.653623897269
0
-1902.7593019913797
0
0
0
0
0
5453.289205227996
0
-1833.848873835668
0
0
0
0
0
5448.774152848024
0
-1880.0499296247876
0
0
0
0
0
5491.08600510192
0
-1968.160506267608
0
0
0
0
0
5555.280215177562
0.028
-0.046
1.044
0
-1983.2479337749403
0
0
0
0
0
5574.05568052002
0
-1907.430816582539
0
0
0
0
0
5571.976968285677
0
-1828.1268272551094
0
0
0
0
0
5558.498866379126
0
-1830.6749261230143
0
0
0
0
0
5545.870130761878
0
-1868.9411126305001
0
0
0
0
0
5547.8594360184
0
-1876.9430371455
0
0
0
0
0
5563.416250159294
0
-1943.6853460890468
0
0
0
0
0
5584.158669013818
0
-1867.0635660962544
0
0
0
0
0
5570.211180473707
0
-1834.5864814026932
0
0
0
0
0
5546.630090073359
0
-1933.1800261950525
0
0
0
0
0
5552.128619209364
0.018000000000000002
-0.042
1.04
0
-1934.588186095737
0
0
0
0
0
5562.723346081179
0
-1773.141535895054
0
0
0
0
0
5542.047982460021
0
-1853.7642781453465
0
0
0
0
0
5550.854569775412
0
-1887.426005295039
0
0
0
0
0
5546.406572628805
0
-1827.7468475993692
0
0
0
0
0
5520.9255839497555
0
-1849.495094954383
0
0
0
0
0
5535.700087034713
0
-1829.9373185559891
0
0
0
0
0
5558.09653497893
0
-1821.622469618615
0
0
0
0
0
5555.257863433107
0
-1857.8769991251231
0
0
0
0
0
5553.536779110048
0
-1891.8516506971898
0
0
0
0
0
5554.877883777366
0.02
-0.038
1.042
0
-1784.786794756269
0
0
0
0
0
5533.353153866906
0
-1806.8926700225677
0
0
0
0
0
5546.183055184252
0
-1928.3073459037955
0
0
0
0
0
5556.062526233498
0
-1842.7448681288802
0
0
0
0
0
5526.111188663386
0
-1732.081381330655
0
0
0
0
0
5510.442615800216
0
-1817.4650451499278
0
0
0
0
0
5530.492130576627
0
-1792.6322570600817
0
0
0
0
0
5532.57084281097
0
-1822.0695045077211
0
0
0
0
0
5528.994563698121
0
-1831.5466441567714
0
0
0
0
0
5504.362941308373
0
-1792.1852221709755
0
0
0
0
0
5489.722548690146
0.018000000000000002
-0.042
1.04
0
-1798.399007129551
0
0
0
0
0
5500.294923817507
0
-1834.7876471027907
0
0
0
0
0
5513.61656351287
0
-1870.4833829979161
0
0
0
0
0
5512.096644889909
0
-1756.3777275535738
0
0
0
0
0
5499.2667435725625
0
-1752.5108757628057
0
0
0
0
0
5498.596191238903
0
-1755.3271955641742
0
0
0
0
0
5495.891630159811
0
-1759.2163990993977
0
0
0
0
0
5509.392083810817
0
-1794.263934405319
0
0
0
0
0
5510.509671033582
0
-1847.6175484201372
0
0
0
0
0
5514.711798991179
0
-1788.1842599134757
0
0
0
0
0
5497.702121460691
0.016
-0.042
1.038
0
-1695.8045000796915
0
0
0
0
0
5490.951894635188
0
-1745.268910559286
0
0
0
0
0
5511.403740811795
0
-1771.7333759943697
0
0
0
0
0
5517.505767048093
0
-1749.0016518833224
0
0
0
0
0
5495.08696735942
0
-1760.0881171331546
0
0
0
0
0
5489.342569034407
0
-1808.747864812358
0
0
0
0
0
5496.025740626543
0
-1696.2291832243425
0
0
0
0
0
5492.650627213791
0
-1730.494407474328
0
0
0
0
0
5499.758481950579
0
-1739.7703814232805
0
0
0
0
0
5489.007292867576
0
-1730.5167592187834
0
0
0
0
0
5479.887781129812
0.022
-0.04
1.04
0
-1700.9901047933229
0
0
0
0
0
5480.51362997456
0
-1738.3845732670516
0
0
0
0
0
5500.116109861864
0
-1687.757872075781
0
0
0
0
0
5493.812917925467
0
-1713.663543899482
0
0
0
0
0
5497.925638905244
0
-1732.7072301754035
0
0
0
0
0
5488.783775423023
0
-1718.3797619795516
0
0
0
0
0
5490.482508001627
0
-1746.7441256933364
0
0
0
0
0
5500.339627306417
0
-1718.4468172129175
0
0
0
0
0
5496.472775515649
0
-1662.723918285837
0
0
0
0
0
5477.652606684281
0
-1702.4876716718284
0
0
0
0
0
5469.1589437912635
0.026000000000000002
-0.044
1.038
0
-1705.8627850845796
0
0
0
0
0
5483.642874198303
0
-1656.3983746049853
0
0
0
0
0
5492.807089424979
0
-1687.467299397862
0
0
0
0
0
5497.947990649699
0
-1720.7937503807248
0
0
0
0
0
5488.51555448956
0
-1691.1553372329877
0
0
0
0
0
5483.933446876222
0
-1640.0368976637005
0
0
0
0
0
5490.013121368065
0
-1666.8142875211583
0
0
0
0
0
5499.937295906222
0
-1707.047427540711
0
0
0
0
0
5501.390159295816
0
-1679.532430116228
0
0
0
0
0
5491.063653357465
0
-1645.1330953995105
0
0
0
0
0
5483.4193567537495
0.024
-0.044
1.038
0
-1666.7248805433371
0
0
0
0
0
5503.647685485803
0
-1722.917166103979
0
0
0
0
0
5516.0529036584985
0
-1634.56072027215
0
0
0
0
0
5489.297865545495
0
-1647.1894558893987
0
0
0
0
0
5490.32604579044
0
-1664.7355752868148
0
0
0
0
0
5483.8440398984
0
-1654.1855519039098
0
0
0
0
0
5492.203592324686
0
-1693.949305289901
0
0
0
0
0
5505.860508186878
0
-1674.1233079580436
0
0
0
0
0
5509.883822188834
0
-1664.2214851643428
0
0
0
0
0
5500.361979050873
0
-1577.3849579554746
0
0
0
0
0
5479.9548363631775
0.028
-0.044
1.034
0
-1616.8804904080023
0
0
0
0
0
5489.320217289951
0
-1650.7657350022478
0
0
0
0
0
5508.699179732702
0
-1644.8648744660468
0
0
0
0
0
5508.900345432799
0
-1676.8725725260465
0
0
0
0
0
5504.742920964113
0
-1637.0864673955998
0
0
0
0
0
5492.024778369043
0
-1612.5219002392175
0
0
0
0
0
5492.18124058023
0
-1649.6481477794825
0
0
0
0
0
5512.52132803456
0
-1632.3255458266194
0
0
0
0
0
5508.229793099141
0
-1638.2487581072758
0
0
0
0
0
5503.223002341152
0
-1648.5529123011725
0
0
0
0
0
5494.572877236948
0.024
-0.044
1.032
0
-1655.4596013378623
0
0
0
0
0
5499.80318543949
0
-1630.112723125544
0
0
0
0
0
5510.554374522492
0
-1613.2595078062425
0
0
0
0
0
5510.554374522492
0
-1646.5859587891055
0
0
0
0
0
5508.229793099141
0
-1634.5160167832396
0
0
0
0
0
5501.837194184923
0
-1635.0971621390775
0
0
0
0
0
5503.602981996892
0
-1599.9602198553348
0
0
0
0
0
5511.1802233672415
0
-1592.0924058070668
0
0
0
0
0
5512.320162334462
0
-1635.0748103946223
0
0
0
0
0
5509.369732066361
0
-1665.0932031980997
0
0
0
0
0
5505.0781971309425
0.02
-0.044
1.038
0
-1616.500510752262
0
0
0
0
0
5501.9713046516545
0
-1573.6075131425278
0
0
0
0
0
5510.442615800216
0
-1590.3042662506423
0
0
0
0
0
5513.974191424155
0
-1601.9718768563125
0
0
0
0
0
5508.855641943889
0
-1643.4790663098177
0
0
0
0
0
5510.509671033582
0
-1617.5733944861167
0
0
0
0
0
5509.727359977646
0
-1600.8989931224578
0
0
0
0
0
5514.532985035537
0
-1628.2351765912983
0
0
0
0
0
5519.852700215901
0
-1588.761995883226
0
0
0
0
0
5506.642819242814
0
-1594.215821530321
0
0
0
0
0
5499.758481950579
0.022
-0.046
1.042
0
-1601.4354349893852
0
0
0
0
0
5507.693351232213
0
-1624.5247870117173
0
0
0
0
0
5522.646668272814
0
-1663.6179880640493
0
0
0
0
0
5529.620412542869
0
-1600.4966617222622
0
0
0
0
0
5510.219098355663
0
-1556.866056545503
0
0
0
0
0
5499.937295906222
0
-1582.0341208021787
0
0
0
0
0
5508.162737865775
0
-1639.9698424303344
0
0
0
0
0
5527.2064241416965
0
-1696.855032069091
0
0
0
0
0
5539.9469184812215
0
-1548.215931441299
0
0
0
0
0
5504.988790153121
0
-1559.056527502123
0
0
0
0
0
5502.127766862842
0.024
-0.048
1.044
0
-1620.4344177763962
0
0
0
0
0
5518.623354270859
0
-1620.8367491765916
0
0
0
0
0
5527.161720652785
0
-1596.5851064425835
0
0
0
0
0
5530.805054999001
0
-1635.1195138835328
0
0
0
0
0
5528.56988055347
0
-1583.956370825335
0
0
0
0
0
5504.988790153121
0
-1595.154594797444
0
0
0
0
0
5508.453310543694
0
-1598.2838390211869
0
0
0
0
0
5526.357057852395
0
-1585.051606303645
0
0
0
0
0
5529.396895098316
0
-1601.0331035891895
0
0
0
0
0
5520.523252549559
0
-1590.1701557839103
0
0
0
0
0
5513.728322235146
0.02
-0.04
1.042
0
-1590.2595627617316
0
0
0
0
0
5518.936278693232
0
-1617.4169322749296
0
0
0
0
0
5530.76035151009
0
-1606.531632725195
0
0
0
0
0
5535.945956223722
0
-1575.149783509944
0
0
0
0
0
5525.597098540914
0
-1569.1818677403771
0
0
0
0
0
5513.035418157032
0
-1588.4267197163965
0
0
0
0
0
5521.685543261236
0
-1597.9038593654466
0
0
0
0
0
5535.163645167786
0
-1581.922362079902
0
0
0
0
0
5535.208348656696
0
-1588.8514028610473
0
0
0
0
0
5527.362886352884
0
-1647.1224006560328
0
0
0
0
0
5525.552395052004
0.02
-0.036000000000000004
1.04
0
-1611.0243333607118
0
0
0
0
0
5528.614584042381
0
-1590.3042662506423
0
0
0
0
0
5542.874997004867
0
-1574.9709695543015
0
0
0
0
0
5535.767142268079
0
-1548.1041727190225
0
0
0
0
0
5524.613621784881
0
-1566.8125828281145
0
0
0
0
0
5520.724418249657
0
-1600.8766413780024
0
0
0
0
0
5531.81088349949
0
-1632.1020283820665
0
0
0
0
0
5545.847779017423
0
-1595.6239814310052
0
0
0
0
0
5541.0645057039865
0
-1574.635693387472
0
0
0
0
0
5530.38037185435
0
-1550.4287541423744
0
0
0
0
0
5515.04707515801
0.014
-0.042
1.032
0
-1581.40827195743
0
0
0
0
0
5523.116054906375
0
-1662.4556973523734
0
0
0
0
0
5545.534854595048
0
-1583.4869841917734
0
0
0
0
0
5542.629127815858
0
-1544.505541861718
0
0
0
0
0
5529.531005565048
0
-1588.5608301831282
0
0
0
0
0
5525.552395052004
0
-1588.8514028610473
0
0
0
0
0
5524.077179917954
0
-1585.8339173595807
0
0
0
0
0
5534.269575389573
0
-1585.185716770377
0
0
0
0
0
5535.208348656696
0
-1566.5667136391062
0
0
0
0
0
5529.642764287325
0
-1586.4374144598742
0
0
0
0
0
5524.077179917954
0.018000000000000002
-0.04
1.034
0
-1579.888353334469
0
0
0
0
0
5529.173377653763
0
-1561.6940333478492
0
0
0
0
0
5532.146159666319
0
-1585.543344681662
0
0
0
0
0
5537.488226591137
0
-1594.4169872304187
0
0
0
0
0
5527.0946654194195
0
-1577.40730969993
0
0
0
0
0
5518.265726359574
0
-1570.1429927519553
0
0
0
0
0
5525.0383049295315
0
-1598.5297082101952
0
0
0
0
0
5540.215139414685
0
-1576.3344259660753
0
0
0
0
0
5541.533892337548
0
-1563.4151176709079
0
0
0
0
0
5526.602927041403
0
-1566.2984927056425
0
0
0
0
0
5520.836176971934
0.022
-0.036000000000000004
1.034
0
-1558.9000652909358
0
0
0
0
0
5523.652496773302
0
-1565.7620508387151
0
0
0
0
0
5533.867243989378
0
-1569.8524200740362
0
0
0
0
0
5541.3550783819055
0
-1598.9767430993013
0
0
0
0
0
5536.929432979755
0
-1603.7376646682817
0
0
0
0
0
5521.931412450244
0
-1560.9117222919135
0
0
0
0
0
5523.674848517758
0
-1555.7261175782821
0
0
0
0
0
5533.9566509671995
0
-1593.053530818645
0
0
0
0
0
5548.731154052157
0
-1588.605533672039
0
0
0
0
0
5537.264709146584
0
-1538.8952540034359
0
0
0
0
0
5516.410531569783
0.024
-0.04
1.036
0
-1574.5462864096507
0
0
0
0
0
5529.843929987423
0
-1576.1779637548882
0
0
0
0
0
5541.28802314854
0
-1582.9728940693014
0
0
0
0
0
5540.215139414685
0
-1585.7892138706702
0
0
0
0
0
5533.219043400174
0
-1556.7990013121369
0
0
0
0
0
5525.954726452199
0
-1580.7377196237708
0
0
0
0
0
5534.336630622939
0
-1590.281914506187
0
0
0
0
0
5547.322994151473
0
-1579.3519114675416
0
0
0
0
0
5545.445447617227
0
-1570.1429927519553
0
0
0
0
0
5532.347325366417
0
-1545.511370362207
0
0
0
0
0
5526.111188663386
0.024
-0.044
1.036
0
-1563.7727455821928
0
0
0
0
0
5537.622337057869
0
-1559.3247484355866
0
0
0
0
0
5538.672869047269
0
-1549.0652977306006
0
0
0
0
0
5541.645651059825
0
-1550.3393471645531
0
0
0
0
0
5537.510578335593
0
-1584.9621993258238
0
0
0
0
0
5531.8555869884
0
-1574.8145073431144
0
0
0
0
0
5531.0285724435535
0
-1602.307153023142
0
0
0
0
0
5547.4571046182045
0
-1559.4141554134078
0
0
0
0
0
5546.205406928708
0
-1518.44340782683
0
0
0
0
0
5535.90125273481
0
-1552.149838465433
0
0
0
0
0
5528.279307875551
0.022
-0.044
1.036
0
-1576.8038125996368
0
0
0
0
0
5535.565976567981
0
-1559.1459344799441
0
0
0
0
0
5544.439619116738
0
-1560.0847077470671
0
0
0
0
0
5550.072258719476
0
-1558.9447687798463
0
0
0
0
0
5536.728267279657
0
-1573.9204375649022
0
0
0
0
0
5533.040229444531
0
-1562.4986961482402
0
0
0
0
0
5535.767142268079
0
-1576.0438532881562
0
0
0
0
0
5548.328822651962
0
-1573.696920120349
0
0
0
0
0
5548.440581374238
0
-1572.8699055755028
0
0
0
0
0
5544.372563883372
0
-1573.6522166314385
0
0
0
0
0
5538.292889391529
0.022
-0.044
1.04
0
-1545.7125360623047
0
0
0
0
0
5532.727305022157
0
-1569.7406613517596
0
0
0
0
0
5552.3297849094615
0
-1569.1595159959218
0
0
0
0
0
5555.213159944196
0
-1508.675695499861
0
0
0
0
0
5532.392028855327
0
-1541.6445185714388
0
0
0
0
0
5528.1451974088195
0
-1562.565751381606
0
0
0
0
0
5531.117979421375
0
-1578.5919521560613
0
0
0
0
0
5546.920662751278
0
-1563.7727455821928
0
0
0
0
0
5553.33561340995
0
-1581.8106033576255
0
0
0
0
0
5547.121828451375
0
-1545.824294784581
0
0
0
0
0
5535.923604479266
0.024
-0.046
1.04
0
-1535.6542510574163
0
0
0
0
0
5533.710781778191
0
-1561.4928676477514
0
0
0
0
0
5545.1101714503975
0
-1549.1100012195113
0
0
0
0
0
5547.47945636266
0
-1553.602701855028
0
0
0
0
0
5540.729229537157
0
-1556.731946078771
0
0
0
0
0
5535.0742381899645
0
-1559.8164868136034
0
0
0
0
0
5540.170435925775
0
-1558.0059955127235
0
0
0
0
0
5546.831255773456
0
-1536.1236376909778
0
0
0
0
0
5543.657308060802
0
-1544.5278936061734
0
0
0
0
0
5537.935261480244
0
-1556.9331117788688
0
0
0
0
0
5532.123807921864
0.024
-0.042
1.038
0
-1553.5356466216622
0
0
0
0
0
5536.4823980906485
0
-1554.4967716332403
0
0
0
0
0
5547.345345895928
0
-1554.183847210866
0
0
0
0
0
5551.681584320258
0
-1564.5997601270392
0
0
0
0
0
5550.251072675118
0
-1559.9282455358798
0
0
0
0
0
5538.270537647073
0
-1551.993376254246
0
0
0
0
0
5532.660249788792
0
-1558.7212513352933
0
0
0
0
0
5549.0440784745315
0
-1583.9340190808796
0
0
0
0
0
5556.464857633693
0
-1555.5920071115504
0
0
0
0
0
5543.947880738721
0
-1526.8700154864807
0
0
0
0
0
5535.633031801347
0.026000000000000002
-0.046
1.04
0
-1525.9982974527238
0
0
0
0
0
5541.019802215076
0
-1559.7270798357822
0
0
0
0
0
5555.995471000132
0
-1620.076789865111
0
0
0
0
0
5564.53383738206
0
-1524.3219166185756
0
0
0
0
0
5545.311337150495
0
-1498.3715413059642
0
0
0
0
0
5531.587366054937
0
-1551.0322512426676
0
0
0
0
0
5539.611642314392
0
-1568.8242398290922
0
0
0
0
0
5553.2685581765845
0
-1582.6823213913824
0
0
0
0
0
5561.963386769698
0
-1558.7212513352933
0
0
0
0
0
5552.016860487087
0
-1544.5278936061734
0
0
0
0
0
5538.449351602716
0.022
-0.042
1.044
0
-1521.7961694951262
0
0
0
0
0
5534.895424234322
0
-1545.153742450922
0
0
0
0
0
5553.179151198763
0
-1544.6173005839946
0
0
0
0
0
5563.393898414838
0
-1529.8875009879473
0
0
0
0
0
5549.736982552646
0
-1542.8068092831147
0
0
0
0
0
5537.28706089104
0
-1552.798039054637
0
0
0
0
0
5541.1762644262635
0
-1559.7717833246927
0
0
0
0
0
5558.0294797455645
0
-1584.7163301368155
0
0
0
0
0
5568.691261850746
0
-1532.4355998558522
0
0
0
0
0
5550.966328497688
0
-1560.6211496139945
0
0
0
0
0
5540.751581281613
0.024
-0.048
1.036
0
-1532.8602830005032
0
0
0
0
0
5544.663136561291
0
-1540.8398557710477
0
0
0
0
0
5558.7894390570455
0
-1556.7095943343156
0
0
0
0
0
5564.95852052671
0
-1530.6251085549723
0
0
0
0
0
5548.798209285523
0
-1540.63869007095
0
0
0
0
0
5538.918738236277
0
-1575.9991497992457
0
0
0
0
0
5546.5183313510815
0
-1556.7766495676817
0
0
0
0
0
5562.477476892171
0
-1546.3607366515084
0
0
0
0
0
5559.638805346347
0
-1538.023535969679
0
0
0
0
0
5551.681584320258
0
-1517.9740211932685
0
0
0
0
0
5542.517369093582
0.022
-0.046
1.036
0
-1562.9680827818017
0
0
0
0
0
5551.972156998177
0
-1576.9379230663685
0
0
0
0
0
5563.975043770676
0
-1520.8350444835478
0
0
0
0
0
5557.448334389727
0
-1536.7718382801818
0
0
0
0
0
5555.079049477465
0
-1536.0789342020673
0
0
0
0
0
5543.634956316347
0
-1546.4054401404192
0
0
0
0
0
5546.943014495732
0
-1563.571579882095
0
0
0
0
0
5559.750564068623
0
-1529.6416317989388
0
0
0
0
0
5566.210218216207
0
-1528.7475620207265
0
0
0
0
0
5556.777782056068
0
-1531.6309370554611
0
0
0
0
0
5545.71366855069
0.024
-0.044
1.036
0
-1537.01770746919
0
0
0
0
0
5546.205406928708
0
-1533.6872975453493
0
0
0
0
0
5556.733078567157
0
-1563.6162833710055
0
0
0
0
0
5565.539665882548
0
-1556.6648908454051
0
0
0
0
0
5559.504694879615
0
-1519.7845124941484
0
0
0
0
0
5544.394915627828
0
-1542.605643583017
0
0
0
0
0
5547.434752873749
0
-1562.8563240595252
0
0
0
0
0
5559.974081513176
0
-1542.248015671732
0
0
0
0
0
5568.8253723174785
0
-1542.8515127720252
0
0
0
0
0
5560.532875124559
0
-1549.0429459861455
0
0
0
0
0
5548.328822651962
0.026000000000000002
-0.04
1.032
0
-1575.2168387433098
0
0
0
0
0
5551.592177342436
0
-1566.0079200277235
0
0
0
0
0
5563.371546670383
0
-1505.3005820871094
0
0
0
0
0
5562.745697825635
0
-1507.8710326994697
0
0
0
0
0
5557.269520434084
0
-1543.5891203390504
0
0
0
0
0
5551.8603982759005
0
-1561.0234810141899
0
0
0
0
0
5550.563997097493
0
-1521.1032654170115
0
0
0
0
0
5556.643671589336
0
-1554.5861786110615
0
0
0
0
0
5572.267540963596
0
-1557.2013327123325
0
0
0
0
0
5565.3608519269055
0
-1511.6261257679614
0
0
0
0
0
5543.8808255053555
0.026000000000000002
-0.038
1.032
0
-1554.8767512889806
0
0
0
0
0
5548.619395329881
0
-1572.087594519567
0
0
0
0
0
5558.76708731259
0
-1515.1353496474446
0
0
0
0
0
5567.953654283721
0
-1532.6814690448607
0
0
0
0
0
5563.885636792856
0
-1530.6027568105171
0
0
0
0
0
5550.876921519866
0
-1538.8505505145254
0
0
0
0
0
5551.413363386794
0
-1550.4511058868297
0
0
0
0
0
5566.0090525161095
0
-1520.4774165722629
0
0
0
0
0
5567.663081605802
0
-1508.8768611999585
0
0
0
0
0
5556.487209378149
0
-1536.3918586244415
0
0
0
0
0
5548.9099680078
0.022
-0.042
1.032
0
-1568.0642805176117
0
0
0
0
0
5549.401706385816
0
-1550.8087337981146
0
0
0
0
0
5557.783610556557
0
-1558.0730507460894
0
0
0
0
0
5566.880770549867
0
-1535.0954574460338
0
0
0
0
0
5559.415287901794
0
-1513.123692646467
0
0
0
0
0
5548.842912774434
0
-1534.6707743013828
0
0
0
0
0
5550.116962208386
0
-1530.513349832696
0
0
0
0
0
5560.801096058023
0
-1538.5152743476958
0
0
0
0
0
5568.221875217185
0
-1550.9204925203912
0
0
0
0
0
5568.1771717282745
0
-1517.482282815252
0
0
0
0
0
5551.189845942241
0.024
-0.046
1.04
0
-1515.53768104764
0
0
0
0
0
5547.658270318302
0
-1548.1265244634778
0
0
0
0
0
5562.611587358902
0
-1559.8164868136034
0
0
0
0
0
5576.626131132381
0
-1532.2344341557543
0
0
0
0
0
5571.52993339657
0
-1505.412340809386
0
0
0
0
0
5549.3346511524505
0
-1543.6561755724163
0
0
0
0
0
5555.1461047108305
0
-1535.7213062907824
0
0
0
0
0
5556.487209378149
0
-1537.7106115473048
0
0
0
0
0
5567.551322883525
0
-1533.4637801007964
0
0
0
0
0
5564.4220786597825
0
-1557.1789809678771
0
0
0
0
0
5557.873017534378
0.022
-0.048
1.04
0
-1555.8155245561034
0
0
0
0
0
5560.756392569112
0
-1552.8427425435475
0
0
0
0
0
5566.836067060955
0
-1512.3637333349864
0
0
0
0
0
5568.110116494909
0
-1505.1888233648328
0
0
0
0
0
5563.550360626025
0
-1542.4491813718298
0
0
0
0
0
5562.030442003065
0
-1525.148931163422
0
0
0
0
0
5554.632014588358
0
-1523.0702189290785
0
0
0
0
0
5559.303529179518
0
-1531.988564966746
0
0
0
0
0
5566.411383916305
0
-1556.2849111896649
0
0
0
0
0
5571.082898507464
0
-1558.475382146285
0
0
0
0
0
5560.1975989577295
0.022
-0.052000000000000005
1.04
0
-1512.6319542684503
0
0
0
0
0
5547.702973807213
0
-1514.5318525471512
0
0
0
0
0
5557.67185183428
0
-1543.0750302165784
0
0
0
0
0
5571.485229907659
0
-1540.63869007095
0
0
0
0
0
5567.596026372436
0
-1534.022573712179
0
0
0
0
0
5558.945901268233
0
-1569.919475307402
0
0
0
0
0
5554.900235521822
0
-1522.4667218287852
0
0
0
0
0
5560.175247213274
0
-1539.4987511037293
0
0
0
0
0
5571.708747352212
0
-1541.0633732156007
0
0
0
0
0
5567.663081605802
0
-1522.511425317696
0
0
0
0
0
5553.425020387772
0.022
-0.046
1.04
0
-1505.0994163870116
0
0
0
0
0
5548.731154052157
0
-1532.5697103225841
0
0
0
0
0
5563.416250159294
0
-1540.5045796042182
0
0
0
0
0
5569.585331628959
0
-1526.0653526860897
0
0
0
0
0
5560.599930357925
0
-1534.8272365125702
0
0
0
0
0
5551.815694786989
0
-1536.6153760689947
0
0
0
0
0
5548.731154052157
0
-1557.6483676014386
0
0
0
0
0
5563.528008881571
0
-1543.7455825502375
0
0
0
0
0
5571.14995374083
0
-1516.2305851257545
0
0
0
0
0
5564.444430404238
0
-1533.0167452116902
0
0
0
0
0
5553.737944810146
0.02
-0.042
1.04
0
-1558.184809468366
0
0
0
0
0
5559.2588256906065
0
-1528.4793410872628
0
0
0
0
0
5566.366680427394
0
-1513.2130996242881
0
0
0
0
0
5564.57854087097
0
-1551.1440099649442
0
0
0
0
0
5569.1159449953975
0
-1533.3073178896093
0
0
0
0
0
5557.001299500621
0
-1504.8535471980033
0
0
0
0
0
5552.709764565202
0
-1518.8233874825703
0
0
0
0
0
5561.29283443604
0
-1546.0031087402235
0
0
0
0
0
5578.123698010886
0
-1545.0643354731008
0
0
0
0
0
5570.859381062911
0
-1516.990544437235
0
0
0
0
0
5553.782648299057
0.018000000000000002
-0.04
1.04
0
-1525.3724486079752
0
0
0
0
0
5554.028517488065
0
-1542.5162366051957
0
0
0
0
0
5566.880770549867
0
-1552.440411143352
0
0
0
0
0
5574.234494475662
0
-1565.3373676940641
0
0
0
0
0
5572.133430496863
0
-1538.2247016697768
0
0
0
0
0
5562.656290847814
0
-1490.2578580686877
0
0
0
0
0
5551.838046531445
0
-1522.9808119512572
0
0
0
0
0
5561.538703625048
0
-1537.2635766581986
0
0
0
0
0
5575.3967851873385
0
-1530.3568876215086
0
0
0
0
0
5573.809811331012
0
-1518.4881113157405
0
0
0
0
0
5557.090706478442
0.02
-0.046
1.034
0
-1524.187806151844
0
0
0
0
0
5554.788476799546
0
-1569.5618473961172
0
0
0
0
0
5571.127601996374
0
-1561.4258124143855
0
0
0
0
0
5579.017767789098
0
-1497.768044205671
0
0
0
0
0
5566.657253105313
0
-1518.9798496937574
0
0
0
0
0
5555.168456455285
0
-1531.9215097333802
0
0
0
0
0
5558.7894390570455
0
-1539.4316958703632
0
0
0
0
0
5569.227703717674
0
-1532.2567859002097
0
0
0
0
0
5568.24422696164
0
-1523.9642887072907
0
0
0
0
0
5562.969215270187
0
-1515.381218836453
0
0
0
0
0
5555.727250066669
0.022
-0.048
1.036
0
-1528.7922655096372
0
0
0
0
0
5555.7943053000345
0
-1533.0390969561456
0
0
0
0
0
5561.561055369503
0
-1547.7241930632822
0
0
0
0
0
5577.4531456772265
0
-1528.8369689985477
0
0
0
0
0
5570.345290940439
0
-1525.9982974527238
0
0
0
0
0
5556.666023333791
0
-1533.9778702232684
0
0
0
0
0
5553.223854687674
0
-1521.6397072839388
0
0
0
0
0
5561.650462347325
0
-1536.7271347912713
0
0
0
0
0
5572.379299685872
0
-1551.635748342961
0
0
0
0
0
5574.212142731207
0
-1529.0828381875563
0
0
0
0
0
5554.699069821724
0.026000000000000002
-0.054
1.036
0
-1506.9993146657127
0
0
0
0
0
5550.206369186208
0
-1513.861300213492
0
0
0
0
0
5557.895369278833
0
-1563.5939316265503
0
0
0
0
0
5573.407479930816
0
-1559.1906379688548
0
0
0
0
0
5570.926436296277
0
-1531.8097510111036
0
0
0
0
0
5559.14706696833
0
-1538.179998180866
0
0
0
0
0
5554.363793654895
0
-1500.092625629023
0
0
0
0
0
5559.795267557534
0
-1525.8865387304472
0
0
0
0
0
5570.904084551822
0
-1529.5522248211175
0
0
0
0
0
5572.133430496863
0
-1544.0361552281565
0
0
0
0
0
5558.700032079224
0.026000000000000002
-0.052000000000000005
1.038
0
-1538.4035156254192
0
0
0
0
0
5552.352136653917
0
-1525.3500968635199
0
0
0
0
0
5564.489133893148
0
-1565.9185130499022
0
0
0
0
0
5577.319035210495
0
-1524.4113235963969
0
0
0
0
0
5570.635863618358
0
-1494.3705790484644
0
0
0
0
0
5554.654366332814
0
-1513.3919135799306
0
0
0
0
0
5552.19567444273
0
-1532.3014893891204
0
0
0
0
0
5563.393898414838
0
-1547.1430477074443
0
0
0
0
0
5573.899218308833
0
-1555.6814140893716
0
0
0
0
0
5574.234494475662
0
-1533.9108149899025
0
0
0
0
0
5560.063488490998
0.024
-0.05
1.042
0
-1514.8224252250702
0
0
0
0
0
5552.95563375421
0
-1520.3433061055312
0
0
0
0
0
5564.2432647041405
0
-1554.4520681443296
0
0
0
0
0
5579.285988722562
0
-1554.407364655419
0
0
0
0
0
5578.369567199894
0
-1524.3219166185756
0
0
0
0
0
5566.411383916305
0
-1516.9458409483245
0
0
0
0
0
5557.046002989531
0
-1505.479396042752
0
0
0
0
0
5565.494962393637
0
-1541.8009807826259
0
0
0
0
0
5579.755375356123
0
-1544.1032104615224
0
0
0
0
0
5580.895314323344
0
-1531.8544545000143
0
0
0
0
0
5569.853552562422
0.02
-0.046
1.044
0
-1515.5600327920954
0
0
0
0
0
5559.839971046445
0
-1520.8350444835478
0
0
0
0
0
5574.882695064866
0
-1542.1362569494554
0
0
0
0
0
5579.017767789098
0
-1527.0488294421232
0
0
0
0
0
5574.927398553777
0
-1532.4355998558522
0
0
0
0
0
5567.998357772632
0
-1520.3656578499863
0
0
0
0
0
5562.0751454919755
0
-1542.9185680053913
0
0
0
0
0
5574.569770642492
0
-1533.6649458008942
0
0
0
0
0
5578.347215455439
0
-1524.63484104095
0
0
0
0
0
5579.889485822855
0
-1550.8981407759359
0
0
0
0
0
5571.596988629936
0.02
-0.042
1.046
0
-1561.470515903296
0
0
0
0
0
5565.651424604825
0
-1530.1110184325003
0
0
0
0
0
5571.596988629936
0
-1517.1023031595116
0
0
0
0
0
5581.543514912548
0
-1539.2305301702656
0
0
0
0
0
5583.53282016907
0
-1537.0847627025562
0
0
0
0
0
5574.256846220118
0
-1533.5531870786176
0
0
0
0
0
5567.506619394615
0
-1513.2578031131989
0
0
0
0
0
5567.439564161249
0
-1526.8476637420254
0
0
0
0
0
5578.570732899992
0
-1541.577463338073
0
0
0
0
0
5582.728157368679
0
-1536.3248033910756
0
0
0
0
0
5572.871038063889
0.016
-0.044
1.038
0
-1536.4812656022627
0
0
0
0
0
5567.685433350258
0
-1533.1955591673327
0
0
0
0
0
5570.591160129447
0
-1541.5327598491622
0
0
0
0
0
5583.018730046598
0
-1531.6756405443718
0
0
0
0
0
5582.482288179671
0
-1516.1188264034781
0
0
0
0
0
5570.4123461738045
0
-1539.632861570461
0
0
0
0
0
5565.1820379712635
0
-1570.4559171743294
0
0
0
0
0
5570.635863618358
0
-1538.5599778366063
0
0
0
0
0
5580.358872456417
0
-1506.8875559434362
0
0
0
0
0
5583.063433535509
0
-1526.6241462974724
0
0
0
0
0
5575.843820076445
0.022
-0.046
1.04
0
-1530.8486259995254
0
0
0
0
0
5568.154819983819
0
-1527.4511608423188
0
0
0
0
0
5573.0498520195315
0
-1538.9399574923466
0
0
0
0
0
5577.050814277031
0
-1541.2421871712431
0
0
0
0
0
5580.4482794342375
0
-1526.7582567642041
0
0
0
0
0
5570.38999442935
0
-1540.2363586707543
0
0
0
0
0
5564.824410059979
0
-1537.3306318915645
0
0
0
0
0
5576.492020665649
0
-1540.3481173930309
0
0
0
0
0
5582.906971324322
0
-1517.5940415375283
0
0
0
0
0
5578.280160222073
0
-1519.4939398162294
0
0
0
0
0
5568.400689172828
0.022
-0.044
1.04
0
-1561.8728473034917
0
0
0
0
0
5569.67473860678
0
-1523.472550329274
0
0
0
0
0
5571.418174674293
0
-1518.3316491045534
0
0
0
0
0
5578.749546855634
0
-1533.3296696340644
0
0
0
0
0
5581.8564393349225
0
-1532.9049864894137
0
0
0
0
0
5574.212142731207
0
-1539.9681377372906
0
0
0
0
0
5564.489133893148
0
-1545.667832573394
0
0
0
0
0
5571.932264796766
0
-1557.6260158569833
0
0
0
0
0
5586.974988815187
0
-1526.378277108464
0
0
0
0
0
5581.364700956906
0
-1526.0653526860897
0
0
0
0
0
5569.518276395593
0.018000000000000002
-0.046
1.038
0
-1533.3743731229752
0
0
0
0
0
5570.010014773609
0
-1530.893329488436
0
0
0
0
0
5574.234494475662
0
-1548.506504119218
0
0
0
0
0
5587.690244637757
0
-1557.3354431790642
0
0
0
0
0
5587.511430682115
0
-1500.8525849405034
0
0
0
0
0
5571.373471185383
0
-1523.696067773827
0
0
0
0
0
5564.064450748498
0
-1529.2393003987434
0
0
0
0
0
5574.346253197939
0
-1536.280099902165
0
0
0
0
0
5586.885581837366
0
-1569.2042194848323
0
0
0
0
0
5592.0711865509975
0
-1547.768896552193
0
0
0
0
0
5585.9691603146985
0.022
-0.04
1.04
0
-1531.4521230998187
0
0
0
0
0
5568.0654130059975
0
-1540.9739662377795
0
0
0
0
0
5573.2286659751735
0
-1531.697992288827
0
0
0
0
0
5587.846706848944
0
-1548.9535390083242
0
0
0
0
0
5591.91472433981
0
-1548.6853180748606
0
0
0
0
0
5577.989587544154
0
-1544.1926174393436
0
0
0
0
0
5571.976968285677
0
-1513.1460443909223
0
0
0
0
0
5576.693186365746
0
-1519.0022014382128
0
0
0
0
0
5582.415232946305
0
-1548.3947453969415
0
0
0
0
0
5588.852535349433
0
-1529.7757422656707
0
0
0
0
0
5580.425927689783
undefined
undefined
undefined
0
-1514.9788874362573
0
0
0
0
0
5571.015843274098
0
-1529.1722451653775
0
0
0
0
0
5575.597950887436
0
-1552.8650942880029
0
0
0
0
0
5588.897238838344
0
-1539.0964197035337
0
0
0
0
0
5593.702863896235
0
-1527.6746782868718
0
0
0
0
0
5580.649445134335
0
-1541.5327598491622
0
0
0
0
0
5570.769974085089
0
-1546.7854197961594
0
0
0
0
0
5577.184924743763
0
-1553.5803501105727
0
0
0
0
0
5590.350102227939
0
-1541.1974836823326
0
0
0
0
0
5588.494907438148
0
-1516.4988060592182
0
0
0
0
0
5578.414270688805
undefined
undefined
undefined
0
-1526.668849786383
0
0
0
0
0
5573.67570086428
0
-1552.2392454432543
0
0
0
0
0
5584.113965524908
0
-1552.0827832320672
0
0
0
0
0
5586.10327078143
0
-1514.1965763803216
0
0
0
0
0
5586.527953926081
0
-1531.4968265887294
0
0
0
0
0
5578.570732899992
0
-1548.1712279523883
0
0
0
0
0
5570.859381062911
0
-1526.5347393196512
0
0
0
0
0
5575.374433442883
0
-1523.2713846291763
0
0
0
0
0
5586.147974270341
0
-1545.2878529176537
0
0
0
0
0
5592.2500005066395
0
-1545.4219633843857
0
0
0
0
0
5581.610570145914
undefined
undefined
undefined
0
-1523.9642887072907
0
0
0
0
0
5571.418174674293
0
-1541.085724960056
0
0
0
0
0
5576.424965432282
0
-1548.9311872638689
0
0
0
0
0
5586.036215548064
0
-1541.6892220603493
0
0
0
0
0
5590.685378394768
0
-1516.6552682704055
0
0
0
0
0
5576.737889854657
0
-1551.4345826428632
0
0
0
0
0
5575.039157276054
0
-1571.9311323083798
0
0
0
0
0
5585.432718447772
0
-1521.6620590283942
0
0
0
0
0
5586.751471370634
0
-1524.5454340631288
0
0
0
0
0