0
-2035.2157396335292
0
0
0
0
0
6000.9069443830185
0
-2029.2925273528729
0
0
0
0
0
5980.298635995226
0
-2030.5889285312808
0
0
0
0
0
5979.672787150477
0
-2037.2497483789623
0
0
0
0
0
5999.878764138075
0
-2038.9037774686549
0
0
0
0
0
6012.99923813334
0
-2035.9980506894651
0
0
0
0
0
6001.242220549849
0
-2034.3663733442277
0
0
0
0
0
5980.253932506315
0
-2034.5451872998701
0
0
0
0
0
5978.935179583452
0
-2037.8532454792555
0
0
0
0
0
5999.342322271147
0
-2040.2225303915181
0
0
0
0
0
6012.596906733144
0.018000000000000002
-0.04
1.044
0
-2036.2662716229288
0
0
0
0
0
6001.085758338661
0
-2034.1428558996745
0
0
0
0
0
5980.4774499508685
0
-2034.2769663664064
0
0
0
0
0
5979.158697028005
0
-2039.999012946965
0
0
0
0
0
5999.968171115896
0
-2042.256539136951
0
0
0
0
0
6013.7591974448205
0
-2037.897948968166
0
0
0
0
0
6001.801014161231
0
-2033.517007054926
0
0
0
0
0
5979.784545872753
0
-2033.9193384551215
0
0
0
0
0
5978.510496438801
0
-2039.7978472468671
0
0
0
0
0
5999.074101337684
0
-2043.1059054262528
0
0
0
0
0
6013.133348600072
0.024
-0.04
1.04
0
-2039.1719984021186
0
0
0
0
0
6001.353979272125
0
-2035.26044312244
0
0
0
0
0
5981.1256505400725
0
-2035.707478011546
0
0
0
0
0
5977.996406316329
0
-2039.3731641022164
0
0
0
0
0
5998.627066448577
0
-2042.3235943703169
0
0
0
0
0
6012.909831155519
0
-2041.161303658641
0
0
0
0
0
6002.203345561426
0
-2039.350812357761
0
0
0
0
0
5981.505630195812
0
-2038.2332251349958
0
0
0
0
0
5978.555199927712
0
-2042.3235943703169
0
0
0
0
0
5998.5600112152115
0
-2045.7657630164342
0
0
0
0
0
6012.731017199876
0.018000000000000002
-0.042
1.04
0
-2042.390649603683
0
0
0
0
0
6001.756310672321
0
-2039.3061088688505
0
0
0
0
0
5981.080947051161
0
-2041.5636350588366
0
0
0
0
0
5978.152868527516
0
-2043.9776234600097
0
0
0
0
0
5998.80588040422
0
-2046.1010391832638
0
0
0
0
0
6013.200403833438
0
-2044.8493414937666
0
0
0
0
0
6002.471566494891
0
-2042.9494432150655
0
0
0
0
0
5981.170354028983
0
-2040.6695652806243
0
0
0
0
0
5978.5999034166225
0
-2043.4635333375377
0
0
0
0
0
5998.001217603829
0
-2047.1962746615739
0
0
0
0
0
6012.5298514997785
0.018000000000000002
-0.038
1.038
0
-2048.35856537325
0
0
0
0
0
6003.387988017558
0
-2042.033021692398
0
0
0
0
0
5981.617388918089
0
-2042.8153327483337
0
0
0
0
0
5977.884647594053
0
-2047.9785857175095
0
0
0
0
0
5999.074101337684
0
-2048.671489795624
0
0
0
0
0
6013.71449395591
0
-2045.385783360694
0
0
0
0
0
6003.633857206566
0
-2041.742449014479
0
0
0
0
0
5981.5950371736335
0
-2042.7482775149679
0
0
0
0
0
5978.734013883354
0
-2047.777420017412
0
0
0
0
0
5999.342322271147
0
-2050.7949055188783
0
0
0
0
0
6013.602735233633
0.02
-0.04
1.034
0
-2049.923187485121
0
0
0
0
0
6004.259706051315
0
-2048.157399673152
0
0
0
0
0
5982.243237762837
0
-2046.4586670945487
0
0
0
0
0
5977.929351082963
0
-2050.0125944629426
0
0
0
0
0
5997.822403648187
0
-2050.1467049296743
0
0
0
0
0
6012.865127666608
0
-2050.5937398187807
0
0
0
0
0
6002.985656617362
0
-2048.8503037512664
0
0
0
0
0
5982.131479040561
0
-2046.3022048833616
0
0
0
0
0
5977.996406316329
0
-2049.3420421292835
0
0
0
0
0
5996.771871658787
0
-2053.5888735757917
0
0
0
0
0
6012.239278821859
0.016
-0.042
1.034
0
-2055.488771854493
0
0
0
0
0
6003.052711850729
0
-2049.1408764291855
0
0
0
0
0
5982.645569163033
0
-2047.352736872761
0
0
0
0
0
5978.108165038606
0
-2050.4596293520485
0
0
0
0
0
5995.922505369485
0
-2053.4324113646044
0
0
0
0
0
6011.926354399486
0
-2051.7113270415457
0
0
0
0
0
6003.052711850729
0
-2049.230283407007
0
0
0
0
0
5982.578513929667
0
-2046.033983949898
0
0
0
0
0
5977.817592360687
0
-2050.5937398187807
0
0
0
0
0
5996.593057703145
0
-2056.136972443697
0
0
0
0
0
6012.395741033047
0.016
-0.036000000000000004
1.036
0
-2055.578178832314
0
0
0
0
0
6004.773796173787
0
-2050.638443307691
0
0
0
0
0
5981.215057517893
0
-2050.3702223742275
0
0
0
0
0
5975.917694081985
0
-2053.7900392758893
0
0
0
0
0
5995.587229202656
0
-2057.2769114109174
0
0
0
0
0
6011.479319510379
0
-2055.712289299046
0
0
0
0
0
6003.52209848429
0
-2052.605396819758
0
0
0
0
0
5981.393871473536
0
-2051.3760508747164
0
0
0
0
0
5976.297673737726
0
-2052.8512660087667
0
0
0
0
0
5994.871973380086
0
-2056.136972443697
0
0
0
0
0
6010.9428776434515
0.016
-0.04
1.036
0
-2056.427545121616
0
0
0
0
0
6002.963304872907
0
-2050.906664241155
0
0
0
0
0
5982.287941251748
0
-2053.030079964409
0
0
0
0
0
5974.643644648033
0
-2053.0524317088643
0
0
0
0
0
5992.972075101385
0
-2057.8580567667555
0
0
0
0
0
6010.0041043763285
0
-2059.355623645261
0
0
0
0
0
6002.873897895086
0
-2053.544170086881
0
0
0
0
0
5980.790374373242
0
-2051.3089956413505
0
0
0
0
0
5974.911865581497
0
-2054.147667187174
0
0
0
0
0
5993.642627435044
0
-2057.187504433096
0
0
0
0
0
6009.445310764946
0.012
-0.042
1.038
0
-2058.059222466853
0
0
0
0
0
6002.337456028158
0
-2056.114620699241
0
0
0
0
0
5980.790374373242
0
-2054.54999858737
0
0
0
0
0
5974.129554525561
0
-2056.8745800107217
0
0
0
0
0
5992.323874512181
0
-2060.093231212286
0
0
0
0
0
6010.294677054248
0
-2060.4732108680264
0
0
0
0
0
6003.700912439932
0
-2057.5674840888364
0
0
0
0
0
5981.259761006804
0
-2053.4324113646044
0
0
0
0
0
5973.637816147544
0
-2056.516952099437
0
0
0
0
0
5992.033301834262
0
-2060.964949246043
0
0
0
0
0
6009.624124720589
0.012
-0.044
1.034
0
-2061.277873668417
0
0
0
0
0
6003.52209848429
0
-2058.394498633683
0
0
0
0
0
5981.907961596008
0
-2057.2322079220066
0
0
0
0
0
5975.247141748327
0
-2061.1214114572304
0
0
0
0
0
5992.636798934555
0
-2060.8755422682216
0
0
0
0
0
6010.451139265435
0
-2060.1379347011966
0
0
0
0
0
6004.729092684876
0
-2058.126277700219
0
0
0
0
0
5983.293769752237
0
-2057.5004288554705
0
0
0
0
0
5975.917694081985
0
-2059.802658534367
0
0
0
0
0
5993.486165223857
0
-2063.0436614803866
0
0
0
0
0
6011.18874683246
0.016
-0.042
1.036
0
-2061.926074257621
0
0
0
0
0
6006.383121774569
0
-2059.6908998120907
0
0
0
0
0
5984.478412208368
0
-2056.472248610526
0
0
0
0
0
5976.498839437823
0
-2059.288568411895
0
0
0
0
0
5993.530868712767
0
-2065.234132437007
0
0
0
0
0
6010.786415432265
0
-2062.5295713579144
0
0
0
0
0
6005.019665362795
0
-2058.685071311602
0
0
0
0
0
5983.316121496692
0
-2059.6014928342693
0
0
0
0
0
5976.208266759904
0
-2064.0047864919648
0
0
0
0
0
5992.6144471901
0
-2065.9940917484873
0
0
0
0
0
6010.138214843061
0.018000000000000002
-0.044
1.034
0
-2066.7316993155123
0
0
0
0
0
6005.444348507446
0
-2061.8813707687104
0
0
0
0
0
5983.807859874709
0
-2061.769612046434
0
0
0
0
0
5975.403603959514
0
-2064.161248703152
0
0
0
0
0
5991.429804733969
0
-2067.223437693529
0
0
0
0
0
6010.115863098606
0
-2067.6257690937246
0
0
0
0
0
6005.801976418731
0
-2062.7307370580124
0
0
0
0
0
5983.696101152433
0
-2062.3060539133617
0
0
0
0
0
5974.464830692391
0
-2064.451821381071
0
0
0
0
0
5990.669845422488
0
-2068.6315975942134
0
0
0
0
0
6009.579421231678
0.022
-0.044
1.036
0
-2067.536362115903
0
0
0
0
0
6004.349113029136
0
-2063.7142138140457
0
0
0
0
0
5982.734976140854
0
-2062.0825364688085
0
0
0
0
0
5973.168429513983
0
-2067.8492865382777
0
0
0
0
0
5990.04399657774
0
-2071.380862162216
0
0
0
0
0
6009.601772976133
0
-2068.2963214273836
0
0
0
0
0
6003.767967673299
0
-2064.4965248699814
0
0
0
0
0
5983.204362774416
0
-2064.7870975479004
0
0
0
0
0
5974.107202781106
0
-2066.8211062933333
0
0
0
0
0
5989.641665177544
0
-2070.7550133174677
0
0
0
0
0
6007.992447375352
0.026000000000000002
-0.042
1.032
0
-2070.352681917272
0
0
0
0
0
6004.036188606762
0
-2066.865809782244
0
0
0
0
0
5983.51728719679
0
-2064.831801036811
0
0
0
0
0
5973.861333592097
0
-2070.129164472719
0
0
0
0
0
5989.932237855463
0
-2071.6937865845903
0
0
0
0
0
6008.774758431287
0
-2068.519838871937
0
0
0
0
0
6005.153775829527
0
-2065.547056859381
0
0
0
0
0
5984.389005230547
0
-2064.6529870811687
0
0
0
0
0
5973.749574869821
0
-2069.2127429500515
0
0
0
0
0
5990.133403555561
0
-2072.9454842740874
0
0
0
0
0
6009.668828209499
0.026000000000000002
-0.046
1.032
0
-2071.6043796067693
0
0
0
0
0
6006.04784560774
0
-2069.771536561434
0
0
0
0
0
5984.813688375198
0
-2068.251617938473
0
0
0
0
0
5974.241313247838
0
-2068.810411549856
0
0
0
0
0
5989.641665177544
0
-2072.833725551811
0
0
0
0
0
6009.020627620295
0
-2073.705443585568
0
0
0
0
0
6006.4278252634795
0
-2068.74335631649
0
0
0
0
0
5984.970150586385
0
-2069.860943539255
0
0
0
0
0
5974.80010685922
0
-2073.705443585568
0
0
0
0
0
5989.954589599918
0
-2074.4654028970485
0
0
0
0
0
6009.445310764946
0.022
-0.052000000000000005
1.032
0
-2072.6549115961684
0
0
0
0
0
6006.85250840813
0
-2069.6597778391574
0
0
0
0
0
5984.768984886287
0
-2069.3692051612384
0
0
0
0
0
5974.531885925757
0
-2073.12429822973
0
0
0
0
0
5989.686368666455
0
-2076.901743042677
0
0
0
0
0
6009.422959020491
0
-2076.1194319867413
0
0
0
0
0
6007.701874697433
0
-2073.325463929828
0
0
0
0
0
5986.177144786971
0
-2069.2127429500515
0
0
0
0
0
5975.381252215058
0
-2074.1077749857636
0
0
0
0
0
5990.446327977936
0
-2074.666568597146
0
0
0
0
0
6009.914697398508
0.02
-0.042
1.038
0
-2075.001844763976
0
0
0
0
0
6007.500708997334
0
-2070.3079784283614
0
0
0
0
0
5986.7582901428095
0
-2073.392519163194
0
0
0
0
0
5976.208266759904
0
-2071.403213906671
0
0
0
0
0
5991.295694267237
0
-2072.1408214736966
0
0
0
0
0
6009.601772976133
0
-2073.928961030121
0
0
0
0
0
6007.90304039753
0
-2071.291455184395
0
0
0
0
0
5987.764118643298
0
-2071.447917395582
0
0
0
0
0
5976.163563270994
0
-2076.544115131392
0
0
0
0
0
5990.803955889221
0
-2076.342949431294
0
0
0
0
0
6010.920525898997
0.024
-0.046
1.038
0
-2074.3983476636827
0
0
0
0
0
6009.177089831483
0
-2071.6043796067693
0
0
0
0
0
5988.6358366770555
0
-2069.4362603946042
0
0
0
0
0
5976.811763860198
0
-2074.0854232413085
0
0
0
0
0
5990.6921971669435
0
-2078.511068643459
0
0
0
0
0
6011.14404334355
0
-2078.4663651545484
0
0
0
0
0
6009.914697398508
0
-2072.5431528738923
0
0
0
0
0
5988.859354121609
0
-2071.9396557735986
0
0
0
0
0
5976.789412115742
0
-2078.354606432272
0
0
0
0
0
5991.005121589318
0
-2077.12526048723
0
0
0
0
0
6010.182918331971
0.018000000000000002
-0.04
1.044
0
-2074.3983476636827
0
0
0
0
0
6008.484185753368
0
-2072.1631732181518
0
0
0
0
0
5988.166450043494
0
-2070.799716806378
0
0
0
0
0
5976.163563270994
0
-2074.0407197523978
0
0
0
0
0
5988.948761099429
0
-2077.9746267765317
0
0
0
0
0
6009.288848553759
0
-2077.5275918874254
0
0
0
0
0
6009.065331109206
0
-2076.186487220107
0
0
0
0
0
5988.99346458834
0
-2073.5936848632914
0
0
0
0
0
5976.409432460003
0
-2077.058205253864
0
0
0
0
0
5989.4628512219015
0
-2080.522725644437
0
0
0
0
0
6009.132386342572
0.018000000000000002
-0.044
1.044
0
-2080.6344843667134
0
0
0
0
0
6010.026456120784
0
-2076.7229290870346
0
0
0
0
0
5989.70872041091
0
-2074.4877546415037
0
0
0
0
0
5975.917694081985
0
-2078.287551198906
0
0
0
0
0
5988.546429699234
0
-2082.824955323333
0
0
0
0
0
6009.5347177427675
0
-2082.5343826454146
0
0
0
0
0
6009.221793320393
0
-2078.511068643459
0
0
0
0
0
5989.596961688633
0
-2075.962969775554
0
0
0
0
0
5974.978920814863
0
-2079.583952377314
0
0
0
0
0
5987.786470387754
0
-2083.763728590456
0
0
0
0
0
6008.640647964555
0.024
-0.044
1.038
0
-2083.741376846001
0
0
0
0
0
6009.445310764946
0
-2080.835650066811
0
0
0
0
0
5988.769947143787
0
-2075.31476918635
0
0
0
0
0
5974.598941159123
0
-2079.0028070214757
0
0
0
0
0
5987.2276767763715
0
-2083.383748934716
0
0
0
0
0
6007.835985164164
0
-2085.6189233802465
0
0
0
0
0
6009.802938676231
0
-2081.573257633836
0
0
0
0
0
5988.725243654877
0
-2076.611170364758
0
0
0
0
0
5973.481353936357
0
-2080.768594833445
0
0
0
0
0
5986.333606998159
0
-2084.5236879019367
0
0
0
0
0
6007.456005508424
0.022
-0.04
1.044
0
-2085.8871443137105
0
0
0
0
0
6008.327723542181
0
-2081.0144640224535
0
0
0
0
0
5988.434670976958
0
-2078.645179110191
0
0
0
0
0
5973.928388825463
0
-2080.3439116887944
0
0
0
0
0
5985.998330831329
0
-2085.395405935694
0
0
0
0
0
6005.533755485268
0
-2087.4294146811267
0
0
0
0
0
6007.388950275058
0
-2083.2719902124395
0
0
0
0
0
5988.009987832307
0
-2080.7015396000793
0
0
0
0
0
5973.347243469625
0
-2082.802603578878
0
0
0
0
0
5984.389005230547
0
-2086.2447722249954
0
0
0
0
0
6005.869031652097
0.022
-0.044
1.042
0
-2086.6247518807354
0
0
0
0
0
6008.28302005327
0
-2083.160231490163
0
0
0
0
0
5988.457022721413
0
-2080.5897808778027
0
0
0
0
0
5974.598941159123
0
-2083.093176256797
0
0
0
0
0
5986.355958742614
0
-2086.8929728141993
0
0
0
0
0
6006.606639219122
0
-2088.189373992607
0
0
0
0
0
6008.260668308815
0
-2087.362359447761
0
0
0
0
0
5988.8146506326975
0
-2091.7656531054563
0
0
0
0
0
5973.70487138091
0
-2109.200013780596
0
0
0
0
0
5986.557124442712
0
-2119.995906352509
0
0
0
0
0
6010.0041043763285
0.024
-0.042
1.042
0
-2109.155310291685
0
0
0
0
0
6012.373389288591
0
-2091.609190894269
0
0
0
0
0
5989.507554710813
0
-2104.1261677892408
0
0
0
0
0
5973.593112658634
0
-2126.2767465444504
0
0
0
0
0
5986.981807587363
0
-2137.854950172299
0
0
0
0
0
6011.814595677209
0
-2153.9482061801205
0
0
0
0
0
6019.123616114094
0
-2152.316528834883
0
0
0
0
0
6000.661075194011
0
-2126.477912244548
0
0
0
0
0
5979.89630459503
0
-2082.824955323333
0
0
0
0
0
5987.428842476469
0
-2060.7190800570347
0
0
0
0
0
6004.751444429332
0.02
-0.046
1.044
0
-2082.6014378787804
0
0
0
0
0
6007.970095630896
0
-2101.935696832621
0
0
0
0
0
5994.42493849098
0
-2106.674266657146
0
0
0
0
0
5978.935179583452
0
-2096.705388630079
0
0
0
0
0
5988.859354121609
0
-2114.8103016388777
0
0
0
0
0
6011.635781721567
0
-2120.644106941713
0
0
0
0
0
6014.8767846675855
0
-2093.553792661881
0
0
0
0
0
5990.066348322195
0
-2071.1349929732078
0
0
0
0
0
5970.240350990338
0
-2067.893990027188
0
0
0
0
0
5983.584342430156
0
-2087.5188216589477
0
0
0
0
0
6004.974961873885
0.02
-0.044
1.042
0
-2103.9473538335983
0
0
0
0
0
6009.490014253857
0
-2116.2631650284725
0
0
0
0
0
5993.106185568116
0
-2129.9200808906653
0
0
0
0
0
5986.534772698256
0
-2136.6479559717127
0
0
0
0
0
5994.894325124541
0
-2131.0823716023415
0
0
0
0
0
6010.317028798703
0
-2124.510958732481
0
0
0
0
0
6022.945764415952
0
-2093.598496150791
0
0
0
0
0
6008.797110175742
0
-2029.739562241979
0
0
0
0
0
5988.434670976958
0
-2014.7638934569234
0
0
0
0
0
5992.793261145743
0
-2104.550850933892
0
0
0
0
0
6016.217889334905
0.02
-0.04
1.036
0
-2188.5487065969355
0
0
0
0
0
6033.764008732321
0
-2189.219258930595
0
0
0
0
0
6031.238261608871
0
-2139.3301653063495
0
0
0
0
0
6017.424883535491
0
-2066.8881615266996
0
0
0
0
0
6014.250935822837
0
-2057.0086904774535
0
0
0
0
0
6032.355848831636
0
-2083.160231490163
0
0
0
0
0
6039.419000079513
0
-2098.135900275219
0
0
0
0
0
6026.6114505066225
0
-2086.8706210697437
0
0
0
0
0
6014.183880589471
0
-2074.1077749857636
0
0
0
0
0
6025.203290605938
0
-2062.2389986799953
0
0
0
0
0
6046.996241449862
0.02
-0.044
1.028
0
-2063.7365655585013
0
0
0
0
0
6051.690107785476
0
-2105.355513734283
0
0
0
0
0
6036.8261977226975
0
-2146.8179996988774
0
0
0
0
0
6023.102226627139
0
-2152.316528834883
0
0
0
0
0
6032.66877325401
0
-2126.2543947999948
0
0
0
0
0
6051.757163018842
0
-2125.740304677523
0
0
0
0
0
6061.77074453482
0
-2168.1639156536958
0
0
0
0
0
6050.818389751719
0
-2207.2347649615726
0
0
0
0
0
6046.862130983131
0
-2216.1978144881505
0
0
0
0
0
6058.976776477907
0
-2196.707093323123
0
0
0
0
0
6085.173020979527
0.026000000000000002
-0.042
1.036
0
-2134.7257059485564
0
0
0
0
0
6105.736625878409
0
-2061.7919637908894
0
0
0
0
0
6080.30034068827
0
-2074.2418854524954
0
0
0
0
0
6057.00982296584
0
-2111.144615548207
0
0
0
0
0
6062.664814313032
0
-2151.578921267858
0
0
0
0
0
6086.91645704704
0
-2178.3339593808605
0
0
0
0
0
6100.796890353786
0
-2150.886017189743
0
0
0
0
0
6097.600590896677
0
-2154.4622963025927
0
0
0
0
0
6092.057358271762
0
-2158.9773486825643
0
0
0
0
0
6098.137032763605
0
-2146.0356886429418
0
0
0
0
0
6111.7268933924315
0.024
-0.048
1.04
0
-2085.9765512915315
0
0
0
0
0
6104.172003766537
0
-2040.9824897029985
0
0
0
0
0
6091.543268149289
0
-2072.0737662403308
0
0
0
0
0
6077.953407520462
0
-2120.241775541517
0
0
0
0
0
6095.544230406789
0
-2115.726723161545
0
0
0
0
0
6136.649088460099
0
-2086.445937925093
0
0
0
0
0
6151.401239800602
0
-2116.9113656176764
0
0
0
0
0
6133.296326791803
0
-2184.9724274840864
0
0
0
0
0
6088.771651836831
0
-2196.058892733919
0
0
0
0
0
6069.124468460616
0
-2154.9540346806093
0
0
0
0
0
6012.753368944332
0.022
-0.048
1.04
0
-2096.4371676966152
0
0
0
0
0
5942.859464032586
0
-2098.22530725304
0
0
0
0
0
5861.633224682
0
-2134.7257059485564
0
0
0
0
0
5825.333991686582
0
-2130.4565227575927
0
0
0
0
0
5820.014276506219
0
-2121.091141830819
0
0
0
0
0
5819.366075917015
0
-2136.3573832937936
0
0
0
0
0
5826.384523675982
0
-2124.3097930323834
0
0
0
0
0
5821.4671398958135
0
-2119.861795885777
0
0
0
0
0
5809.084273467573
0
-2128.6013279678023
0
0
0
0
0
5826.742151587267
0
-2122.5887087093247
0
0
0
0
0
5846.344631474571
0.016
-0.048
1.042
0
-2112.508071959981
0
0
0
0
0
5853.027803066708
0
-2129.8753774017546
0
0
0
0
0
5851.440829210381
0
-2179.0045117145196
0
0
0
0
0
5849.58563442059
0
-2194.2931049219496
0
0
0
0
0
5864.1366200609955
0
-2178.4233663586815
0
0
0
0
0
5893.797384953187
0
-2158.5526655379135
0
0
0
0
0
5922.385266111525
0
-2110.831691125833
0
0
0
0
0
5913.064588673662
0
-2115.2126330390734
0
0
0
0
0
5889.97523665133
0
-2155.2893108474386
0
0
0
0
0
5900.212335611861
0
-2169.1697441541846
0
0
0
0
0
5929.738990037321
0.024
-0.044
1.038
0
-2172.9471889671313
0
0
0
0
0
5940.4454756314135
0
-2159.4243835716707
0
0
0
0
0
5915.635039286022
0
-2159.893770205232
0
0
0
0
0
5889.014111639752
0
-2148.6955462331234
0
0
0
0
0
5884.990797637796
0
-2177.5292965804692
0
0
0
0
0
5898.424196055436
0
-2189.9121630087093
0
0
0
0
0
5902.715730990855
0
-2168.052156931419
0
0
0
0
0
5884.230838326316
0
-2131.6858687026347
0
0
0
0
0
5844.10945702904
0
-2133.921043148165
0
0
0
0
0
5838.7226866153105
0
-2143.5546450084025
0
0
0
0
0
5850.055021054151
0.022
-0.048
1.042
0
-2157.5915405263354
0
0
0
0
0
5845.808189607643
0
-2227.954832071642
0
0
0
0
0
5824.909308541931
0
-2220.511701168025
0
0
0
0
0
5810.917116512909
0
-2164.922912707676
0
0
0
0
0
5798.064863451107
0
-2161.4583923171035
0
0
0
0
0
5797.662532050912
0
-2167.2027906421176
0
0
0
0
0
5798.914229740409
0
-2136.603252482802
0
0
0
0
0
5767.442973547337
0
-2124.1086273322853
0
0
0
0
0
5728.394475983915
0
-2187.922857752187
0
0
0
0
0
5728.461531217281
0
-2210.855747563332
0
0
0
0
0
5744.532435480647
0.018000000000000002
-0.046
1.026
0
-2166.9122179641986
0
0
0
0
0
5739.212720300284
0
-2107.3001155018947
0
0
0
0
0
5706.445062928804
0
-2104.2379265115173
0
0
0
0
0
5672.515114845648
0
-2153.9705579245756
0
0
0
0
0
5667.083640943008
0
-2265.2822453120048
0
0
0
0
0
5690.642379598901
0
-2298.0051991945743
0
0
0
0
0
5705.483937917225
0
-2192.6167240878017
0
0
0
0
0
5686.5743621080355
0
-2089.351664704283
0
0
0
0
0
5651.504475057659
0
-2101.2651444989615
0
0
0
0
0
5643.279033098106
0
-2152.517694534981
0
0
0
0
0
5658.098239671975
0.02
-0.04
1.028
0
-2200.1269102247848
0
0
0
0
0
5664.960225219754
0
-2221.517529668514
0
0
0
0
0
5641.557948775047
0
-2218.209471489128
0
0
0
0
0
5619.854404908944
0
-2164.7217470075784
0
0
0
0
0
5613.931192628288
0
-2102.5168421884587
0
0
0
0
0
5612.545384472059
0
-2143.733458964045
0
0
0
0
0
5615.562869973525
0
-2193.153165954729
0
0
0
0
0
5599.626076176891
0
-2194.851898533332
0
0
0
0
0
5580.068299778498
0
-2119.0347813409307
0
0
0
0
0
5574.010977031109
0
-2100.5051851874814
0
0
0
0
0
5574.994453787142
0.016
-0.042
1.034
0
-2114.966763850065
0
0
0
0
0
5563.572712370481
0
-2129.2718803014614
0
0
0
0
0
5540.550415581514
0
-2140.447752529115
0
0
0
0
0
5521.082046160942
0
-2160.0949359053297
0
0
0
0
0
5521.529081050048
0
-2185.061834461908
0
0
0
0
0
5543.657308060802
0
-2200.439834647159
0
0
0
0
0
5556.62131984488
0
-2115.972592350554
0
0
0
0
0
5542.495017349126
0
-2042.9717949595208
0
0
0
0
0
5511.627258256347
0
-2080.925057044632
0
0
0
0
0
5507.000447154099
0
-2212.398017930748
0
0
0
0
0
5533.174339911264
0.02
-0.04
1.038
0
-2269.730242458611
0
0
0
0
0
5544.596081327925
0
-2193.3096281659164
0
0
0
0
0
5517.394008325817
0
-2065.636463837202
0
0
0
0
0
5467.147286790287
0
-2131.32824079135
0
0
0
0
0
5453.9374058172
0
-2159.1785143826623
0
0
0
0
0
5470.768269392046
0
-2098.672342142146
0
0
0
0
0
5474.903342116278
0
-2156.183380625651
0
0
0
0
0
5458.7653826195465
0
-2209.827567318388
0
0
0
0
0
5445.019059779533
0
-2091.631542638724
0
0
0
0
0
5433.999649763066
0
-2045.1399141716856
0
0
0
0
0
5433.6420218517815
0.022
-0.04
1.036
0
-2137.251453072006
0
0
0
0
0
5439.520530643526
0
-2149.4555055446035
0
0
0
0
0
5422.242632179575
0
-2116.643144684213
0
0
0
0
0
5392.000721931544
0
-2099.4323014536267
0
0
0
0
0
5389.9220096972
0
-2117.246641784506
0
0
0
0
0
5409.837414006879
0
-2092.615019394758
0
0
0
0
0
5413.413693119728
0
-2122.0075633534866
0
0
0
0
0
5399.108576668332
0
-2176.9705029690867
0
0
0
0
0
5375.192210101153
0
-2201.5350701254692
0
0
0
0
0
5383.574114271893
0
-2146.907406676699
0
0
0
0
0
5410.485614596083
0.024
-0.04
1.032
0
-2051.487809596993
0
0
0
0
0
5415.537108842982
0
-2055.779344532412
0
0
0
0
0
5398.661541779225
0
-2137.206749583095
0
0
0
0
0
5377.449736291139
0
-2165.5934650413355
0
0
0
0
0
5382.143602626754
0
-2212.8897563087653
0
0
0
0
0
5395.755815000036
0
-2162.799496984422
0
0
0
0
0
5398.840355734868
0
-2005.934954397077
0
0
0
0
0
5366.676195463681
0
-2039.5296263134035
0
0
0
0
0
5341.798703884924
0
-2127.8190169118666
0
0
0
0
0
5348.504227221516
0
-2168.2533226315168
0
0
0
0
0
5375.259265334519
0.022
-0.04
1.034
0
-2199.6575235912233
0
0
0
0
0
5410.26209715153
0
-2174.1094796788075
0
0
0
0
0
5445.9131295577445
0
-2116.956069106587
0
0
0
0
0
5478.189048551208
0
-2082.9367140456097
0
0
0
0
0
5526.602927041403
0
-2075.739452331001
0
0
0
0
0
5588.360796971417
0
-2122.566356964869
0
0
0
0
0
5649.850445967966
0
-2108.216537024562
0
0
0
0
0
5688.36250166446
0
-2056.762821288445
0
0
0
0
0
5739.883272633943
0
-2052.3595276307497
0
0
0
0
0
5824.261107952727
0
-2060.227341679018
0
0
0
0
0
5902.425158312936
0.018000000000000002
-0.046
1.04
0
-2086.3341792028164
0
0
0
0
0
5952.448362403913
0
-2095.4983944294922
0
0
0
0
0
5966.619368388578
0
-2060.7637835459454
0
0
0
0
0
5959.5785688851565
0
-2110.5858219368247
0
0
0
0
0
5976.320025482181
0
-2125.9191186331655
0
0
0
0
0
6015.23441257887
0
-2055.7569927879563
0
0
0
0
0
6031.729999986887
0
-2022.676410994102
0
0
0
0
0
6025.605622006134
0
-2051.152533430163
0
0
0
0
0
6019.056560880728
0
-2123.7286476765453
0
0
0
0
0
6024.845662694653
0
-2155.5798835253577
0
0
0
0
0
6057.613320066133
0.026000000000000002
-0.048
1.042
0
-2107.568336435358
0
0
0
0
0
6079.428622654513
0
-2101.6898276436123
0
0
0
0
0
6068.968006249429
0
-2119.0124295964756
0
0
0
0
0
6053.05356419725
0
-1989.4617187335157
0
0
0
0
0
6045.453971082446
0
-1964.1371922656529
0
0
0
0
0
6062.396593379569
0
-2065.859981281755
0
0
0
0
0
6087.855230314163
0
-2132.959918136587
0
0
0
0
0
6085.39653842408
0
-2110.518766703459
0
0
0
0
0
6070.711442316943
0
-2049.6549665516577
0
0
0
0
0
6059.110886944639
0
-2028.1749401301076
0
0
0
0
0
6076.701709830965
0.028
-0.044
1.042
0
-2076.1194319867413
0
0
0
0
0
6099.545192664289
0
-2139.5536827509027
0
0
0
0
0
6097.555887407767
0
-2101.443958454604
0
0
0
0
0
6076.813468553241
0
-2014.585079501281
0
0
0
0
0
6067.090459715183
0
-1953.6989276050244
0
0
0
0
0
6086.581180880211
0
-2040.3342891137945
0
0
0
0
0
6114.565564938255
0
-2137.9220054056655
0
0
0
0
0
6116.577221939233
0
-2073.414870907649
0
0
0
0
0
6098.025274041328
0
-1960.650320130625
0
0
0
0
0
6085.77651807982
0
-2025.5821377732918
0
0
0
0
0
6109.894050347096
0.022
-0.044
1.044
0
-2059.735603301001
0
0
0
0
0
6131.932870380029
0
-2083.115528001252
0
0
0
0
0
6129.384771512124
0
-2076.1417837311965
0
0
0
0
0
6109.715236391454
0
-2057.8804085112106
0
0
0
0
0
6108.083559046217
0
-1982.130346552175
0
0
0
0
0
6124.422684243046
0
-2002.8727654067
0
0
0
0
0
6144.36044029718
0
-2049.3643938737387
0
0
0
0
0
6142.348783296202
0
-2068.8551150387666
0
0
0
0
0
6126.903727877585
0
-2073.4372226521045
0
0
0
0
0
6122.791006897808
0
-2026.7891319738785
0
0
0
0
0
6140.7841611843305
0.026000000000000002
-0.044
1.042
0
-2033.0699721658198
0
0
0
0
0
6155.31279508028
0
-2014.3615620567277
0
0
0
0
0
6149.277824077347
0
-2055.064088709842
0
0
0
0
0
6131.597594213199
0
-2094.3137519733614
0
0
0
0
0
6132.893995391607
0
-1963.3548812097172
0
0
0
0
0
6141.544120495811
0
-1992.2333350459737
0
0
0
0
0
6158.263225348381
0
-2066.4411266375932
0
0
0
0
0
6157.905597437096
0
-2055.153495687663
0
0
0
0
0
6135.978536126439
0
-1999.2964862938509
0
0
0
0
0
6124.7579604098755
0
-2047.285681639395
0
0
0
0
0
6150.037783388828
0.024
-0.044
1.04
0
-2065.569408603836
0
0
0
0
0
6172.79185924433
0
-2013.44514053406
0
0
0
0
0
6159.64903350461
0
-2050.4596293520485
0
0
0
0
0
6134.637431459121
0
-2055.220550921029
0
0
0
0
0
6130.770579668353
0
-1985.9748465984878
0
0
0
0
0
6244.406848479134
0
-1987.874744877189
0
0
0
0
0
6483.436403684188
0
-2033.293489610373
0
0
0
0
0
6614.350570958922
0
-2057.6345393222023
0
0
0
0
0
6667.927702418292
0
-1994.0438263468536
0
0
0
0
0
6706.104481947957
0
-2042.5694635593254
0
0
0
0
0
6760.91095935237
0.022
-0.044
1.042
0
-2070.8444202952887
0
0
0
0
0
6809.995390176224
0
-2035.1710361446187
0
0
0
0
0
6824.121692671978
0
-1983.2032302860298
0
0
0
0
0
6807.961381430791
0
-1965.2994829773288
0
0
0
0
0
6808.564878531084
0
-1993.261515290918
0
0
0
0
0
6840.594928335539
0
-2061.0767079683196
0
0
0
0
0
6723.337676922999
0
-2035.2157396335292
0
0
0
0
0
6403.394806789734
0
-2029.6278035197024
0
0
0
0
0
6161.6830422500425
0
-2003.1186345957083
0
0
0
0
0
6005.869031652097
0
-1951.5978636262255
0
0
0
0
0
5874.664291699444
0.026000000000000002
-0.048
1.042
0
-2012.9757539004988
0
0
0
0
0
5764.783115957155
0
-2077.4605366540595
0
0
0
0
0
5663.0379751965975
0
-2078.7569378324674
0
0
0
0
0
5563.4833053926595
0
-1977.7047011500242
0
0
0
0
0
5469.98595833611
0
-1974.4413464595493
0
0
0
0
0
5421.437969379183
0
-2016.842605691267
0
0
0
0
0
5402.841317992368
0
-1975.0224918153874
0
0
0
0
0
5359.255416304519
0
-1979.3810819841722
0
0
0
0
0
5308.986343024533
0
-2037.383858845694
0
0
0
0
0
5290.635560826727
0
-2051.510161341448
0
0
0
0
0
5293.675398072648
0.022
-0.048
1.04
0
-1995.0720065917978
0
0
0
0
0
5295.105909717788
0
-1969.7027766350243
0
0
0
0
0
5273.625883296238
0
-1961.00794804191
0
0
0
0
0
5246.759086460958
0
-1992.7250734239906
0
0
0
0
0
5239.94180440209
0
-2018.2507655919512
0
0
0
0
0
5257.823199966336
0
-2010.7852829438787
0
0
0
0
0
5272.8659239847575
0
-1973.7260906369795
0
0
0
0
0
5263.679357013626
0
-1942.8359797997452
0
0
0
0
0
5238.779513690414
0
-1993.261515290918
0
0
0
0
0
5241.662888725149
0
-2007.3654660422167
0
0
0
0
0
5262.740583746503
0.022
-0.05
1.036
0
-1975.6930441490465
0
0
0
0
0
5274.989339708011
0
-2012.0593323778312
0
0
0
0
0
5277.760956020469
0
-1994.8708408917
0
0
0
0
0
5251.765877218947
0
-2011.3664282997167
0
0
0
0
0
5247.474342283528
0
-2011.835814933278
0
0
0
0
0
5269.714328016559
0
-2028.7337337414901
0
0
0
0
0
5296.134089962732
0
-1973.681387148069
0
0
0
0
0
5290.099118959799
0
-1928.3520493927062
0
0
0
0
0
5268.70849951607
0
-1950.390869425639
0
0
0
0
0
5261.622996523738
0
-1995.6531519476357
0
0
0
0
0
5285.360549135274
0.024
-0.05
1.026
0
-2010.2041375880408
0
0
0
0
0
5312.33910469283
0
-2011.2993730663507
0
0
0
0
0
5312.763787837481
0
-1987.6512274326358
0
0
0
0
0
5285.025272968444
0
-1987.2041925435296
0
0
0
0
0
5275.436374597118
0
-1978.934047095066
0
0
0
0
0
5289.987360237523
0
-1995.9213728810994
0
0
0
0
0
5309.47808140255
0
-2029.4713413085153
0
0
0
0
0
5313.188470982132
0
-1949.161523480597
0
0
0
0
0
5303.8007383109025
0
-1950.3685176811837
0
0
0
0
0
5310.126281991754
0
-1964.5171719213931
0
0
0
0
0
5351.67817493417
0.02
-0.046
1.036
0
-1988.9252768665883
0
0
0
0
0
5383.574114271893
0
-1991.5627827123146
0
0
0
0
0
5384.289370094463
0
-1949.943834536533
0
0
0
0
0
5374.365195556306
0
-1958.5716078962814
0
0
0
0
0
5376.712128724114
0
-1970.5744946687812
0
0
0
0
0
5401.835489491879
0
-1987.5618204548146
0
0
0
0
0
5431.69742008417
0
-1994.6026199582363
0
0
0
0
0
5437.978260276111
0
-1986.8912681211555
0
0
0
0
0
5416.364123387829
0
-1968.2052097565188
0
0
0
0
0
5401.276695880496
0
-1998.938858382566
0
0
0
0
0
5422.779074046502
0.022
-0.044
1.034
0
-1951.2178839704854
0
0
0
0
0
5449.511760415049
0
-1951.6872706040467
0
0
0
0
0
5449.243539481586
0
-1987.7629861549124
0
0
0
0
0
5436.905376542256
0
-1953.9671485384881
0
0
0
0
0
5431.9432892731775
0
-1933.6941163175245
0
0
0
0
0
5456.910187829756
0
-1970.8874190911556
0
0
0
0
0
5484.648702698792
0
-2012.7522364559456
0
0
0
0
0
5493.343531291906
0
-1953.9671485384881
0
0
0
0
0
5474.74687990509
0
-1951.6649188595916
0
0
0
0
0
5463.74982163308
0
-1951.9107880486
0
0
0
0
0
5479.664263685258
0.022
-0.038
1.034
0
-2010.5617654993257
0
0
0
0
0
5507.514537276571
0
-1963.9136748210997
0
0
0
0
0
5492.85179291389
0
-1919.3889998661282
0
0
0
0
0
5459.0559552974655
0
-1983.940837853055
0
0
0
0
0
5454.116219772843
0
-1947.9545292800105
0
0
0
0
0
5475.037452583009
0
-1913.8904707301226
0
0
0
0
0
5500.004351139588
0
-1929.3131744042844
0
0
0
0
0
5493.522345247548
0
-1945.2723199453737
0
0
0
0
0
5471.237656025607
0
-1926.362744136184
0
0
0
0
0
5451.344603460384
0
-1936.3539739077062
0
0
0
0
0
5464.822705366934
0.02
-0.04
1.04
0
-1941.6736890880693
0
0
0
0
0
5486.548600977493
0
-1923.3452586347175
0
0
0
0
0
5476.758536906068
0
-1922.8982237456114
0
0
0
0
0
5445.846074324379
0
-1888.8565169401786
0
0
0
0
0
5421.594431590371
0
-1910.7835782508348
0
0
0
0
0
5434.916071285734
0
-1933.0235639838654
0
0
0
0
0
5466.052051311976
0
-1988.9923320999542
0
0
0
0
0
5468.667205413247
0
-1841.0014320613661
0
0
0
0
0
5420.096864711865
0
-1848.9139495985448
0
0
0
0
0
5403.221297648108
0
-1865.3424817731957
0
0
0
0
0
5418.867518766823
0.018000000000000002
-0.044
1.034
0
-1877.971217390444
0
0
0
0
0
5440.504007399561
0
-1914.2480986414075
0
0
0
0
0
5447.611862136348
0
-1877.010092378866
0
0
0
0
0
5419.35925714484
0
-1844.4212489630281
0
0
0
0
0
5401.969599958611
0
-1866.7282899294246
0
0
0
0
0
5414.575983831404
0
-1836.0616965367433
0
0
0
0
0
5432.725600329113
0
-1809.8654520351236
0
0
0
0
0
5409.144509928765
0
-1852.043193822288
0
0
0
0
0
5388.469146307605
0
-1863.107307327665
0
0
0
0
0
5381.718919482103
0
-1837.6933738819807
0
0
0
0
0
5399.01916969051
0.02
-0.042
1.032
0
-1871.1762870760308
0
0
0
0
0
5416.520585599016
0
-1909.6659910280696
0
0
0
0
0
5407.535184327982
0
-1783.4456900889506
0
0
0
0
0
5358.830733159868
0
-1776.8295737301796
0
0
0
0
0
5350.068849333388
0
-1801.3717891421068
0
0
0
0
0
5367.749079197536
0
-1785.1891261564645
0
0
0
0
0
5391.531335297983
0
-1759.5740270106826
0
0
0
0
0
5385.183439872675
0
-1799.9412774969671
0
0
0
0
0
5346.783142898458
0
-1817.4650451499278
0
0
0
0
0
5313.680209360148
0
-1789.4359576029728
0
0
0
0
0
5327.448883944618
0.022
-0.042
1.032
0
-1747.2582158158084
0
0
0
0
0
5340.859930617801
0
-1745.7159454483922
0
0
0
0
0
5329.639354901237
0
-1715.2281660113533
0
0
0
0
0
5286.8357642693245
0
-1724.4147329824846
0
0
0
0
0
5267.61326403776
0
-1758.5681985101937
0
0
0
0
0
5289.942656748612
0
-1765.3407770801518
0
0
0
0
0
5317.189433239631
0
-1673.1621829464655
0
0
0
0
0
5283.28183690093
0
-1687.2214302088537
0
0
0
0
0
5254.872769698235
0
-1742.7655151802917
0
0
0
0
0
5250.067144640344
0
-1695.8715553130576
0
0
0
0
0
5255.520970287439
0.022
-0.046
1.036
0
-1702.4429681829176
0
0
0
0
0
5270.0496041833885
0
-1715.2952212447192
0
0
0
0
0
5262.360604090763
0
-1682.2369911953201
0
0
0
0
0
5214.12553955621
0
-1632.3926010599855
0
0
0
0
0
5183.235428718976
0
-1695.7374448463256
0
0
0
0
0
5198.300504481853
0
-1720.1679015359762
0
0
0
0
0
5222.574498960316
0
-1713.0376950547334
0
0
0
0
0
5237.639574723194
0
-1618.243946819776
0
0
0
0
0
5219.758179158947
0
-1616.7687316857257
0
0
0
0
0
5262.204141879576
0
-1693.0999390005993
0
0
0
0
0
5338.267128260985
0.024
-0.046
1.04
0
-1673.6762730689375
0
0
0
0
0
5382.143602626754
0
-1688.4284244094401
0
0
0
0
0
5376.198038601642
0
-1676.0008544922896
0
0
0
0
0
5333.081523547355
0
-1630.17977835891
0
0
0
0
0
5289.026235225944
0
-1619.562699742639
0
0
0
0
0
5302.973723766056
0
-1666.9260462434347
0
0
0
0
0
5334.19911077012
0
-1696.3185902021637
0
0
0
0
0
5317.837633828835
0
-1624.2342143337983
0
0
0
0
0
5276.844534497802
0
-1649.0893541680998
0
0
0
0
0
5279.884371743724
0
-1656.2866158827087
0
0
0
0
0
5292.28958991642
0.022
-0.04
1.036
0
-1556.1060972340224
0
0
0
0
0
5293.831860283835
0
-1566.0079200277235
0
0
0
0
0
5295.150613206699
0
-1634.6724789944267
0
0
0
0
0
5286.8357642693245
0
-1638.2040546183653
0
0
0
0
0
5273.514124573961
0
-1578.0331585446786
0
0
0
0
0
5279.996130466
0
-1581.2741614906981
0
0
0
0
0
5299.486851631028
0
-1565.1362019939666
0
0
0
0
0
5293.80950853938
0
-1509.3909513224307
0
0
0
0
0
5260.3042436008745
0
-1585.6103999150278
0
0
0
0
0
5255.431563309618
0
-1718.2232997683645
0
0
0
0
0
5289.80854628188
0.024
-0.042
1.034
0
-1538.604681325517
0
0
0
0
0
5308.2040319685975
0
-1470.8788956259366
0
0
0
0
0
5310.148633736209
0
-1492.3589220474867
0
0
0
0
0
5291.954313749589
0
-1502.797186708115
0
0
0
0
0
5274.475249585539
0
-1560.6435013584498
0
0
0
0
0
5301.0961772318105
0
-1604.5870309575835
0
0
0
0
0
5339.988212584044
0
-1534.8719400014807
0
0
0
0
0
5328.253546745008
0
-1523.8972334739249
0
0
0
0
0
5308.494604646517
0
-1595.959257597835
0
0
0
0
0
5302.705502832592
0
-1523.2937363736316
0
0
0
0
0
5294.591819595315
0.02
-0.038
1.038
0
-1344.032745842069
0
0
0
0
0
5303.756034821991
0
-1408.6963425512722
0
0
0
0
0
5315.222479727564
0
-1579.7095393788265
0
0
0
0
0
5303.130185977243
0
-1637.1982261178764
0
0
0
0
0
5304.158366222187
0
-1484.2005353212996
0
0
0
0
0
5305.320656933864
0
-1472.6670351823611
0
0
0
0
0
5327.5159391779835
0
-1495.8681459269699
0
0
0
0
0
5331.025163057467
0
-1391.0831679204903
0
0
0
0
0
5288.825069525847
0
-1365.0433856300576
0
0
0
0
0
5263.902874458179
0
-1479.8419451525147
0
0
0
0
0
5299.889183031223
0.024
-0.042
1.044
0
-1393.9218394663144
0
0
0
0
0
5324.587860654337
0
-1391.5078510651413
0
0
0
0
0
5324.476101932061
0
-1502.9760006637575
0
0
0
0
0
5311.310924447886
0
-1420.6992293237722
0
0
0
0
0
5278.8561914987795
0
-1454.9197500848472
0
0
0
0
0
5297.609305096782
0
-1632.1020283820665
0
0
0
0
0
5365.402146029728
0
-1324.877300843871
0
0
0
0
0
5356.953186625622
0
-1285.9182102582706
0
0
0
0
0
5317.10002626181
0
-1437.5524446430738
0
0
0
0
0
5307.846404057313
0
-1417.8158542890376
0
0
0
0
0
5332.366267724785
0.022
-0.046
1.042
0
-1348.257225544122
0
0
0
0
0
5359.34482328234
0
-1358.2484553156444
0
0
0
0
0
5360.216541316097
0
-1340.4341149847646
0
0
0
0
0
5318.105854762299
0
-1434.3337934415094
0
0
0
0
0
5306.393540667718
0
-1459.6359681649171
0
0
0
0
0
5334.824959614869
0
-1306.3924081793318
0
0
0
0
0
5345.956128353611
0
-1328.7665043790942
0
0
0
0
0
5339.1388462947425
0
-1430.9139765398475
0
0
0
0
0
5326.19718625512
0
-1429.3717061724315
0
0
0
0
0
5326.018372299478
0
-1268.2156286496675
0
0
0
0
0
5335.830788115357
0.024
-0.044
1.046
0
-1287.9298672592483
0
0
0
0
0
5373.091146122354
0
-1414.9995344876688
0
0
0
0
0
5380.467221792605
0
-1334.8908823598483
0
0
0
0
0
5338.356535238807
0
-1242.4217155482431
0
0
0
0
0
5311.221517470064
0
-1316.9200798177815
0
0
0
0
0
5336.166064282187
0
-1350.0230133560913
0
0
0
0
0
5372.2417798330525
0
-1417.8829095224035
0
0
0
0
0
5382.009492160022
0
-1316.875376328871
0
0
0
0
0
5334.9143665926895
0
-1372.1959438557558
0
0
0
0
0
5322.687962375637
0
-1298.2340214531448
0
0
0
0
0
5335.741381137536
0.024
-0.044
1.042
0
-1232.3857822878101
0
0
0
0
0
5363.211675073108
0
-1323.5361961765525
0
0
0
0
0
5378.522620024994
0
-1307.4429401687314
0
0
0
0
0
5347.744267910036
0
-1322.776236865072
0
0
0
0
0
5322.442093186628
0
-1312.5838413934518
0
0
0
0
0
5333.930889836656
0
-1279.7938322775165
0
0
0
0
0
5374.92398916769
0
-1309.4098936807984
0
0
0
0
0
5381.964788671111
0
-1331.5604724360076
0
0
0
0
0
5349.510055722005
0
-1292.802547550505
0
0
0
0
0
5321.302154219407
0
-1271.9483699737036
0
0
0
0
0
5335.316697992886
0.014
-0.044
1.036
0
-1315.9813065506587
0
0
0
0
0
5375.572189756893
0
-1272.2165909071673
0
0
0
0
0
5384.378777072284
0
-1307.3982366798207
0
0
0
0
0
5359.456582004617
0
-1275.5693525754634
0
0
0
0
0
5327.113607777787
0
-1221.9475176271817
0
0
0
0
0
5333.550910180916
0
-1297.8987452863153
0
0
0
0
0
5375.929817668178
0
-1258.6714337672513
0
0
0
0
0
5381.763622971013
0
-1280.2855706555333
0
0
0
0
0
5354.315680779896
0
-1241.3711835588435
0
0
0
0
0
5321.9950582975225
0
-1317.255355984611
0
0
0
0
0
5344.324451008374
0.018000000000000002
-0.046
1.038
0
-1346.4020307543315
0
0
0
0
0
5372.465297277606
0
-1203.5743836849194
0
0
0
0
0
5372.979387400078
0
-1178.0263397725034
0
0
0
0
0
5345.039706830944
0
-1258.5596750449747
0
0
0
0
0
5328.4547124451055
0
-1308.1134925023905
0
0
0
0
0
5345.620852186782
0
-1260.3701663458546
0
0
0
0
0
5369.492515265049
0
-1225.8590729068605
0
0
0
0
0
5377.628550246782
0
-1275.5917043199188
0
0
0
0
0
5358.115477337298
0
-1219.4217705037322
0
0
0
0
0
5325.772503110469
0
-1227.9601368856595
0
0
0
0
0
5344.257395775008
0.018000000000000002
-0.052000000000000005
1.038
0
-1313.4332076827536
0
0
0
0
0
5382.814154960412
0
-1212.7833024005058
0
0
0
0
0
5373.337015311363
0
-1247.652023750785
0
0
0
0
0
5352.304023778918
0
-1279.1232799438574
0
0
0
0
0
5329.304078734408
0
-1221.299317037978
0
0
0
0
0
5338.088314305343
0
-1225.09911359538
0
0
0
0
0
5370.408936787718
0
-1249.842494707405
0
0
0
0
0
5384.848163705846
0
-1208.2458982760786
0
0
0
0
0
5352.39343075674
0
-1243.2263783486342
0
0
0
0
0
5322.777369353458
0
-1293.741320817628
0
0
0
0
0
5340.323488750874
0.02
-0.052000000000000005
1.042
0
-1250.1777708742347
0
0
0
0
0
5364.105744851321
0
-1291.2826289275442
0
0
0
0
0
5383.015320660511
0
-1213.4985582230756
0
0
0
0
0
5352.952224368122
0
-1168.169220467713
0
0
0
0
0
5317.7705785954695
0
-1167.073984989403
0
0
0
0
0
5327.5159391779835
0
-1217.521872225031
0
0
0
0
0
5368.754907698025
0
-1309.1640244917899
0
0
0
0
0
5386.457489306627
0
-1261.845381479905
0
0
0
0
0
5359.2107128156085
0
-1166.5822466113862
0
0
0
0
0
5326.398351955218
0
-1190.4762614341096
0
0
0
0
0
5341.798703884924
0.018000000000000002
-0.046
1.042
0
-1205.004895330059
0
0
0
0
0
5373.046442633444
0
-1266.941579215715
0
0
0
0
0
5386.926875940189
0
-1312.4720826711755
0
0
0
0
0
5371.593579243849
0
-1171.1196507358136
0
0
0
0
0
5335.115532292787
0
-1178.7639473395286
0
0
0
0
0
5341.686945162648
0
-1212.6938954226846
0
0
0
0
0
5374.387547300762
0
-1207.2177180311344
0
0
0
0
0
5384.714053239114
0
-1187.6822933771962
0
0
0
0
0
5357.064945347899
0
-1196.4665289481318
0
0
0
0
0
5335.607270670805
0
-1230.8211601759388
0
0
0
0
0
5351.477009234072
0.02
-0.04
1.042
0
-1253.1729046312457
0
0
0
0
0
5380.44487004815
0
-1212.1127500668467
0
0
0
0
0
5389.2067538746305
0
-1183.3237032084112
0
0
0
0
0
5362.988157628555
0
-1184.0836625198917
0
0
0
0
0
5330.9804595685555
0
-1239.717154469151
0
0
0
0
0
5346.023183586977
0
-1265.6228262928519
0
0
0
0
0
5387.172745129197
0
-1223.914471139249
0
0
0
0
0
5395.577001044393
0
-1189.3810259557995
0
0
0
0
0
5367.771430941991
0
-1157.5744935958974
0
0
0
0
0
5339.496474206027
0
-1203.23910751809
0
0
0
0
0
5351.968747612089
0.02
-0.042
1.044
0
-1221.2546135490672
0
0
0
0
0
5387.552724784938
0
-1261.4430500797093
0
0
0
0
0
5413.011361719533
0
-1173.1536594812465
0
0
0
0
0
5374.387547300762
0
-1140.5424643209535
0
0
0
0
0
5342.1339800517535
0
-1227.714267696651
0
0
0
0
0
5362.786991928458
0
-1194.3878167137882
0
0
0
0
0
5387.955056185134
0
-1173.9806740260929
0
0
0
0
0
5394.392358588262
0
-1204.1778807852127
0
0
0
0
0
5380.646035748248
0
-1220.1593780707572
0
0
0
0
0
5357.44492500364
0
-1167.0069297560372
0
0
0
0
0
5356.327337780874
0.02
-0.042
1.04
0
-1206.5918691863858
0
0
0
0
0
5393.274771365496
0
-1218.3488867698775
0
0
0
0
0
5407.535184327982
0
-1203.8873081072936
0
0
0
0
0
5385.2728468504965
0
-1192.5996771573637
0
0
0
0
0
5355.634433702759
0
-1209.9222791102266
0
0
0
0
0
5364.664538462704
0
-1217.9018518807711
0
0
0
0
0
5402.282524380985
0
-1149.527865591987
0
0
0
0
0
5411.0444082074655
0
-1174.0253775150034
0
0
0
0
0
5394.9064487107335
0
-1218.0806658364138
0
0
0
0
0
5377.49443978005
0
-1187.9281625662045
0
0
0
0
0
5381.6965677376475
0.02
-0.042
1.04
0
-1173.6677496037184
0
0
0
0
0
5415.514757098527
0
-1186.363540454333
0
0
0
0
0
5430.378667161306
0
-1192.8008428574615
0
0
0
0
0
5411.938477985678
0
-1186.296485220967
0
0
0
0
0
5377.248570591041
0
-1203.5073284515536
0
0
0
0
0
5390.234934119575
0
-1181.2226392296122
0
0
0
0
0
5414.821853020412
0
-1150.4219353701992
0
0
0
0
0
5417.951097244156
0
-1249.328404584933
0
0
0
0
0
5412.676085552703
0
-1225.4120380177544
0
0
0
0
0
5389.87730620829
0
-1118.2801268434675
0
0
0
0
0
5378.500268280539
0.026000000000000002
-0.038
1.04
0
-1154.5123046055205
0
0
0
0
0
5415.894736754267
0
-1189.0904532778804
0
0
0
0
0
5434.893719541278
0
-1173.3101216924335
0
0
0
0
0
5409.9268209847005
0
-1150.488990603565
0
0
0
0
0
5377.87441943579
0
-1178.2498572170566
0
0
0
0
0
5387.508021296027
0
-1231.8269886764276
0
0
0
0
0
5423.270812424518
0
-1211.2186802886345
0
0
0
0
0
5431.7644753175355
0
-1153.9982144830483
0
0
0
0
0
5412.631382063792
0
-1173.0195490145147
0
0
0
0
0
5385.831640461879
0
-1158.9379500076711
0
0
0
0
0
5384.892867194756
0.024
-0.04
1.044
0
-1187.2576102325452
0
0
0
0
0
5419.985105989588
0
-1199.3722557273218
0
0
0
0
0
5429.082265982898
0
-1214.303221023467
0
0
0
0
0
5410.485614596083
0
-1165.1740867107019
0
0
0
0
0
5387.35155908484
0
-1147.8067812689283
0
0
0
0
0
5387.932704440678
0
-1185.9165055652268
0
0
0
0
0
5413.525451842004
0
-1198.813462115939
0
0
0
0
0
5437.128893986809
0
-1164.9952727550594
0
0
0
0
0
5415.425350120706
0
-1185.849450331861
0
0
0
0
0
5389.54203004146
0
-1172.617217614319
0
0
0
0
0
5390.078471908388
0.022
-0.048
1.034
0
-1141.8388654993612
0
0
0
0
0
5414.710094298136
0
-1210.7045901661625
0
0
0
0
0
5434.692553841181
0
-1176.0593862604364
0
0
0
0
0
5415.581812331893
0
-1121.655240256219
0
0
0
0
0
5381.942436926656
0
-1159.7426128080622
0
0
0
0
0
5387.686835251669
0
-1183.6589793752407
0
0
0
0
0
5421.16974844572
0
-1176.685235105185
0
0
0
0
0
5434.133760229798
0
-1224.4509130061763
0
0
0
0
0
5423.181405446698
0
-1172.103127491847
0
0
0
0
0
5385.094032894854
0
-1126.1255891472804
0
0
0
0
0
5382.9259136826895
0.02
-0.044
1.034
0
-1154.84758077235
0
0
0
0
0
5415.335943142884
0
-1153.0594412159255
0
0
0
0
0
5433.016173007032
0
-1206.5918691863858
0
0
0
0
0
5420.543899600971
0
-1207.910622109249
0
0
0
0
0
5397.745120256558
0
-1159.4520401301434
0
0
0
0
0
5391.531335297983
0
-1158.0215284850035
0
0
0
0
0
5415.626515820803
0
-1162.2460081870565
0
0
0
0
0
5440.973394033122
0
-1182.429633430199
0
0
0
0
0
5419.783940289491
0
-1176.685235105185
0
0
0
0
0
5388.133870140776
0
-1157.686252318174
0
0
0
0
0
5392.78303298748
0.02
-0.044
1.036
0
-1154.3558423943332
0
0
0
0
0
5412.385512874784
0
-1144.789295767462
0
0
0
0
0
5423.8966612692675
0
-1144.3422608783558
0
0
0
0
0
5415.0900739538765
0
-1168.2809791899895
0
0
0
0
0
5389.989064930566
0
-1168.5715518679085
0
0
0
0
0
5390.1455271417535
0
-1147.1362289352692
0
0
0
0
0
5411.3349808853845
0
-1160.815496541917
0
0
0
0
0
5430.713943328135
0
-1198.2099650156458
0
0
0
0
0
5422.376742646306
0
-1203.8426046183831
0
0
0
0
0
5397.968637701111
0
-1129.143074648747
0
0
0
0
0
5385.518716039505
0.018000000000000002
-0.044
1.046
0
-1132.428781083677
0
0
0
0
0
5412.765492530524
0
-1198.366427226833
0
0
0
0
0
5443.074458011921
0
-1203.395569729277
0
0
0
0
0
5428.903452027256
0
-1191.5491451679643
0
0
0
0
0
5396.225201633597
0
-1147.4491533576434
0
0
0
0
0
5389.0279399189885
0
-1109.1606151057024
0
0
0
0
0
5411.782015774491
0
-1158.200342440646
0
0
0
0
0
5436.614803864337
0
-1170.8067263134392
0
0
0
0
0
5417.280544910496
0
-1196.421825459221
0
0
0
0
0
5398.63919003477
0
-1167.364557667322
0
0
0
0
0
5400.874364480301
0.022
-0.046
1.042
0
-1176.1487932382577
0
0
0
0
0
5431.183329961697
0
-1156.5910168398639
0
0
0
0
0
5436.234824208596
0
-1113.876833185772
0
0
0
0
0
5408.406902361739
0
-1158.5356186074757
0
0
0
0
0
5395.934628955678
0
-1168.683310590185
0
0
0
0
0
5395.644056277759
0
-1140.6318712987747
0
0
0
0
0
5419.515719356027
0
-1165.2858454329785
0
0
0
0
0
5437.017135264532
0
-1145.169275423202
0
0
0
0
0
5419.873347267312
0
-1188.4646044331319
0
0
0
0
0
5397.231030134086
0
-1162.7824500539841
0
0
0
0
0
5392.514812054016
0.018000000000000002
-0.044
1.042
0
-1125.075057157881
0
0
0
0
0
5412.810196019434
0
-1140.1401329207579
0
0
0
0
0
5435.452513152661
0
-1169.3762146682996
0
0
0
0
0
5435.854844552857
0
-1181.3567496963442
0
0
0
0
0
5405.16589941572
0
-1161.6648628312187
0
0
0
0
0
5394.660579521726
0
-1126.1479408917357
0
0
0
0
0
5420.566251345426
0
-1154.8922842612606
0
0
0
0
0
5444.3261557014175
0
-1170.5161536355204
0
0
0
0
0
5431.451550895161
0
-1161.5978075978528
0
0
0
0
0
5401.16493715822
0
-1175.366482182322
0
0
0
0
0
5400.472033080106
0.022
-0.044
1.042
0
-1159.9214267637046
0
0
0
0
0
5430.691591583681
0
-1163.207133198635
0
0
0
0
0
5442.180388233708
0
-1157.5074383625315
0
0
0
0
0
5428.7693415605245
0
-1136.0274119409814
0
0
0
0
0
5400.717902269113
0
-1150.2654731590121
0
0
0
0
0
5404.316533126418
0
-1182.9213718082158
0
0
0
0
0
5430.110446227843
0
-1160.9272552641935
0
0
0
0
0
5443.476789412116
0
-1118.8612721993056
0
0
0
0
0
5423.539033357983
0
-1159.2285226855902
0
0
0
0
0
5400.382626102284
0
-1163.6988715766515
0
0
0
0
0
5399.622666790804
0.024
-0.044
1.04
0
-1132.27231887249
0
0
0
0
0
5422.220280435119
0
-1172.5278106364979
0
0
0
0
0
5448.2600627255515
0
-1171.0749472469029
0
0
0
0
0
5439.520530643526
0
-1127.7796182369732
0
0
0
0
0
5405.344713371363
0
-1141.011850954515
0
0
0
0
0
5396.359312100329
0
-1139.3801736092776
0
0
0
0
0
5422.9578880021445
0
-1126.9749554365821
0
0
0
0
0
5441.778056833513
0
-1182.4519851746543
0
0
0
0
0
5439.252309710063
0
-1183.5025171640536
0
0
0
0
0
5415.023018720511
0
-1102.6339057247528
0
0
0
0
0
5392.82773647639
0.014
-0.042
1.042
0
-1110.8146441953952
0
0
0
0
0
5417.705228055147
0
-1158.7367843075735
0
0
0
0
0
5444.393210934783
0
-1218.4382937476987
0
0
0
0
0
5444.750838846068
0
-1150.0866592033697
0
0
0
0
0
5410.373855873806
0
-1094.3190567873785
0
0
0
0
0
5392.78303298748
0
-1142.1517899217356
0
0
0
0
0
5424.813082791935
0
-1157.1274587067912
0
0
0
0
0
5452.50689417206
0
-1157.2392174290678
0
0
0
0
0
5439.386420176795
0
-1172.6395693587745
0
0
0
0
0
5411.558498329938
0
-1135.17804565168
0
0
0
0
0
5402.394283103262
0.018000000000000002
-0.042
1.04
0
-1145.236330656568
0
0
0
0
0
5429.506949127549
0
-1124.0021734240263
0
0
0
0
0
5444.639080123792
0
-1135.0215834404926
0
0
0
0
0
5436.592452119881
0
-1177.8251740724056
0
0
0
0
0
5412.743140786069
0
-1154.1099732053249
0
0
0
0
0
5399.577963301893
0
-1164.1235547213025
0
0
0
0
0
5428.41171364924
0
-1184.396586942266
0
0
0
0
0
5451.389306949295
0
-1095.1013678433142
0
0
0
0
0
5432.9938212625775
0
-1104.8243766813728
0
0
0
0
0
5409.54684132896
0
-1164.5705896104087
0
0
0
0
0
5407.713998283625
0.018000000000000002
-0.044
1.04
0
-1130.8418072273503
0
0
0
0
0
5422.935536257689
0
-1149.2596446585233
0
0
0
0
0
5445.779019091013
0
-1188.6657701332297
0
0
0
0
0
5447.053068524965
0
-1130.0818479158697
0
0
0
0
0
5407.1105011833315
0
-1143.6717085446965
0
0
0
0
0
5399.8908877242675
0
-1158.2226941851013
0
0
0
0
0
5424.164882202731
0
-1165.4423076441656
0
0
0
0
0
5446.427219680217
0
-1118.9283274326715
0
0
0
0
0
5433.9325945297
0
-1132.585243294864
0
0
0
0
0
5410.932649485189
0
-1146.622138812797
0
0
0
0
0
5402.26017263653
0.018000000000000002
-0.044
1.038
0
-1141.7718102659953
0
0
0
0
0
5423.986068247088
0
-1165.5540663664422
0
0
0
0
0
5449.779981348513
0
-1103.0585888694036
0
0
0
0
0
5437.039487008988
0
-1105.785501692951
0
0
0
0
0
5405.612934304826
0
-1144.2752056449897
0
0
0
0
0
5404.696512782159
0
-1170.717319335618
0
0
0
0
0
5433.910242785245
0
-1175.5676478824196
0
0
0
0
0
5444.572024890426
0
-1161.3742901532996
0
0
0
0
0
5434.781960819002
0
-1124.2256908685792
0
0
0
0
0
5402.930724970189
0
-1118.525996032476
0
0
0
0
0
5395.0182074330105
0.018000000000000002
-0.04
1.042
0
-1119.5765280218754
0
0
0
0
0
5420.923879256711
0
-1149.7737347809953
0
0
0
0
0
5445.197873735175
0
-1167.722185578607
0
0
0
0
0
5442.895644056278
0
-1193.4713951911206
0
0
0
0
0
5411.290277396474
0
-1108.8700424277833
0
0
0
0
0
5393.341826598862
0
-1085.1101380717919
0
0
0
0
0
5414.240707664574
0
-1127.4443420701436
0
0
0
0
0
5445.756667346557
0
-1163.6765198321964
0
0
0
0
0
5445.510798157549
0
-1134.239272384557
0
0
0
0
0
5411.200870418653
0
-1141.9282724771824
0
0
0
0
0
5400.695550524659
0.008
-0.048
1.042
0
-1166.6716535892074
0
0
0
0
0
5426.4224083927165
0
-1172.0360722584812
0
0
0
0
0
5448.572987147926
0
-1143.3140806334115
0
0
0
0
0
5442.515664400538
0
-1156.7251273065958
0
0
0
0
0
5415.2688879095185
0
-1069.8438966088172
0
0
0
0
0
5391.039596919965
0
-1097.403597522211
0
0
0
0
0
5418.64400132227
0
-1145.817476012406
0
0
0
0
0
5450.338774959895
0
-1165.6881768331739
0
0
0
0
0
5445.510798157549
0
-1143.3140806334115
0
0
0
0
0
5412.989009975077
0
-1142.4870660885651
0
0
0
0
0
5401.813137747424
0.016
-0.046
1.04
0
-1116.1790628646688
0
0
0
0
0
5422.041466479477
0
-1147.784429524473
0
0
0
0
0
5452.0151557940435
0
-1144.9681097231044
0
0
0
0
0
5437.687687598192
0
-1144.3869643672663
0
0
0
0
0
5413.346637886362
0
-1110.45701628411
0
0
0
0
0
5398.3039138679405
0
-1161.4860488755762
0
0
0
0
0
5423.829606035902
0
-1138.46375208661
0
0
0
0
0
5444.9743562906215
0
-1134.0157549400037
0
0
0
0
0
5443.566196389937
0
-1135.5133218185094
0
0
0
0
0
5419.493367611572
0
-1119.4871210440542
0
0
0
0
0
5402.818966247913
0.014
-0.042
1.038
0
-1134.3733828512886
0
0
0
0
0
5427.763513060036
0
-1134.820417740395
0
0
0
0
0
5451.299899971474
0
-1132.3393741058558
0
0
0
0
0
5440.056972510454
0
-1142.1070864328249
0
0
0
0
0
5414.128948942298
0
-1141.682403288174
0
0
0
0
0
5411.267925652019
0
-1165.2411419440677
0
0
0
0
0
5429.082265982898
0
-1118.4142373101995
0
0
0
0
0
5440.749876588568
0
-1130.2383101270568
0
0
0
0
0
5441.286318455496
0
-1141.5482928214424
0
0
0
0
0
5420.946231001167
0
-1163.654168087741
0
0
0
0
0
5406.037617449477
0.024
-0.042
1.044
0
-1162.5142291205204
0
0
0
0
0
5425.997725248066
0
-1075.9235711006609
0
0
0
0
0
5447.678917369713
0
-1112.5357285184537
0
0
0
0
0
5444.460266168149
0
-1175.0535577599476
0
0
0
0
0
5427.897623526767
0
-1168.750365823551
0
0
0
0
0
5415.648867565259
0
-1105.5172807594872
0
0
0
0
0
5423.516681613527
0
-1102.9021266582165
0
0
0
0
0
5447.3212894584285
0
-1120.7611704780068
0
0
0
0
0
5446.091943513387
0
-1105.561984248398
0
0
0
0
0
5411.916126241223
0
-1139.2460631425456
0
0
0
0
0
5400.941419713667
0.022
-0.046
1.042
0
-1149.3490516363445
0
0
0
0
0
5430.423370650216
0
-1169.3538629238442
0
0
0
0
0
5459.726507631124
0
-1149.1031824473362
0
0
0
0
0
5449.9364435597
0
-1094.0955393428253
0
0
0
0
0
5416.431178621195
0
-1125.6562025137189
0
0
0
0
0
5401.991951703067
0
-1110.009981395004
0
0
0
0
0
5422.399094390762
0
-1130.8641589718056
0
0
0
0
0
5453.915054072744
0
-1168.4374414011768
0
0
0
0
0
5456.530208174016
0
-1139.3131183759117
0
0
0
0
0
5423.963716502633
0
-1094.8107951653953
0
0
0
0
0
5401.1202336693095
0.024
-0.042
1.04
0
-1134.5521968069313
0
0
0
0
0
5427.249422937563
0
-1177.2216769721124
0
0
0
0
0
5455.814952351446
0
-1146.5997870683418
0
0
0
0
0
5450.4281819377165
0
-1113.6086122523084
0
0
0
0
0
5414.575983831404
0
-1113.5415570189425
0
0
0
0
0
5400.472033080106
0
-1129.2324816265682
0
0
0
0
0
5424.45545488065
0
-1116.559042520409
0
0
0
0
0
5450.808161593457
0
-1137.2120543971128
0
0
0
0
0
5448.528283659016
0
-1165.2858454329785
0
0
0
0
0
5430.8257020504125
0
-1115.2179378530907
0
0
0
0
0
5404.093015681865
0.026000000000000002
-0.038
1.036
0
-1091.3462747748226
0
0
0
0
0
5419.806292033946
0
-1138.8884352312607
0
0
0
0
0
5454.786772106501
0
-1160.3684616528108
0
0
0
0
0
5452.3057284719625
0
-1126.3491065918336
0
0
0
0
0
5427.69645782667
0
-1127.5113973035095
0
0
0
0
0
5411.3349808853845
0
-1128.5842810373642
0
0
0
0
0
5425.461283381139
0
-1094.1625945761914
0
0
0
0
0
5446.158998746753
0
-1149.460810358621
0
0
0
0
0
5452.663356383247
0
-1178.428671172699
0
0
0
0
0
5427.584699104393
0
-1095.1684230766803
0
0
0
0
0
5401.254344136041
0.026000000000000002
-0.048
1.036
0
-1116.8719669427833
0
0
0
0
0
5431.160978217242
0
-1129.9030339602273
0
0
0
0
0
5459.2347692531075
0
-1148.2538161580344
0
0
0
0
0
5452.059859282954
0
-1142.2635486440122
0
0
0
0
0
5427.1823677041975
0
-1075.945922845116
0
0
0
0
0
5407.378722116795
0
-1104.3102865589008
0
0
0
0
0
5424.611917091837
0
-1189.9174678227268
0
0
0
0
0
5460.665280898247
0
-1164.011795999026
0
0
0
0
0
5447.634213880803
0
-1079.432794980144
0
0
0
0
0
5415.35829488734
0
-1111.6416587402414
0
0
0
0
0
5406.194079660664
0.02
-0.05
1.042
0
-1162.8942087762605
0
0
0
0
0
5436.614803864337
0
-1142.330603877378
0
0
0
0
0
5454.920882573233
0
-1081.109175814292
0
0
0
0
0
5445.846074324379
0
-1118.1907198656463
0
0
0
0
0
5422.823777535413
0
-1141.9953277105485
0
0
0
0
0
5410.127986684798
0
-1110.9040511732164
0
0
0
0
0
5423.091998468876
0
-1137.0555921859257
0
0
0
0
0
5451.836341838401
0
-1130.3500688493334
0
0
0
0
0
5453.870350583834
0
-1144.7222405340958
0
0
0
0
0
5433.105579984854
0
-1130.4394758271546
0
0
0
0
0
5411.871422752312
0.018000000000000002
-0.044
1.042
0
-1111.3734378067777
0
0
0
0
0
5422.510853113038
0
-1139.5366358204647
0
0
0
0
0
5452.55159766097
0
-1110.6581819842079
0
0
0
0
0
5447.7906760919905
0
-1128.4501705706323
0
0
0
0
0
5424.947193258667
0
-1140.5648160654089
0
0
0
0
0
5410.038579706977
0
-1158.13328720728
0
0
0
0
0
5433.396152662773
0
-1115.7767314644732
0
0
0
0
0
5448.371821447829
0
-1082.3608735037892
0
0
0
0
0
5444.236748723597
0
-1119.9565076776157
0
0
0
0
0
5423.986068247088
0
-1140.0954294318474
0
0
0
0
0
5412.206698919142
0.024
-0.042
1.042
0
-1129.0760194153809
0
0
0
0
0
5428.2999549269625
0
-1157.686252318174
0
0
0
0
0
5453.624481394825
0
-1111.5969552513309
0
0
0
0
0
5452.037507538499
0
-1074.8730391112613
0
0
0
0
0
5422.9578880021445
0
-1121.4764263005766
0
0
0
0
0
5410.910297740734
0
-1142.040031199459
0
0
0
0
0
5430.512777628038
0
-1148.589092324864
0
0
0
0
0
5454.116219772843
0
-1110.8593476843057
0
0
0
0
0
5448.572987147926
0
-1112.5133767739985
0
0
0
0
0
5428.434065393694
0
-1112.1110453738029
0
0
0
0
0
5405.948210471655
0.022
-0.044
1.036
0
-1154.5793598388864
0
0
0
0
0
5427.316478170929
0
-1128.4054670817218
0
0
0
0
0
5449.6682226262365
0
-1116.134359375758
0
0
0
0
0
5451.165789504742
0
-1116.26846984249
0
0
0
0
0
5425.774207803513
0
-1108.4453592831326
0
0
0
0
0
5404.897678482256
0
-1134.7757142514843
0
0
0
0
0
5423.74019905808
0
-1138.1955311531462
0
0
0
0
0
5452.0151557940435
0
-1122.817530967895
0
0
0
0
0
5452.328080216418
0
-1164.168258210213
0
0
0
0
0
5434.133760229798
0
-1122.5493100344313
0
0
0
0
0
5411.133815185287
0.024
-0.046
1.042
0
-1083.7913851489288
0
0
0
0
0
5419.2027949336525
0
-1113.8321296968616
0
0
0
0
0
5449.422353437228
0
-1132.719353761596
0
0
0
0
0
5454.630309895314
0
-1133.3899060952551
0
0
0
0
0
5429.17167296072
0
-1107.7301034605628
0
0
0
0
0
5405.255306393541
0
-1140.363650365311
0
0
0
0
0
5427.048257237466
0
-1147.9408917356602
0
0
0
0
0
5454.69736512868
0
-1106.2772400709678
0
0
0
0
0
5449.444705181683
0
-1118.8612721993056
0
0
0
0
0
5431.049219494966
0
-1130.46182757161
0
0
0
0
0
5409.435082606684
0.024
-0.044
1.046
0
-1145.1245719342915
0
0
0
0
0
5427.539995615482
0
-1146.7786010239843
0
0
0
0
0
5452.4845424276045
0
-1084.8642688827836
0
0
0
0
0
5448.371821447829
0
-1081.623265936764
0
0
0
0
0
5423.986068247088
0
-1118.6377547547527
0
0
0
0
0
5410.709132040636
0
-1137.949661964138
0
0
0
0
0
5426.712981070636
0
-1117.1848913651577
0
0
0
0
0
5450.204664493163
0
-1150.041955714459
0
0
0
0
0
5456.619615151837
0
-1104.7796731924623
0
0
0
0
0
5430.937460772689
0
-1088.7311206735517
0
0
0
0
0
5405.724693027102
0.024
-0.042
1.044
0
-1133.6804787731742
0
0
0
0
0
5421.057989723443
0
-1125.4997403025318
0
0
0
0
0
5450.338774959895
0
-1124.784484479962
0
0
0
0
0
5460.397059964784
0
-1169.8232495574057
0
0
0
0
0
5445.399039435272
0
-1098.1188533447807
0
0
0
0
0
5403.266001137019
0
-1073.1966582771133
0
0
0
0
0
5415.246536165063
0
-1118.9506791771269
0
0
0
0
0
5452.55159766097
0
-1143.4481911001435
0
0
0
0
0
5456.351394218373
0
-1144.4763713450875
0
0
0
0
0
5433.574966618415
0
-1148.4773336025876
0
0
0
0
0
5416.587640832382
0.018000000000000002
-0.042
1.044
0
-1127.1314176477692
0
0
0
0
0
5421.281507167996
0
-1107.8418621828393
0
0
0
0
0
5452.395135449784
0
-1177.4451944166653
0
0
0
0
0
5462.632234410315
0
-1111.1499203622247
0
0
0
0
0
5427.629402593303
0
-1075.5435914449206
0
0
0
0
0
5409.412730862228
0
-1132.0040979390262
0
0
0
0
0
5430.780998561501
0
-1107.2607168270013
0
0
0
0
0
5455.345565717884
0
-1106.5454610044314
0
0
0
0
0
5455.367917462339
0
-1143.9399294781601
0
0
0
0
0
5439.207606221153
0
-1104.3326383033561
0
0
0
0
0
5410.507966340539
0.022
-0.038
1.04
0
-1105.8078534374063
0
0
0
0
0
5418.018152477522
0
-1141.1459614212467
0
0
0
0
0
5452.171618005231
0
-1124.3598013353112
0
0
0
0
0
5459.391231464295
0
-1092.2850480419456
0
0
0
0
0
5430.0657427389315
0
-1111.5746035068755
0
0
0
0
0
5411.893774496767
0
-1160.882551775283
0
0
0
0
0
5426.9812020041
0
-1157.7309558070847
0
0
0
0
0
5456.530208174016
0
-1122.7728274789845
0
0
0
0
0
5458.31834773044
0
-1121.7893507229508
0
0
0
0
0
5435.6983823416695
0
-1077.9352281016384
0
0
0
0
0
5415.425350120706
0.024
-0.044
1.04
0
-1092.173289319669
0
0
0
0
0
5421.147396701264
0
-1113.429798296666
0
0
0
0
0
5446.382516191306
0
-1128.7407432485513
0
0
0
0
0
5456.261987240552
0
-1140.587167809864
0
0
0
0
0
5435.296050941473
0
-1136.1838741521685
0
0
0
0
0
5411.782015774491
0
-1116.6708012426855
0
0
0
0
0
5417.414655377228
0
-1140.4754090875876
0
0
0
0
0
5450.942272060189
0
-1155.9651679951153
0
0
0
0
0
5458.698327386181
0
-1093.1344143312472
0
0
0
0
0
5426.8917950262785
0
-1113.8991849302274
0
0
0
0
0
5410.463262851627
0.026000000000000002
-0.04
1.04
0
-1165.844639044361
0
0
0
0
0
5426.735332815091
0
-1142.1070864328249
0
0
0
0
0
5452.976280805621
0
-1107.2607168270013
0
0
0
0
0
5466.655548412269
0
-1113.429798296666
0
0
0
0
0
5436.056010252954
0
-1074.9847978335379
0
0
0
0
0
5406.283486638486
0
-1105.6513912262192
0
0
0
0
0
5418.7334083000915
0
-1154.3781941387886
0
0
0
0
0
5452.104562771865
0
-1197.874688848816
0
0
0
0
0
5462.743993132591
0
-1098.431777767155
0
0
0
0
0
5431.1162747283315
0
-1083.5008124710098
0
0
0
0
0
5412.564326830427
0.028
-0.044
1.038
0
-1164.7941070549616
0
0
0
0
0
5432.189158462186
0
-1141.6376997992636
0
0
0
0
0
5453.579777905915
0
-1096.59893472182
0
0
0
0
0
5459.927673331222
0
-1108.9370976611492
0
0
0
0
0
5434.2902224409845
0
-1075.3200740003674
0
0
0
0
0
5402.30487612544
0
-1093.69320794263
0
0
0
0
0
5419.940402500678
0
-1130.1489031492356
0
0
0
0
0
5453.1327430168085
0
-1137.457923586121
0
0
0
0
0
5460.553522175971
0
-1122.7728274789845
0
0
0
0
0
5434.2902224409845
0
-1115.2626413420012
0
0
0
0
0
5411.379684374295
0.024
-0.046
1.042
0
-1106.880737171261
0
0
0
0
0
5417.54876584396
0
-1160.7037378196405
0
0
0
0
0
5451.344603460384
0
-1132.0488014279367
0
0
0
0
0
5461.849923354379
0
-1092.530917230954
0
0
0
0
0
5434.9384230301885
0
-1136.496798574543
0
0
0
0
0
5416.677047810203
0
-1171.2537612025453
0
0
0
0
0
5425.9306700147
0
-1110.7028854731186
0
0
0
0
0
5451.277548227018
0
-1079.5669054468758
0
0
0
0
0
5452.685708127703
0
-1095.593106221331
0
0
0
0
0
5434.536091629993
0
-1119.755341977518
0
0
0
0
0
5415.537108842982
0.024
-0.036000000000000004
1.044
0
-1139.715449776107
0
0
0
0
0
5431.7644753175355
0
-1140.3412986208557
0
0
0
0
0
5455.278510484518
0
-1119.6212315107862
0
0
0
0
0
5457.044298296488
0
-1118.9506791771269
0
0
0
0
0
5431.272736939519
0
-1141.6376997992636
0
0
0
0
0
5414.285411153485
0
-1109.5405947614427
0
0
0
0
0
5413.056065208443
0
-1145.6610138012188
0
0
0
0
0
5443.566196389937
0
-1172.5948658698637
0
0
0
0
0
5459.771211120035
0
-1053.9294545566386
0
0
0
0
0
5435.676030597214
0
-1116.626097753775
0
0
0
0
0
5412.743140786069
0.028
-0.04
1.032
0
-1145.303385889934
0
0
0
0
0
5418.711056555636
0
-1146.1304004347803
0
0
0
0
0
5448.818856336935
0
-1076.4823647120434
0
0
0
0
0
5453.17744650572
0
-1095.8389754103393
0
0
0
0
0
5434.223167207619
0
-1146.8456562573501
0
0
0
0
0
5422.153225201753
0
-1141.2800718879787
0
0
0
0
0
5425.505986870049
0
-1105.2490598260235
0
0
0
0
0
5449.6682226262365
0
-1129.143074648747
0
0
0
0
0
5466.230865267618
0
-1167.4092611562326
0
0
0
0
0
5447.880083069812
0
-1111.9769349070712
0
0
0
0
0
5416.744103043568
0.02
-0.036000000000000004
1.038
0
-1068.882771597239
0
0
0
0
0
5413.480748353094
0
-1120.6494117557302
0
0
0
0
0
5450.718754615636
0
-1165.1293832217912
0
0
0
0
0
5472.422298481739
0
-1107.2830685714566
0
0
0
0
0
5442.2697952115295
0
-1114.368571563789
0
0
0
0
0
5417.749931544057
0
-1128.2490048705347
0
0
0
0
0
5421.616783334825
0
-1106.5007575155207
0
0
0
0
0
5451.299899971474
0
-1125.9020717027274
0
0
0
0
0
5466.856714112368
0
-1144.141095178258
0
0
0
0
0
5451.322251715929
0
-1112.3569145628112
0
0
0
0
0
5422.376742646306
0.024
-0.04
1.034
0
-1144.1187434338026
0
0
0
0
0
5423.650792080259
0
-1098.1635568336912
0
0
0
0
0
5451.277548227018
0
-1121.5434815339424
0
0
0
0
0
5467.013176323554
0
-1119.0177344104927
0
0
0
0
0
5445.510798157549
0
-1129.3889438377553
0
0
0
0
0
5419.471015867116
0
-1128.9195572041938
0
0
0
0
0
5424.030771735999
0
-1119.8223972108838
0
0
0
0
0
5451.79163834949
0
-1199.7075318941513
0
0
0
0
0
5473.8528101268785
0
-1121.3646675783
0
0
0
0
0
5448.12595225882
0
-1079.5222019579653
0
0
0
0
0
5420.298030411963
0.024
-0.038
1.036
0
-1114.8603099418058
0
0
0
0
0
5423.583736846893
0
-1132.0264496834816
0
0
0
0
0
5446.874254569323
0
-1128.5842810373642
0
0
0
0
0
5467.817839123945
0
-1108.0206761384818
0
0
0
0
0
5446.270757469029
0
-1113.7650744634957
0
0
0
0
0
5418.532242599994
0
-1148.2538161580344
0
0
0
0
0
5429.283431682996
0
-1129.4559990711211
0
0
0
0
0
5451.568120904937
0
-1076.8399926233283
0
0
0
0
0
5457.245463996585
0
-1096.5542312329092
0
0
0
0
0
5439.498178899072
0
-1119.7776937219733
0
0
0
0
0
5416.297068154463
0.02
-0.04
1.034
0
-1141.2577201435233
0
0
0
0
0
5421.057989723443
0
-1121.4317228116658
0
0
0
0
0
5452.328080216418
0
-1114.7709029639846
0
0
0
0
0
5468.600150179881
0
-1130.46182757161
0
0
0
0
0
5448.215359236641
0
-1153.5288278494868
0
0
0
0
0
5425.416579892228
0
-1110.9264029176716
0
0
0
0
0
5422.264983924029
0
-1089.6698939406747
0
0
0
0
0
5448.751801103568
0
-1144.3422608783558
0
0
0
0
0
5470.343586247395
0
-1133.009926439515
0
0
0
0
0
5452.46219068315
0
-1103.2597545695014
0
0
0
0
0
5421.683838568192
0.022
-0.038
1.038
0
-1124.4492083131324
0
0
0
0
0
5426.288297925985
0
-1137.9049584752272
0
0
0
0
0
5456.396097707284
0
-1138.5531590644312
0
0
0
0
0
5472.712871159658
0
-1157.3509761513444
0
0
0
0
0
5458.161885519253
0
-1110.7028854731186
0
0
0
0
0
5425.774207803513
0
-1103.6397342252415
0
0
0
0
0
5419.9627542451335
0
-1128.2490048705347
0
0
0
0
0
5450.070554026432
0
-1132.138208405758
0
0
0
0
0
5463.191028021697
0
-1073.7107483995853
0
0
0
0
0
5442.962699289644
0
-1095.3248852878673
0
0
0
0
0
5421.706190312647
0.02
-0.044
1.042
0
-1110.5240715174762
0
0
0
0
0
5417.280544910496
0
-1141.5706445658975
0
0
0
0
0
5451.188141249197
0
-1150.46663885911
0
0
0
0
0
5464.599187922381
0
-1145.3704411232998
0
0
0
0
0
5453.8927023282895
0
-1127.399638581233
0
0
0
0
0
5421.035637978988
0
-1079.3433880023229
0
0
0
0
0
5412.430216363695
0
-1110.9264029176716
0
0
0
0
0
5448.282414470007
0
-1124.784484479962
0
0
0
0
0
5463.302786743973
0
-1109.6747052281744
0
0
0
0
0
5449.154132503764
0
-1151.3160051484115
0
0
0
0
0
5423.628440335803
0.02
-0.046
1.042
0
-1103.2150510805907
0
0
0
0
0
5415.447701865161
0
-1098.7447021895293
0
0
0
0
0
5444.236748723597
0
-1153.7299935495846
0
0
0
0
0
5463.660414655258
0
-1126.4161618251994
0
0
0
0
0
5443.834417323401
0
-1118.9506791771269
0
0
0
0
0
5420.163919945231
0
-1122.3928478232442
0
0
0
0
0
5415.224184420608
0
-1136.3403363633558
0
0
0
0
0
5447.701269114169
0
-1124.426856568677
0
0
0
0
0
5463.347490232884
0
-1154.9816912390818
0
0
0
0
0
5447.947138303178
0
-1086.8088706503954
0
0
0
0
0
5412.050236707954
0.02
-0.044
1.042
0
-1091.078053841359
0
0
0
0
0
5412.318457641418
0
-1155.2722639170008
0
0
0
0
0
5448.170655747731
0
-1137.6367375417635
0
0
0
0
0
5466.432030967717
0
-1089.4463764961215
0
0
0
0
0
5437.955908531655
0
-1110.6805337286632
0
0
0
0
0
5419.448664122661
0
-1117.944850676638
0
0
0
0
0
5414.397169875761
0
-1103.88560341425
0
0
0
0
0
5440.235786466096
0
-1135.5133218185094
0
0
0
0
0
5461.782868121013
0
-1160.7260895640957
0
0
0
0
0
5448.416524936739
0
-1100.622248723775
0
0
0
0
0
5415.2688879095185
0.02
-0.044
1.04
0
-1106.0537226264146
0
0
0
0
0
5415.291239653974
0
-1116.0449523979369
0
0
0
0
0
5441.174559733219
0
-1118.45894079911
0
0
0
0
0
5459.257120997563
0
-1135.334507862867
0
0
0
0
0
5447.74597260308
0
-1108.3559523053113
0
0
0
0
0
5419.471015867116
0
-1121.3423158338446
0
0
0
0
0
5412.4525681081495
0
-1118.9059756882164
0
0
0
0
0
5442.448609167172
0
-1144.8339992563724
0
0
0
0
0
5464.018042566543
0
-1168.8174210569168
0
0
0
0
0
5450.1376092597975
0
-1075.588294933831
0
0
0
0
0
5412.586678574882
0.02
-0.048
1.042
0
-1087.4123677506886
0
0
0
0
0
5414.665390809226
0
-1108.2441935830348
0
0
0
0
0
5442.470960911627
0
-1143.2246736555903
0
0
0
0
0
5467.482562957116
0
-1165.7328803220846
0
0
0
0
0
5451.679879627214
0
-1117.9672024210934
0
0
0
0
0
5414.7995012759575
0
-1108.5571180054092
0
0
0
0
0
5415.023018720511
0
-1100.5104900014985
0
0
0
0
0
5441.1522079887645
0
-1098.2976673004232
0
0
0
0
0
5455.367917462339
0
-1135.334507862867
0
0
0
0
0
5445.577853390915
0
-1135.0662869294033
0
0
0
0
0
5419.806292033946
0.02
-0.046
1.042
0
-1136.3403363633558
0
0
0
0
0
5416.006495476544
0
-1148.589092324864
0
0
0
0
0
5444.728487101614
0
-1074.7389286445296
0
0
0
0
0
5453.691536628192
0
-1106.724274960074
0
0
0
0
0
5446.293109213485
0
-1149.03612721397
0
0
0
0
0
5422.622611835314
0
-1105.1596528482023
0
0
0
0
0
5412.4525681081495
0
-1127.5337490479649
0
0
0
0
0
5443.745010345579
0
-1189.5151364225312
0
0
0
0
0
5462.0510890544765
0
-1085.400710749711
0
0
0
0
0
5444.7955423349795
0
-1086.205373550102
0
0
0
0
0
5417.593469332871
0.022
-0.046
1.036
0
-1110.6805337286632
0
0
0
0
0
5411.290277396474
0
-1134.46278982911
0
0
0
0
0
5440.951042288666
0
-1178.6298368727967
0
0
0
0
0
5469.382461235817
0
-1095.1684230766803
0
0
0
0
0
5440.973394033122
0
-1099.9516963901158
0
0
0
0
0
5414.68774255368
0
-1123.4880833015543
0
0
0
0
0
5412.229050663597
0
-1097.269487055479
0
0
0
0
0
5430.378667161306
0
-1103.3268098028673
0
0
0
0
0
5455.211455251152
0
-1116.5813942648642
0
0
0
0
0
5448.774152848024
0
-1124.6056705243195
0
0
0
0
0
5419.649829822759
0.02
-0.044
1.04
0
-1136.5638538079088
0
0
0
0
0
5408.250440150552
0
-1125.6562025137189
0
0
0
0
0
5435.631327108304
0
-1147.9632434801154
0
0
0
0
0
5457.245463996585
0
-1126.2820513584675
0
0
0
0
0
5441.263966711041
0
-1114.167405863691
0
0
0
0
0
5413.279582652996
0
-1097.4706527555768
0
0
0
0
0
5409.032751206488
0
-1111.9769349070712
0
0
0
0
0
5433.105579984854
0
-1139.8719119872942
0
0
0
0
0
5454.786772106501
0
-1141.2577201435233
0
0
0
0
0
5445.153170246264
0
-1101.7398359465403
0
0
0
0
0
5414.508928598038
0.02
-0.04
1.046
0
-1117.5648710208977
0
0
0
0
0
5405.747044771558
0
-1102.4997952580209
0
0
0
0
0
5423.159053702242
0
-1107.3501238048225
0
0
0
0
0
5449.444705181683
0
-1161.4189936422104
0
0
0
0
0
5448.304766214463
0
-1143.1129149333137
0
0
0
0
0
5412.363161130329
0
-1112.9827634075598
0
0
0
0
0
5398.214506890119
0
-1102.2092225801018
0
0
0
0
0
5422.108521712843
0
-1118.0566093989146
0
0
0
0
0
5446.8519028248675
0
-1141.0565544434255
0
0
0
0
0
5443.677955112214
0
-1148.2761679024898
0
0
0
0
0
5414.352466386851
0.02
-0.048
1.048
0
-1132.6522985282302
0
0
0
0
0
5405.523527327005
0
-1125.9691269360933
0
0
0
0
0
5437.352411431362
0
-1084.9313241161494
0
0
0
0
0
5448.0812487699095
0
-1097.4930045000322
0
0
0
0
0
5436.704210842158
0
-1127.8913769592498
0
0
0
0
0
5413.324286141907
0
-1155.0487464724479
0
0
0
0
0
5405.724693027102
0
-1127.6455077702412
0
0
0
0
0
5428.478768882605
0
-1080.6174374362752
0
0
0
0
0
5451.344603460384
0
-1131.4229525831881
0
0
0
0
0
5449.489408670594
0
-1144.5657783229087
0
0
0
0
0
5421.840300779379
0.022
-0.046
1.046
0
-1091.4133300081885
0
0
0
0
0
5397.54395455646
0
-1117.3413535763448
0
0
0
0
0
5421.996762990566
0
-1145.8845312457718
0
0
0
0
0
5451.858693582856
0
-1107.2830685714566
0
0
0
0
0
5443.275623712018
0
-1115.1955861086353
0
0
0
0
0
5412.989009975077
0
-1130.618289782797
0
0
0
0
0
5408.45160585065
0
-1145.973938223593
0
0
0
0
0
5440.951042288666
0
-1109.1829668501578
0
0
0
0
0
5445.533149902004
0
-1107.663048227197
0
0
0
0
0
5437.017135264532
0
-1108.5571180054092
0
0
0
0
0
5410.709132040636
0.022
-0.046
1.044
0
-1125.8573682138167
0
0
0
0
0
5404.383588359784
0
-1142.9117492332161
0
0
0
0
0
5429.618707849826
0
-1154.4899528610651
0
0
0
0
0
5455.166751762242
0
-1140.721278276596
0
0
0
0
0
5447.120123758331
0
-1105.8302051818616
0
0
0
0
0
5412.407864619239
0
-1095.1237195877695
0
0
0
0
0
5400.248515635552
0
-1137.167350908202
0
0
0
0
0
5431.160978217242
0
-1117.6989814876297
0
0
0
0
0
5448.975318548121
0
-1107.4842342715544
0
0
0
0
0
5442.940347545189
0
-1122.661068756708
0
0
0
0
0
5415.023018720511
0.022
-0.05
1.042
0
-1126.0808856583699
0
0
0
0
0
5401.656675536236
0
-1162.1342494647802
0
0
0
0
0
5429.819873549924
0
-1165.3081971774336
0
0
0
0
0
5458.9441965751885
0
-1095.436644010144
0
0
0
0
0
5447.857731325356
0
-1102.7009609581187
0
0
0
0
0
5410.798539018458
0
-1103.1479958472248
0
0
0
0
0
5399.600315046348
0
-1153.3500138938443
0
0
0
0
0
5427.964678760133
0
-1151.9865574820708
0
0
0
0
0
5450.048202281976
0
-1129.4112955822106
0
0
0
0
0
5448.327117958917
0
-1111.7757692069733
0
0
0
0
0
5413.279582652996
0.018000000000000002
-0.046
1.042
0
-1098.5211847449762
0
0
0
0
0
5400.874364480301
0
-1122.7504757345291
0
0
0
0
0
5424.343696158373
0
-1128.0031356815261
0
0
0
0
0
5445.9131295577445
0
-1142.3082521329227
0
0
0
0
0
5444.862597568345
0
-1106.5678127488868
0
0
0
0
0
5416.565289087926
0
-1122.1469786342357
0
0
0
0
0
5403.780091259491
0
-1113.3850948077554
0
0
0
0
0
5423.02494323551
0
-1136.4520950856322
0
0
0
0
0
5453.512722672549
0
-1125.0303536689703
0
0
0
0
0
5449.511760415049
0
-1124.8068362244173
0
0
0
0
0
5423.337867657884
undefined
undefined
undefined
0
-1123.9351181906604
0
0
0
0
0
5408.250440150552
0
-1118.525996032476
0
0
0
0
0
5423.181405446698
0
-1138.1955311531462
0
0
0
0
0
5447.522455158527
0
-1133.4793130730764
0
0
0
0
0
5444.16969349023
0
-1110.8593476843057
0
0
0
0
0
5416.319419898918
0
-1129.0983711598362
0
0
0
0
0
5404.361236615328
0
-1122.526958289976
0
0
0
0
0
5424.3660479028285
0
-1134.8874729737609
0
0
0
0
0
5451.948100560678
0
-1141.5482928214424
0
0
0
0
0
5446.293109213485
0
-1092.1956410641244
0
0
0
0
0
5412.4525681081495
undefined
undefined
undefined
0
-1112.2898593294453
0
0
0
0
0
5402.662504036725
0
-1123.5327867904648
0
0
0
0
0
5424.3660479028285
0
-1176.4393659161767
0
0
0
0
0
5455.323213973429
0
-1137.8379032418613
0
0
0
0
0
5443.677955112214
0
-1130.1936066381463
0
0
0
0
0
5412.944306486167
0
-1167.0292815004923
0
0
0
0
0
5406.462300594128
0
-1122.303440845423
0
0
0
0
0
5424.477806625105
0
-1094.4531672541102
0
0
0
0
0
5440.034620765999
0
-1101.7621876909957
0
0
0
0
0
5439.475827154616
0
-1153.975862738593
0
0
0
0
0
5416.252364665552
undefined
undefined
undefined
0
-1118.1907198656463
0
0
0
0
0
5400.472033080106
0
-1079.790422891429
0
0
0
0
0
5415.782978031991
0
-1112.558080262909
0
0
0
0
0
5443.297975456474
0
-1151.427763870688
0
0
0
0
0
5440.8616353108455
0
-1129.4112955822106
0
0
0
0
0
5419.0239809780105
0
-1099.7952341789287
0
0
0
0
0
5400.963771458122
0
-1129.6124612823082
0
0
0
0
0
5420.83447227889
0
-1145.593958567853
0
0
0
0
0